<?phpxml version="1.0" standalone="no"?>
<!DOCTYPE svg PUBLIC "-//W3C//DTD SVG 1.1//EN" "http://www.w3.org/Graphics/SVG/1.1/DTD/svg11.dtd" >
<svg xmlns="http://www.w3.org/2000/svg">
<metadata></metadata>
<defs>
<font id="robotomedium" horiz-adv-x="1160" >
<font-face units-per-em="2048" ascent="1638" descent="-410" />
<missing-glyph horiz-adv-x="510" />
<glyph unicode="&#xfb01;" horiz-adv-x="1192" d="M24 902v180h165v92q0 195 115 301t322 106q72 0 143 -15.5t163 -44.5l-37 -201q-62 21 -122 34.5t-130 13.5q-109 0 -160 -48.5t-51 -145.5v-92h213v-180h-213v-902h-243v902h-165zM804 0v1082h243v-1082h-243z" />
<glyph horiz-adv-x="2048" />
<glyph horiz-adv-x="2048" />
<glyph unicode="&#xd;" horiz-adv-x="510" />
<glyph unicode=" "  horiz-adv-x="510" />
<glyph unicode="&#x09;" horiz-adv-x="510" />
<glyph unicode="&#xa0;" horiz-adv-x="510" />
<glyph unicode="!" horiz-adv-x="549" d="M154 0v234h243v-234h-243zM154 491v965h243v-965h-243z" />
<glyph unicode="&#x22;" horiz-adv-x="664" d="M66 1038v524h214v-275l-102 -249h-112zM384 1038v524h214v-275l-102 -249h-112z" />
<glyph unicode="#" horiz-adv-x="1250" d="M60 410v158h261l58 313h-243v159h273l78 416h167l-78 -416h224l78 416h168l-78 -416h208v-159h-238l-58 -313h221v-158h-251l-76 -410h-167l76 410h-225l-76 -410h-167l76 410h-231zM488 568h225l58 313h-225z" />
<glyph unicode="$" horiz-adv-x="1164" d="M105 438l2 5h236q0 -142 69.5 -203t173.5 -61q111 0 172 54t61 147q0 85 -55.5 141t-185.5 102q-211 72 -316.5 173.5t-105.5 276.5q0 166 101 273t274 127v218h160v-220q171 -26 267.5 -146.5t96.5 -319.5h-242q0 125 -56 198t-154 73q-102 0 -153 -54.5t-51 -146.5 q0 -86 53.5 -140t192.5 -103q211 -76 314 -176t103 -274q0 -173 -105 -276t-287 -122v-195h-159v194q-179 19 -294.5 129.5t-111.5 325.5z" />
<glyph unicode="%" horiz-adv-x="1504" d="M100 1099v77q0 128 82.5 214.5t225.5 86.5q144 0 226.5 -86t82.5 -215v-77q0 -128 -82.5 -213.5t-224.5 -85.5q-144 0 -227 85.5t-83 213.5zM269 1099q0 -64 36.5 -108.5t104.5 -44.5q66 0 101.5 44t35.5 109v77q0 65 -36.5 110t-102.5 45q-67 0 -103 -45t-36 -110v-77z M335 181l711 1138l125 -72l-711 -1138zM800 279v78q0 127 83 213.5t225 86.5q144 0 226.5 -86t82.5 -214v-78q0 -129 -82.5 -214.5t-224.5 -85.5q-144 0 -227 86t-83 214zM969 279q0 -64 37.5 -109t103.5 -45q70 0 104 43.5t34 110.5v78q0 64 -36.5 109t-103.5 45t-103 -45 t-36 -109v-78z" />
<glyph unicode="&#x26;" horiz-adv-x="1309" d="M62 393q0 120 68 208.5t204 178.5q-73 95 -109 172t-36 157q0 171 103 269.5t278 98.5q159 0 258.5 -95.5t99.5 -230.5q0 -98 -51.5 -174.5t-145.5 -145.5l-100 -72l305 -362q40 63 62.5 138t22.5 159h197q0 -137 -36.5 -252t-110.5 -205l196 -232l-2 -5h-274l-81 95 q-82 -57 -175.5 -86.5t-197.5 -29.5q-217 0 -346 115t-129 299zM305 401q0 -100 63 -164t176 -64q62 0 123 18t116 53l-328 387l-30 -22q-72 -56 -96 -108t-24 -100zM417 1112q0 -48 24.5 -99t72.5 -113l114 76q57 37 76.5 77.5t19.5 89.5q0 54 -42.5 96.5t-111.5 42.5 q-74 0 -113.5 -49t-39.5 -121z" />
<glyph unicode="'" horiz-adv-x="346" d="M66 1028v532h214v-249l-102 -283h-112z" />
<glyph unicode="(" horiz-adv-x="695" d="M128 576v16q0 394 156.5 670.5t338.5 361.5l6 -1l45 -134q-134 -102 -229.5 -327t-95.5 -568v-20q0 -343 95 -568t230 -334l-45 -128h-6q-183 86 -339 362t-156 670z" />
<glyph unicode=")" horiz-adv-x="700" d="M17 -328q133 102 229 330t96 572v20q0 340 -98.5 568.5t-226.5 332.5l46 129h6q182 -84 342 -364t160 -668v-16q0 -389 -159.5 -668t-342.5 -364h-6z" />
<glyph unicode="*" horiz-adv-x="895" d="M27 1061l53 169l296 -117l-13 343h174l-15 -350l291 115l53 -171l-303 -88l195 -266l-141 -105l-177 287l-174 -279l-143 102l202 271z" />
<glyph unicode="+" horiz-adv-x="1141" d="M68 579v222h382v405h236v-405h380v-222h-380v-433h-236v433h-382z" />
<glyph unicode="," horiz-adv-x="462" d="M54 -281l70 321v198h239v-207l-155 -312h-154z" />
<glyph unicode="-" horiz-adv-x="672" d="M71 521v196h525v-196h-525z" />
<glyph unicode="." horiz-adv-x="572" d="M153 0v233h242v-233h-242z" />
<glyph unicode="/" horiz-adv-x="839" d="M2 -125l573 1581h223l-573 -1581h-223z" />
<glyph unicode="0" horiz-adv-x="1164" d="M104 561v333q0 283 128 433t349 150q220 0 349 -150t129 -433v-333q0 -284 -128 -433t-348 -149q-221 0 -350 149t-129 433zM347 526q0 -180 60.5 -266.5t175.5 -86.5t174 86t59 267v405q0 179 -60 265t-175 86t-174.5 -86t-59.5 -265v-405z" />
<glyph unicode="1" horiz-adv-x="1164" d="M179 1225v179l539 52v-1456h-243v1225h-296z" />
<glyph unicode="2" horiz-adv-x="1164" d="M87 1018q-5 194 127 326.5t362 132.5q210 0 332 -116t122 -303q0 -125 -70.5 -239t-218.5 -277l-324 -342l3 -6h656v-194h-967v167l474 517q116 127 160 208.5t44 159.5q0 98 -57 164t-154 66q-128 0 -190 -72t-62 -198h-235z" />
<glyph unicode="3" horiz-adv-x="1164" d="M86 384l2 6h234q0 -97 65 -157t173 -60q113 0 178 61t65 173q0 123 -59.5 181.5t-184.5 58.5h-169v191h169q118 0 170 58.5t52 165.5q0 105 -56 162.5t-165 57.5q-99 0 -161.5 -56.5t-62.5 -148.5h-234l-2 6q-6 167 124.5 280.5t332.5 113.5q213 0 340 -108t127 -307 q0 -93 -57 -180t-162 -135q124 -44 182.5 -134t58.5 -205q0 -200 -137.5 -314.5t-351.5 -114.5q-202 0 -339.5 107.5t-131.5 297.5z" />
<glyph unicode="4" horiz-adv-x="1164" d="M56 472l623 984h250v-937h184v-196h-184v-323h-242v323h-625zM296 519h391v591l-6 2l-20 -43z" />
<glyph unicode="5" horiz-adv-x="1164" d="M135 384l2 5l227 8q0 -106 62 -165t161 -59q113 0 172.5 79.5t59.5 210.5q0 132 -61 214.5t-174 82.5q-100 0 -148.5 -32.5t-70.5 -93.5l-209 17l84 805h769v-210h-567l-44 -365q43 32 99.5 52.5t127.5 22.5q205 2 321 -130t116 -361q0 -214 -122 -350t-353 -136 q-192 0 -324.5 105.5t-127.5 299.5z" />
<glyph unicode="6" horiz-adv-x="1164" d="M116 571v278q0 284 160.5 456t403.5 172q78 0 150 -16.5t129 -43.5l-46 -188q-56 24 -109 37.5t-123 13.5q-146 0 -234.5 -112.5t-88.5 -303.5v-7q60 55 139.5 85t174.5 30q195 0 308.5 -136.5t113.5 -347.5q0 -223 -130 -366t-341 -143q-222 0 -364.5 156t-142.5 436z M358 558q0 -185 74.5 -285t190.5 -100q106 0 167 91t61 224q0 131 -64 213t-175 82q-92 0 -156 -32.5t-98 -88.5v-104z" />
<glyph unicode="7" horiz-adv-x="1164" d="M69 1261v195h1006v-195q-251 -295 -339 -532t-128 -575l-15 -154h-243l15 154q39 330 156 598.5t319 508.5h-771z" />
<glyph unicode="8" horiz-adv-x="1164" d="M97 397q0 120 69.5 212t190.5 139q-104 44 -163 128.5t-59 195.5q0 194 122.5 299.5t323.5 105.5q199 0 323.5 -105.5t124.5 -299.5q0 -110 -60 -195t-163 -130q119 -46 189.5 -138t70.5 -212q0 -203 -134 -310.5t-349 -107.5q-218 0 -352 107.5t-134 310.5zM340 409 q0 -110 66 -173t177 -63q107 0 174 63.5t67 172.5q0 107 -68.5 174t-174.5 67q-108 0 -174.5 -66.5t-66.5 -174.5zM378 1063q0 -99 55.5 -158.5t149.5 -59.5q92 0 147.5 59.5t55.5 158.5q0 96 -57 157.5t-148 61.5q-94 0 -148.5 -59.5t-54.5 -159.5z" />
<glyph unicode="9" horiz-adv-x="1164" d="M82 974q0 218 135 360.5t334 142.5q226 0 361 -148.5t135 -427.5v-341q0 -276 -148.5 -428.5t-383.5 -152.5q-75 0 -155 15t-147 45l32 186q61 -28 125 -40t145 -12q130 0 210 96.5t80 281.5v67q-49 -67 -119.5 -101.5t-154.5 -34.5q-208 0 -328.5 131.5t-120.5 360.5z M325 974q0 -136 60.5 -219.5t168.5 -83.5q91 0 155 36t96 93v130q0 173 -65 262.5t-185 89.5q-98 0 -164 -87.5t-66 -220.5z" />
<glyph unicode=":" horiz-adv-x="549" d="M153 0v233h242v-233h-242zM153 876v233h242v-233h-242z" />
<glyph unicode=";" horiz-adv-x="544" d="M105 -281l70 321v198h239v-207l-155 -312h-154zM154 876v233h242v-233h-242z" />
<glyph unicode="&#x3c;" horiz-adv-x="1041" d="M63 458v193l837 372v-242l-578 -222l-19 -3v-6l19 -3l578 -218v-243z" />
<glyph unicode="=" horiz-adv-x="1166" d="M145 366v201h862v-201h-862zM145 790v202h862v-202h-862z" />
<glyph unicode="&#x3e;" horiz-adv-x="1066" d="M128 86v239l605 226l18 2l1 6l-19 4l-605 221v239l864 -372v-193z" />
<glyph unicode="?" horiz-adv-x="996" d="M47 1100q-3 178 119.5 277.5t316.5 99.5q210 0 327.5 -107t117.5 -297q0 -127 -73.5 -235.5t-185.5 -198.5q-57 -50 -71.5 -95t-14.5 -132h-243q1 143 33 204.5t142 154.5q78 76 124 145.5t46 153.5q0 97 -52.5 150.5t-149.5 53.5q-83 0 -141 -45.5t-58 -134.5h-234z M339 0v233h248v-233h-248z" />
<glyph unicode="@" horiz-adv-x="1825" d="M91 478q18 424 252 685t613 261q383 0 587 -246t188 -671q-9 -216 -124 -372t-344 -156q-75 0 -129.5 42t-78.5 119q-47 -80 -116 -119.5t-161 -39.5q-133 0 -204.5 119.5t-53.5 315.5q24 256 140.5 411t282.5 155q110 0 177.5 -26t147.5 -80l-3 -4h5l-51 -579 q-8 -101 18 -139t69 -38q119 0 190.5 110.5t79.5 280.5q16 367 -140 572t-484 205q-306 0 -489.5 -221t-198.5 -585q-18 -365 147.5 -575t475.5 -210q87 0 177 20t154 53l38 -130q-67 -42 -170.5 -65.5t-202.5 -23.5q-387 0 -598 249.5t-194 681.5zM721 416 q-10 -133 20 -202t99 -69q59 0 109 24.5t89 87.5q0 8 0.5 16t1.5 20l45 515q-23 9 -49 14.5t-54 5.5q-118 0 -180 -102.5t-81 -309.5z" />
<glyph unicode="A" horiz-adv-x="1320" d="M16 0l535 1456h230l529 -1456h-247l-115 340h-570l-116 -340h-246zM448 543h431l-211 622h-6z" />
<glyph unicode="B" horiz-adv-x="1312" d="M159 0v1456h484q242 0 378 -99.5t136 -297.5q0 -99 -57 -177t-158 -116q130 -29 200 -125t70 -223q0 -205 -134 -311.5t-370 -106.5h-549zM402 194h306q126 0 194 57.5t68 166.5q0 116 -57 180t-178 64h-333v-468zM402 843h268q113 0 178.5 53.5t65.5 151.5 q0 108 -69 160.5t-202 52.5h-241v-418z" />
<glyph unicode="C" horiz-adv-x="1302" d="M106 589v277q0 266 157.5 438.5t409.5 172.5q259 1 407 -135q145 -132 144 -353v-12l-2 -6h-235q0 147 -79.5 229t-234.5 82q-149 0 -236.5 -118t-87.5 -296v-279q0 -180 89.5 -298t241.5 -118q151 0 229 81t78 229h234l2 -6v-12q1 -213 -143 -347q-148 -138 -400 -139 q-255 0 -414.5 171.5t-159.5 438.5z" />
<glyph unicode="D" horiz-adv-x="1346" d="M159 0v1456h472q277 0 450.5 -173t173.5 -445v-221q0 -273 -173.5 -445t-450.5 -172h-472zM402 194h222q181 0 284.5 118t103.5 305v223q0 185 -103.5 303t-284.5 118h-222v-1067z" />
<glyph unicode="E" horiz-adv-x="1187" d="M159 0v1456h975v-195h-732v-411h637v-195h-637v-461h739v-194h-982z" />
<glyph unicode="F" horiz-adv-x="1188" d="M159 0v1456h983v-195h-740v-445h638v-195h-638v-621h-243z" />
<glyph unicode="G" horiz-adv-x="1383" d="M110 576v304q0 264 160.5 430.5t414.5 166.5q257 0 399.5 -126.5t145.5 -329.5l-2 -6h-230q-8 120 -85.5 193.5t-224.5 73.5q-151 0 -243.5 -113t-92.5 -287v-306q0 -176 100.5 -289.5t260.5 -113.5q114 0 185 26.5t103 62.5v296h-289v182h532v-543 q-58 -83 -190.5 -150.5t-340.5 -67.5q-263 0 -433 166.5t-170 430.5z" />
<glyph unicode="H" horiz-adv-x="1456" d="M159 0v1456h243v-640h652v640h242v-1456h-242v621h-652v-621h-243z" />
<glyph unicode="I" horiz-adv-x="589" d="M173 0v1456h243v-1456h-243z" />
<glyph unicode="J" horiz-adv-x="1148" d="M64 407l2 6h235q0 -124 61.5 -182t171.5 -58q96 0 158.5 67t62.5 181v1035h243v-1035q0 -204 -130 -323t-334 -119q-219 0 -347 109q-123 105 -123 303v16z" />
<glyph unicode="K" horiz-adv-x="1320" d="M159 0v1456h243v-617h139l457 617h288l-530 -695l571 -761h-297l-460 630h-168v-630h-243z" />
<glyph unicode="L" horiz-adv-x="1108" d="M159 0v1456h243v-1262h669v-194h-912z" />
<glyph unicode="M" horiz-adv-x="1794" d="M159 0v1456h315l419 -1120h6l420 1120h315v-1456h-243v496l24 631l-6 1l-432 -1128h-163l-430 1125l-6 -1l24 -628v-496h-243z" />
<glyph unicode="N" horiz-adv-x="1456" d="M159 0v1456h243l646 -1062l6 2v1060h242v-1456h-242l-646 1063l-6 -2v-1061h-243z" />
<glyph unicode="O" horiz-adv-x="1398" d="M103 597v262q0 266 163.5 442t424.5 176q267 0 435 -176t168 -442v-262q0 -267 -167.5 -442.5t-434.5 -175.5q-262 0 -425.5 175.5t-163.5 442.5zM345 597q0 -184 93 -301.5t254 -117.5q167 0 263.5 117t96.5 302v264q0 182 -97.5 299t-263.5 117q-160 0 -253 -117 t-93 -299v-264z" />
<glyph unicode="P" horiz-adv-x="1323" d="M159 0v1456h569q241 0 377.5 -124.5t136.5 -327.5q0 -205 -136.5 -328.5t-377.5 -123.5h-326v-552h-243zM402 747h326q135 0 203 72t68 183t-68 185t-203 74h-326v-514z" />
<glyph unicode="Q" horiz-adv-x="1414" d="M103 597v262q0 266 163.5 442t424.5 176q267 0 435 -176t168 -442v-262q0 -135 -46 -251t-130 -200l242 -235l-162 -145l-268 256q-54 -22 -114 -32.5t-124 -10.5q-262 0 -425.5 175.5t-163.5 442.5zM345 597q0 -184 93 -301.5t254 -117.5q167 0 263.5 117t96.5 302v264 q0 182 -97.5 299t-263.5 117q-160 0 -253 -117t-93 -299v-264z" />
<glyph unicode="R" horiz-adv-x="1356" d="M159 0v1456h538q244 0 377 -110t133 -314q0 -113 -58.5 -194.5t-170.5 -130.5q123 -39 177 -127.5t54 -217.5v-121q0 -64 16 -125t54 -93v-23h-250q-40 33 -51.5 104t-11.5 139v117q0 112 -64 178t-176 66h-324v-604h-243zM402 799h282q146 0 213 56t67 171 q0 110 -66 172.5t-201 62.5h-295v-462z" />
<glyph unicode="S" horiz-adv-x="1288" d="M96 430l2 6h234q0 -133 92 -198.5t239 -65.5q135 0 210 54.5t75 147.5q0 91 -67.5 149t-238.5 104q-244 64 -375.5 169.5t-131.5 276.5q0 176 145.5 290t375.5 114q240 0 386 -129q141 -125 140 -298v-12l-2 -6h-233q0 112 -76 181.5t-217 69.5q-133 0 -204.5 -58 t-71.5 -150q0 -83 77.5 -138t256.5 -104q235 -63 357 -174t122 -283q0 -182 -145.5 -289.5t-382.5 -107.5q-228 1 -400 121q-167 117 -167 318v12z" />
<glyph unicode="T" horiz-adv-x="1185" d="M31 1261v195h1123v-195h-440v-1261h-243v1261h-440z" />
<glyph unicode="U" horiz-adv-x="1396" d="M134 480v976h243v-976q0 -153 86 -230t231 -77q150 0 239 77t89 230v976h243v-976q0 -242 -158 -371.5t-413 -129.5q-250 0 -405 130t-155 371z" />
<glyph unicode="V" horiz-adv-x="1300" d="M15 1456h259l347 -1075l26 -101h6l25 99l348 1077h259l-520 -1456h-231z" />
<glyph unicode="W" horiz-adv-x="1812" d="M40 1456h239l233 -1068v-2l1 5l291 1065h194l294 -1068l1 -7l1 10l230 1065h239l-346 -1456h-221l-291 1045h-6l-292 -1045h-222z" />
<glyph unicode="X" horiz-adv-x="1300" d="M50 0l458 734l-448 722h286l304 -538l307 538h288l-448 -722l465 -734h-292l-316 547l-316 -547h-288z" />
<glyph unicode="Y" horiz-adv-x="1270" d="M13 1456h271l350 -708l352 708h271l-505 -945v-511h-242v524z" />
<glyph unicode="Z" horiz-adv-x="1216" d="M88 0v152l731 1109h-725v195h1018v-146l-735 -1116h760v-194h-1049z" />
<glyph unicode="[" horiz-adv-x="561" d="M132 -324v2002h408v-190h-165v-1623h165v-189h-408z" />
<glyph unicode="\" horiz-adv-x="855" d="M21 1456h236l608 -1581h-236z" />
<glyph unicode="]" horiz-adv-x="561" d="M12 -135h167v1623h-167v190h410v-2002h-410v189z" />
<glyph unicode="^" horiz-adv-x="875" d="M53 729l299 727h171l298 -727h-205l-165 413l-12 54h-6l-12 -54l-162 -413h-206z" />
<glyph unicode="_" horiz-adv-x="924" d="M3 0h917v-191h-917v191z" />
<glyph unicode="`" horiz-adv-x="660" d="M80 1472l2 6h268l185 -266h-196z" />
<glyph unicode="a" horiz-adv-x="1114" d="M82 305q0 157 124 244.5t349 87.5h189v95q0 85 -50 133t-143 48q-83 0 -132 -40t-49 -103h-234l-1 6v14q1 120 115 213q122 99 316 99q189 0 305 -96t116 -276v-481q0 -67 9 -128.5t29 -120.5h-246q-13 41 -21.5 80t-11.5 78q-50 -76 -131.5 -127.5t-182.5 -51.5 q-169 0 -259.5 87t-90.5 239zM325 309q0 -62 40.5 -98.5t115.5 -36.5q92 0 165.5 46t97.5 105v160h-193q-106 0 -166 -52.5t-60 -123.5z" />
<glyph unicode="b" d="M128 0v1560h243v-601q50 69 120 106t163 37q203 0 313.5 -158t110.5 -418v-21q0 -237 -110.5 -381.5t-311.5 -144.5q-101 0 -175.5 41t-124.5 120l-24 -140h-204zM371 313q31 -65 86 -100.5t138 -35.5q126 0 183 88.5t57 239.5v21q0 169 -58 273t-184 104 q-81 0 -135.5 -36t-86.5 -100v-454z" />
<glyph unicode="c" horiz-adv-x="1075" d="M81 523v35q0 235 127.5 389.5t366.5 154.5q195 0 317 -114q118 -110 117 -277v-11l-2 -6h-221q0 89 -58.5 151t-152.5 62q-137 0 -194 -99.5t-57 -249.5v-35q0 -153 57 -251.5t194 -98.5q89 0 150 52.5t61 131.5h220l2 -6v-11q0 -145 -124 -251q-128 -110 -309 -110 q-239 0 -366.5 154t-127.5 390z" />
<glyph unicode="d" d="M83 505v21q0 259 111 417.5t312 158.5q88 0 157.5 -35.5t120.5 -101.5v595h243v-1560h-204l-24 134q-52 -76 -125 -115.5t-170 -39.5q-199 0 -310 145t-111 381zM326 505q0 -150 57.5 -239t182.5 -89q77 0 130.5 33t87.5 94v472q-34 60 -88 93.5t-128 33.5 q-124 0 -183 -104.5t-59 -272.5v-21z" />
<glyph unicode="e" horiz-adv-x="1084" d="M89 516v40q-1 236 135 392q135 155 337 154h3q219 0 335.5 -132.5t116.5 -355.5v-143h-675l-2 -5q6 -129 75.5 -211t192.5 -82q98 0 168 24t135 69l78 -159q-61 -54 -162 -91t-234 -37q-230 0 -366.5 150.5t-136.5 386.5zM344 654l2 -5h429v25q0 103 -52.5 168t-158.5 65 q-90 0 -148 -71.5t-72 -181.5z" />
<glyph unicode="f" horiz-adv-x="719" d="M42 902v180h165v126q0 179 97.5 276t273.5 97q35 0 71 -5.5t81 -15.5l-25 -188q-20 4 -44.5 7t-52.5 3q-79 0 -118.5 -45t-39.5 -129v-126h220v-180h-220v-902h-243v902h-165z" />
<glyph unicode="g" d="M84 505v21q0 258 113 417t314 159q97 0 170.5 -41.5t124.5 -119.5l24 141h202v-1082q0 -209 -129 -323t-366 -114q-79 0 -170.5 22.5t-165.5 59.5l52 191q60 -31 132.5 -48.5t149.5 -17.5q132 0 193 56.5t61 173.5v111q-51 -65 -120.5 -98.5t-159.5 -33.5 q-199 0 -312 145t-113 381zM327 505q0 -149 59.5 -238.5t184.5 -89.5q78 0 131.5 32.5t86.5 93.5v474q-34 59 -87.5 92.5t-128.5 33.5q-125 0 -185.5 -105t-60.5 -272v-21z" />
<glyph unicode="h" d="M125 0v1560h243v-618q54 76 131.5 118t171.5 42q172 0 268.5 -108.5t96.5 -334.5v-659h-243v661q0 128 -51 185t-153 57q-71 0 -127.5 -29.5t-93.5 -81.5v-792h-243z" />
<glyph unicode="i" horiz-adv-x="531" d="M144 0v1082h243v-1082h-243zM144 1347v213h243v-213h-243z" />
<glyph unicode="j" horiz-adv-x="537" d="M-80 -420l14 194q17 -5 42 -8.5t46 -3.5q62 0 97.5 42.5t35.5 132.5v1145h243v-1145q0 -179 -93 -276.5t-259 -97.5q-36 0 -65 4t-61 13zM149 1347v213h243v-213h-243z" />
<glyph unicode="k" horiz-adv-x="1072" d="M129 0v1560h242v-892h101l273 414h286l-357 -492l410 -590h-282l-322 473h-109v-473h-242z" />
<glyph unicode="l" horiz-adv-x="531" d="M144 0v1560h243v-1560h-243z" />
<glyph unicode="m" horiz-adv-x="1781" d="M128 0v1082h222l13 -141q53 77 133 119t185 42q106 0 182 -48t114 -144q50 90 132 141t192 51q163 0 257.5 -111.5t94.5 -338.5v-652h-243v653q0 138 -47.5 194t-142.5 56q-78 0 -132 -42t-78 -113q0 -15 1 -26t1 -21v-701h-243v653q0 133 -48.5 191.5t-142.5 58.5 q-74 0 -125.5 -28.5t-81.5 -80.5v-794h-243z" />
<glyph unicode="n" d="M126 0v1082h222l14 -156q53 83 133.5 129.5t181.5 46.5q169 0 263.5 -102.5t94.5 -319.5v-680h-243v678q0 122 -50.5 173.5t-153.5 51.5q-71 0 -127 -31.5t-92 -86.5v-785h-243z" />
<glyph unicode="o" d="M83 530v21q0 241 132 396q134 155 363 155q233 0 365 -155q133 -154 133 -396v-21q0 -244 -133 -398q-132 -153 -363 -153q-232 0 -365 154q-132 154 -132 397zM326 530q0 -158 62 -258q61 -99 192 -99q127 0 190 99q64 100 64 258v21q0 155 -64 255q-63 101 -192 101 q-127 0 -190 -101q-62 -101 -62 -255v-21z" />
<glyph unicode="p" d="M128 -416v1498h205l24 -136q52 76 125.5 116t170.5 40q200 0 311.5 -158.5t111.5 -417.5v-21q0 -236 -111 -381t-309 -145q-92 0 -163 33t-122 97v-525h-243zM371 291q32 -57 85 -87.5t131 -30.5q124 0 185.5 91.5t61.5 240.5v21q0 166 -62.5 271.5t-186.5 105.5 q-76 0 -129 -32.5t-85 -90.5v-489z" />
<glyph unicode="q" d="M83 505v21q0 259 111 417.5t312 158.5q94 0 166 -39t123 -112l28 131h197v-1498h-243v518q-50 -61 -118 -92t-155 -31q-199 0 -310 145t-111 381zM326 505q0 -150 57.5 -241t182.5 -91q74 0 125.5 29.5t85.5 85.5v504q-34 54 -86 84.5t-123 30.5q-124 0 -183 -106.5 t-59 -274.5v-21z" />
<glyph unicode="r" horiz-adv-x="709" d="M128 0v1082h222l16 -157q41 83 105.5 130t148.5 47q22 0 41 -3.5t35 -8.5l-29 -227l-104 4q-71 0 -118.5 -30t-73.5 -85v-752h-243z" />
<glyph unicode="s" horiz-adv-x="1065" d="M88 335l2 6h226q4 -94 68 -137t156 -43q94 0 145 36t51 97q0 56 -48 93t-179 65q-194 41 -293.5 116.5t-99.5 205.5q0 136 115 232t303 96q198 0 314 -98q112 -93 112 -229v-12l-2 -6h-233q0 67 -51 115t-140 48q-88 0 -134 -39.5t-46 -96.5t43.5 -90.5t176.5 -59.5 q204 -42 302.5 -118.5t98.5 -208.5q0 -146 -120.5 -237t-317.5 -91q-211 0 -333 108q-116 103 -116 235v13z" />
<glyph unicode="t" horiz-adv-x="712" d="M23 902v180h165v263h242v-263h194v-180h-194v-598q0 -67 29 -95.5t77 -28.5q20 0 39 3.5t36 9.5l26 -178q-31 -17 -74 -26.5t-89 -9.5q-134 0 -210 78.5t-76 246.5v598h-165z" />
<glyph unicode="u" d="M123 435v647h242v-649q0 -142 46 -199t139 -57q88 0 147.5 31.5t93.5 91.5v782h243v-1082h-212l-20 158q-51 -86 -129 -132.5t-180 -46.5q-174 0 -272 111t-98 345z" />
<glyph unicode="v" horiz-adv-x="1038" d="M32 1082h251l221 -716l18 -88h6l19 88l215 716h251l-384 -1082h-211z" />
<glyph unicode="w" horiz-adv-x="1530" d="M37 1082h233l173 -758l6 -1l225 759h177l229 -770l6 1l169 769h233l-296 -1082h-199l-230 739l-2 10l-1 -10l-228 -739h-199z" />
<glyph unicode="x" horiz-adv-x="1038" d="M33 0l350 547l-340 535h276l197 -371l200 371h279l-340 -535l350 -547h-276l-209 380l-209 -380h-278z" />
<glyph unicode="y" horiz-adv-x="1038" d="M16 1082h265l206 -648l24 -108h6l237 756h266l-448 -1246q-43 -113 -121 -193t-221 -80q-30 0 -64.5 6t-66.5 14l27 188q13 -1 37 -3t36 -2q66 0 105.5 45t64.5 104l40 98z" />
<glyph unicode="z" horiz-adv-x="1038" d="M85 0v159l546 727h-535v196h842v-154l-552 -734h578v-194h-879z" />
<glyph unicode="{" horiz-adv-x="687" d="M56 529v178q98 0 145.5 58t47.5 164v203q0 171 82.5 290.5t277.5 174.5l48 -140q-98 -33 -138.5 -117t-40.5 -208v-203q0 -104 -43 -184.5t-130 -125.5q87 -47 130 -127.5t43 -182.5v-203q0 -124 40.5 -208t138.5 -117l-48 -141q-195 55 -277.5 175t-82.5 291v203 q0 104 -47.5 162t-145.5 58z" />
<glyph unicode="|" horiz-adv-x="514" d="M174 -270v1726h167v-1726h-167z" />
<glyph unicode="}" horiz-adv-x="687" d="M27 -219q97 33 138.5 117t41.5 208v203q0 105 44.5 185t137.5 124q-93 43 -137.5 123.5t-44.5 187.5v203q0 124 -41.5 208t-138.5 117l48 140q194 -55 277 -174.5t83 -290.5v-203q0 -106 47 -164t147 -58v-178q-100 0 -147 -58t-47 -162v-203q0 -171 -83 -291t-277 -175z " />
<glyph unicode="~" horiz-adv-x="1361" d="M117 460q0 150 86 252.5t221 102.5q86 0 161.5 -33.5t155.5 -101.5q54 -48 97 -69t90 -21q59 0 102 54.5t43 128.5l171 -23q0 -151 -88 -257t-221 -106q-87 0 -159.5 32.5t-155.5 103.5q-55 46 -99 68t-90 22q-60 0 -102 -51.5t-42 -123.5z" />
<glyph unicode="&#xa1;" horiz-adv-x="542" d="M143 -374v964h243v-964h-243zM143 847v235h243v-235h-243z" />
<glyph unicode="&#xa2;" horiz-adv-x="1149" d="M91 523v35q0 208 101.5 356t294.5 180v224h200v-225q154 -29 245 -136.5t88 -257.5l-2 -5h-222q0 89 -58.5 151t-152.5 62q-137 0 -194 -99.5t-57 -249.5v-35q0 -153 57 -251.5t194 -98.5q89 0 150 52.5t61 131.5h222l2 -5q3 -129 -92.5 -231t-240.5 -131v-235h-200v232 q-193 31 -294.5 178.5t-101.5 357.5z" />
<glyph unicode="&#xa3;" horiz-adv-x="1205" d="M81 600v195h155l-9 238q0 207 116 325.5t311 118.5q207 0 321 -108.5t110 -286.5l-2 -6h-235q0 105 -54.5 155.5t-139.5 50.5q-86 0 -135 -65.5t-49 -183.5l9 -238h389v-195h-381l5 -114q0 -82 -22.5 -158t-64.5 -134h725v-194h-986v194h10q47 13 70.5 101.5t23.5 182.5 l-5 122h-162z" />
<glyph unicode="&#xa4;" horiz-adv-x="1437" d="M93 118l135 137q-49 76 -74.5 165.5t-25.5 187.5q0 101 28 193.5t81 171.5l-144 147l141 144l142 -145q74 55 162 85t185 30q96 0 185 -30.5t164 -86.5l145 148l142 -145l-148 -151q51 -78 79 -169.5t28 -191.5q0 -97 -25.5 -185.5t-72.5 -163.5l139 -141l-142 -145 l-132 134q-77 -61 -169.5 -94t-192.5 -33q-101 0 -193 32.5t-167 93.5l-129 -132zM313 608q0 -185 119.5 -314t290.5 -129q170 0 289.5 129t119.5 314q0 184 -119.5 312t-289.5 128q-171 0 -290.5 -128t-119.5 -312z" />
<glyph unicode="&#xa5;" horiz-adv-x="1248" d="M26 1456h272l322 -640l323 640h271l-397 -714h276v-195h-355v-115h355v-195h-355v-237h-243v237h-357v195h357v115h-357v195h287z" />
<glyph unicode="&#xa6;" horiz-adv-x="508" d="M136 -270v795h229v-795h-229zM136 698v758h229v-758h-229z" />
<glyph unicode="&#xa7;" horiz-adv-x="1272" d="M94 542q0 90 43.5 160t125.5 114q-67 50 -100 119.5t-33 166.5q0 169 137.5 272t367.5 103q238 0 372 -111.5t129 -312.5l-2 -6h-234q0 101 -70 168t-195 67q-130 0 -196 -50.5t-66 -127.5q0 -86 61 -129t257 -95q244 -66 358.5 -158.5t114.5 -266.5q0 -93 -44.5 -162 t-126.5 -111q67 -50 101 -119t34 -166q0 -175 -136.5 -274t-367.5 -99q-226 0 -379 101t-148 319l2 6l233 1q0 -122 85 -177t207 -55t192 49.5t70 126.5t-67 122t-254 101q-242 64 -356.5 157t-114.5 267zM336 558q0 -89 62 -134.5t256 -100.5q53 -16 88 -26.5t67 -21.5 q55 22 85 64.5t30 99.5q0 80 -68 128.5t-255 105.5q-42 10 -81 22.5t-76 26.5q-55 -21 -81.5 -63.5t-26.5 -100.5z" />
<glyph unicode="&#xa8;" horiz-adv-x="1054" d="M164 1252v204h241v-204h-241zM647 1252v204h242v-204h-242z" />
<glyph unicode="&#xa9;" horiz-adv-x="1604" d="M87 729q0 315 207 531t503 216q295 0 502 -216t207 -531q0 -316 -207.5 -533t-501.5 -217q-296 0 -503 217t-207 533zM209 729q0 -264 171.5 -444.5t416.5 -180.5q244 0 415.5 180.5t171.5 444.5q0 263 -171.5 442.5t-415.5 179.5q-246 0 -417 -179.5t-171 -442.5z M434 669v119q0 173 94.5 280t254.5 107q157 0 245.5 -79.5t84.5 -228.5l-2 -6h-148q0 94 -45 136.5t-135 42.5q-94 0 -144.5 -69t-50.5 -182v-120q0 -115 50.5 -183.5t144.5 -68.5q90 0 134.5 41.5t44.5 137.5h148l2 -6q4 -151 -84 -229.5t-245 -78.5q-160 0 -254.5 106 t-94.5 281z" />
<glyph unicode="&#xaa;" horiz-adv-x="913" d="M116 920q0 111 84.5 171t246.5 60h137v51q0 62 -29.5 94.5t-86.5 32.5q-66 0 -102 -26t-36 -73l-165 13l-1 6q-6 98 79 163t225 65q134 0 212.5 -71t78.5 -205v-314q0 -51 6 -95t20 -86h-177q-8 21 -13 44.5t-8 49.5q-33 -47 -88.5 -77.5t-133.5 -30.5q-119 0 -184 61 t-65 167zM291 924q0 -43 29 -65.5t88 -22.5q51 0 104.5 29t71.5 64v105h-136q-74 0 -115.5 -32t-41.5 -78z" />
<glyph unicode="&#xab;" horiz-adv-x="994" d="M98 507v19l288 390h167l-247 -400l247 -399h-167zM432 507v19l288 390h167l-247 -400l247 -399h-167z" />
<glyph unicode="&#xac;" horiz-adv-x="1133" d="M127 634v171h835v-431h-200v260h-635z" />
<glyph unicode="&#xad;" horiz-adv-x="672" d="M71 521v196h525v-196h-525z" />
<glyph unicode="&#xae;" horiz-adv-x="1604" d="M87 729q0 315 207 531t503 216q295 0 502 -216t207 -531q0 -316 -207.5 -533t-501.5 -217q-296 0 -503 217t-207 533zM209 729q0 -264 171.5 -444.5t416.5 -180.5q244 0 415.5 180.5t171.5 444.5q0 263 -171.5 442.5t-415.5 179.5q-246 0 -417 -179.5t-171 -442.5z M502 316v850h281q151 0 238 -66.5t87 -193.5q0 -59 -30.5 -104t-89.5 -76q62 -28 89.5 -82t27.5 -129v-56q0 -41 3.5 -73.5t13.5 -53.5v-16h-155q-9 21 -11 61.5t-2 82.5v54q0 71 -33.5 105t-109.5 34h-158v-337h-151zM653 787h143q68 0 115 30.5t47 85.5q0 72 -39 101 t-136 29h-130v-246z" />
<glyph unicode="&#xaf;" horiz-adv-x="987" d="M135 1298v158h727v-158h-727z" />
<glyph unicode="&#xb0;" horiz-adv-x="778" d="M127 1208q0 110 77.5 189.5t186.5 79.5q107 0 183.5 -79.5t76.5 -189.5t-76.5 -187t-183.5 -77q-109 0 -186.5 77t-77.5 187zM266 1208q0 -53 36.5 -88.5t88.5 -35.5q51 0 86.5 35t35.5 89t-35.5 91t-86.5 37q-52 0 -88.5 -37t-36.5 -91z" />
<glyph unicode="&#xb1;" horiz-adv-x="1099" d="M95 707v199h358v384h215v-384h343v-199h-343v-395h-215v395h-358zM126 -23v196h835v-196h-835z" />
<glyph unicode="&#xb2;" horiz-adv-x="865" d="M114 1231q-6 103 80 175.5t231 72.5q139 0 216.5 -65t77.5 -182q0 -81 -48.5 -140t-168.5 -164l-129 -110l2 -6h350v-145h-607v145l305 256q64 54 84 89t20 76q0 44 -25.5 72t-79.5 28q-61 0 -93 -30t-32 -78h-181z" />
<glyph unicode="&#xb3;" horiz-adv-x="867" d="M104 888l2 6h181q0 -43 34.5 -68.5t95.5 -25.5q64 0 102 26t38 71q0 56 -35.5 83.5t-104.5 27.5h-123v131h123q65 0 95.5 26.5t30.5 74.5q0 39 -32.5 65.5t-94.5 26.5q-53 0 -84.5 -22t-31.5 -56h-181l-2 6q-6 98 80 158t216 60q149 0 235 -59.5t86 -169.5 q0 -55 -35.5 -100.5t-96.5 -70.5q70 -24 107.5 -71.5t37.5 -115.5q0 -112 -90 -174t-239 -62q-135 0 -227.5 60.5t-86.5 172.5z" />
<glyph unicode="&#xb4;" horiz-adv-x="689" d="M120 1212l191 266h269l2 -6l-273 -260h-189z" />
<glyph unicode="&#xb5;" horiz-adv-x="1211" d="M146 -416v1498h242v-620q0 -167 50 -227t147 -60q87 0 142.5 30.5t84.5 90.5v786h243v-1082h-223l-7 86q-45 -53 -104.5 -80t-134.5 -27q-61 0 -110.5 13.5t-87.5 41.5v-450h-242z" />
<glyph unicode="&#xb6;" horiz-adv-x="1040" d="M62 988q0 207 129.5 337.5t362.5 130.5h326v-1456h-243v520h-83q-233 0 -362.5 129.5t-129.5 338.5z" />
<glyph unicode="&#xb7;" horiz-adv-x="578" d="M160 594v240h242v-240h-242z" />
<glyph unicode="&#xb8;" horiz-adv-x="528" d="M109 -136l32 139h177l-11 -54q64 -11 107 -52t43 -121q0 -102 -85 -162.5t-242 -60.5l-7 137q62 0 99.5 22t37.5 67q0 44 -34.5 62t-116.5 23z" />
<glyph unicode="&#xb9;" horiz-adv-x="565" d="M87 1304v150l319 23v-812h-192v639h-127z" />
<glyph unicode="&#xba;" horiz-adv-x="935" d="M119 1026v116q0 148 94 241.5t252 93.5t252.5 -93.5t94.5 -241.5v-116q0 -149 -94 -241.5t-251 -92.5q-159 0 -253.5 92.5t-94.5 241.5zM294 1026q0 -85 44 -136.5t129 -51.5q82 0 126 51.5t44 136.5v116q0 83 -44.5 135t-127.5 52q-84 0 -127.5 -52t-43.5 -135v-116z " />
<glyph unicode="&#xbb;" horiz-adv-x="994" d="M106 151l247 399l-247 400h167l288 -390v-19l-288 -390h-167zM452 151l247 399l-247 400h167l288 -390v-19l-288 -390h-167z" />
<glyph unicode="&#xbc;" horiz-adv-x="1548" d="M176 1303v150l319 23v-812h-192v639h-127zM325 189l711 1138l125 -72l-711 -1138zM775 261l422 540h192v-511h114v-145h-114v-145h-191v145h-413zM977 295l3 -5h218v277l-6 2l-12 -20z" />
<glyph unicode="&#xbd;" horiz-adv-x="1638" d="M176 1303v150l319 23v-812h-192v639h-127zM338 189l711 1138l125 -72l-711 -1138zM925 564q-6 103 80 175.5t231 72.5q139 0 216.5 -65t77.5 -182q0 -81 -48.5 -140t-168.5 -164l-129 -110l2 -6h350v-145h-607v145l305 256q64 54 84 89t20 76q0 44 -25.5 72t-79.5 28 q-61 0 -93 -30t-32 -78h-181z" />
<glyph unicode="&#xbe;" horiz-adv-x="1753" d="M120 889l2 6h181q0 -43 34.5 -68.5t95.5 -25.5q64 0 102 26t38 71q0 56 -35.5 83.5t-104.5 27.5h-123v131h123q65 0 95.5 26.5t30.5 74.5q0 39 -32.5 65.5t-94.5 26.5q-53 0 -84.5 -22t-31.5 -56h-181l-2 6q-6 98 80 158t216 60q149 0 235 -59.5t86 -169.5 q0 -55 -35.5 -100.5t-96.5 -70.5q70 -24 107.5 -71.5t37.5 -115.5q0 -112 -90 -174t-239 -62q-135 0 -227.5 60.5t-86.5 172.5zM508 189l711 1138l125 -72l-711 -1138zM964 261l422 540h192v-511h114v-145h-114v-145h-191v145h-413zM1166 295l3 -5h218v277l-6 2l-12 -20z " />
<glyph unicode="&#xbf;" horiz-adv-x="1025" d="M96 8q0 127 73 235.5t186 198.5q56 49 71.5 94.5t15.5 132.5h242q-2 -144 -33.5 -205t-141.5 -153q-80 -79 -125 -147.5t-45 -151.5q0 -97 52 -150.5t151 -53.5q81 0 139 46t60 135h234l3 -6q1 -178 -121.5 -277.5t-314.5 -99.5q-211 0 -328.5 107t-117.5 295zM438 849 v233h248v-233h-248z" />
<glyph unicode="&#xc0;" horiz-adv-x="1320" d="M16 0l535 1456h230l529 -1456h-247l-115 340h-570l-116 -340h-246zM346 1820l2 6h268l185 -266h-196zM448 543h431l-211 622h-6z" />
<glyph unicode="&#xc1;" horiz-adv-x="1320" d="M16 0l535 1456h230l529 -1456h-247l-115 340h-570l-116 -340h-246zM448 543h431l-211 622h-6zM569 1559l191 266h269l2 -6l-273 -260h-189z" />
<glyph unicode="&#xc2;" horiz-adv-x="1320" d="M16 0l535 1456h230l529 -1456h-247l-115 340h-570l-116 -340h-246zM324 1597v26l264 240h143l266 -242v-24h-195l-143 139l-142 -139h-193zM448 543h431l-211 622h-6z" />
<glyph unicode="&#xc3;" horiz-adv-x="1320" d="M16 0l535 1456h230l529 -1456h-247l-115 340h-570l-116 -340h-246zM300 1637q0 94 59.5 163.5t149.5 69.5q56 0 145.5 -44.5t141.5 -44.5q38 0 66 32t28 78l131 -39q0 -95 -60 -162t-150 -67q-71 0 -153.5 44.5t-133.5 44.5q-39 0 -66 -32.5t-27 -77.5zM448 543h431 l-211 622h-6z" />
<glyph unicode="&#xc4;" horiz-adv-x="1320" d="M16 0l535 1456h230l529 -1456h-247l-115 340h-570l-116 -340h-246zM298 1601v204h241v-204h-241zM448 543h431l-211 622h-6zM781 1601v204h242v-204h-242z" />
<glyph unicode="&#xc5;" horiz-adv-x="1320" d="M16 0l535 1456h230l529 -1456h-247l-115 340h-570l-116 -340h-246zM448 543h431l-211 622h-6zM450 1737q0 84 61.5 141t150.5 57q87 0 147.5 -57t60.5 -141q0 -85 -60.5 -139.5t-147.5 -54.5q-89 0 -150.5 54.5t-61.5 139.5zM560 1737q0 -43 29.5 -72t72.5 -29 q42 0 70 28t28 73t-28 74.5t-70 30.5q-43 -1 -72.5 -30.5t-29.5 -74.5z" />
<glyph unicode="&#xc6;" horiz-adv-x="1925" d="M-10 0l835 1456h992v-197h-646l17 -408h548v-197h-540l20 -458h663v-196h-898l-15 340h-502l-184 -340h-290zM580 555h377l-27 637l-5 1z" />
<glyph unicode="&#xc7;" horiz-adv-x="1302" d="M106 589v277q0 266 157.5 438.5t409.5 172.5q258 0 406.5 -135.5t144.5 -364.5l-2 -6h-235q0 147 -79.5 229t-234.5 82q-149 0 -236.5 -118t-87.5 -296v-279q0 -180 89.5 -298t241.5 -118q151 0 229 81t78 229h234l2 -6q4 -221 -143.5 -359.5t-399.5 -138.5 q-255 0 -414.5 171.5t-159.5 438.5zM554 -140l32 139h177l-11 -54q64 -11 107 -52t43 -121q0 -102 -85 -162.5t-242 -60.5l-7 137q62 0 99.5 22t37.5 67q0 44 -34.5 62t-116.5 23z" />
<glyph unicode="&#xc8;" horiz-adv-x="1187" d="M159 0v1456h975v-195h-732v-411h637v-195h-637v-461h739v-194h-982zM276 1820l2 6h268l185 -266h-196z" />
<glyph unicode="&#xc9;" horiz-adv-x="1187" d="M159 0v1456h975v-195h-732v-411h637v-195h-637v-461h739v-194h-982zM499 1559l191 266h269l2 -6l-273 -260h-189z" />
<glyph unicode="&#xca;" horiz-adv-x="1187" d="M159 0v1456h975v-195h-732v-411h637v-195h-637v-461h739v-194h-982zM282 1597v26l264 240h143l266 -242v-24h-195l-143 139l-142 -139h-193z" />
<glyph unicode="&#xcb;" horiz-adv-x="1187" d="M159 0v1456h975v-195h-732v-411h637v-195h-637v-461h739v-194h-982zM255 1601v204h241v-204h-241zM738 1601v204h242v-204h-242z" />
<glyph unicode="&#xcc;" horiz-adv-x="589" d="M-45 1820l2 6h268l185 -266h-196zM173 0v1456h243v-1456h-243z" />
<glyph unicode="&#xcd;" horiz-adv-x="589" d="M173 0v1456h243v-1456h-243zM176 1559l191 266h269l2 -6l-273 -260h-189z" />
<glyph unicode="&#xce;" horiz-adv-x="589" d="M-39 1597v26l264 240h143l266 -242v-24h-195l-143 139l-142 -139h-193zM173 0v1456h243v-1456h-243z" />
<glyph unicode="&#xcf;" horiz-adv-x="589" d="M-66 1601v204h241v-204h-241zM173 0v1456h243v-1456h-243zM417 1601v204h242v-204h-242z" />
<glyph unicode="&#xd0;" horiz-adv-x="1376" d="M36 657v170h153v629h472q277 0 450.5 -173t173.5 -445v-221q0 -273 -173.5 -445t-450.5 -172h-472v657h-153zM432 194h222q181 0 284.5 118t103.5 305v223q0 185 -103.5 303t-284.5 118h-222v-434h259v-170h-259v-463z" />
<glyph unicode="&#xd1;" horiz-adv-x="1456" d="M159 0v1456h243l646 -1062l6 2v1060h242v-1456h-242l-646 1063l-6 -2v-1061h-243zM366 1637q0 94 59.5 163.5t149.5 69.5q56 0 145.5 -44.5t141.5 -44.5q38 0 66 32t28 78l131 -39q0 -95 -60 -162t-150 -67q-71 0 -153.5 44.5t-133.5 44.5q-39 0 -66 -32.5t-27 -77.5z " />
<glyph unicode="&#xd2;" horiz-adv-x="1398" d="M103 597v262q0 266 163.5 442t424.5 176q267 0 435 -176t168 -442v-262q0 -267 -167.5 -442.5t-434.5 -175.5q-262 0 -425.5 175.5t-163.5 442.5zM345 597q0 -184 93 -301.5t254 -117.5q167 0 263.5 117t96.5 302v264q0 182 -97.5 299t-263.5 117q-160 0 -253 -117 t-93 -299v-264zM358 1841l2 6h268l185 -266h-196z" />
<glyph unicode="&#xd3;" horiz-adv-x="1398" d="M103 597v262q0 266 163.5 442t424.5 176q267 0 435 -176t168 -442v-262q0 -267 -167.5 -442.5t-434.5 -175.5q-262 0 -425.5 175.5t-163.5 442.5zM345 597q0 -184 93 -301.5t254 -117.5q167 0 263.5 117t96.5 302v264q0 182 -97.5 299t-263.5 117q-160 0 -253 -117 t-93 -299v-264zM581 1580l191 266h269l2 -6l-273 -260h-189z" />
<glyph unicode="&#xd4;" horiz-adv-x="1398" d="M103 597v262q0 266 163.5 442t424.5 176q267 0 435 -176t168 -442v-262q0 -267 -167.5 -442.5t-434.5 -175.5q-262 0 -425.5 175.5t-163.5 442.5zM345 597q0 -184 93 -301.5t254 -117.5q167 0 263.5 117t96.5 302v264q0 182 -97.5 299t-263.5 117q-160 0 -253 -117 t-93 -299v-264zM364 1618v26l264 240h143l266 -242v-24h-195l-143 139l-142 -139h-193z" />
<glyph unicode="&#xd5;" horiz-adv-x="1398" d="M103 597v262q0 266 163.5 442t424.5 176q267 0 435 -176t168 -442v-262q0 -267 -167.5 -442.5t-434.5 -175.5q-262 0 -425.5 175.5t-163.5 442.5zM339 1658q0 94 59.5 163.5t149.5 69.5q56 0 145.5 -44.5t141.5 -44.5q38 0 66 32t28 78l131 -39q0 -95 -60 -162t-150 -67 q-71 0 -153.5 44.5t-133.5 44.5q-39 0 -66 -32.5t-27 -77.5zM345 597q0 -184 93 -301.5t254 -117.5q167 0 263.5 117t96.5 302v264q0 182 -97.5 299t-263.5 117q-160 0 -253 -117t-93 -299v-264z" />
<glyph unicode="&#xd6;" horiz-adv-x="1398" d="M103 597v262q0 266 163.5 442t424.5 176q267 0 435 -176t168 -442v-262q0 -267 -167.5 -442.5t-434.5 -175.5q-262 0 -425.5 175.5t-163.5 442.5zM337 1622v204h241v-204h-241zM345 597q0 -184 93 -301.5t254 -117.5q167 0 263.5 117t96.5 302v264q0 182 -97.5 299 t-263.5 117q-160 0 -253 -117t-93 -299v-264zM820 1622v204h242v-204h-242z" />
<glyph unicode="&#xd7;" horiz-adv-x="1092" d="M77 364l316 322l-316 322l148 150l315 -322l316 322l148 -150l-316 -322l316 -322l-148 -150l-316 321l-315 -321z" />
<glyph unicode="&#xd8;" horiz-adv-x="1403" d="M103 597v262q0 266 163.5 442t424.5 176q97 0 182.5 -25.5t158.5 -72.5l82 139h148l-131 -222q78 -84 120.5 -196.5t42.5 -240.5v-262q0 -267 -167.5 -442.5t-434.5 -175.5q-82 0 -155.5 18t-136.5 54l-86 -146h-148l130 221q-93 84 -143 206t-50 265zM345 597 q0 -79 17.5 -146.5t50.5 -114.5l6 -1l504 858q-47 40 -105 62t-127 22q-160 0 -253 -117t-93 -299v-264zM506 232q39 -27 86 -40.5t100 -13.5q167 0 263.5 117t96.5 302v264q0 61 -12 115.5t-33 96.5l-6 1z" />
<glyph unicode="&#xd9;" horiz-adv-x="1396" d="M134 480v976h243v-976q0 -153 86 -230t231 -77q150 0 239 77t89 230v976h243v-976q0 -242 -158 -371.5t-413 -129.5q-250 0 -405 130t-155 371zM359 1820l2 6h268l185 -266h-196z" />
<glyph unicode="&#xda;" horiz-adv-x="1396" d="M134 480v976h243v-976q0 -153 86 -230t231 -77q150 0 239 77t89 230v976h243v-976q0 -242 -158 -371.5t-413 -129.5q-250 0 -405 130t-155 371zM582 1559l191 266h269l2 -6l-273 -260h-189z" />
<glyph unicode="&#xdb;" horiz-adv-x="1396" d="M134 480v976h243v-976q0 -153 86 -230t231 -77q150 0 239 77t89 230v976h243v-976q0 -242 -158 -371.5t-413 -129.5q-250 0 -405 130t-155 371zM365 1597v26l264 240h143l266 -242v-24h-195l-143 139l-142 -139h-193z" />
<glyph unicode="&#xdc;" horiz-adv-x="1396" d="M134 480v976h243v-976q0 -153 86 -230t231 -77q150 0 239 77t89 230v976h243v-976q0 -242 -158 -371.5t-413 -129.5q-250 0 -405 130t-155 371zM338 1601v204h241v-204h-241zM821 1601v204h242v-204h-242z" />
<glyph unicode="&#xdd;" horiz-adv-x="1270" d="M13 1456h271l350 -708l352 708h271l-505 -945v-511h-242v524zM520 1559l191 266h269l2 -6l-273 -260h-189z" />
<glyph unicode="&#xde;" horiz-adv-x="1226" d="M148 0v1456h243v-280h246q242 0 377.5 -121.5t135.5 -316.5q0 -196 -135.5 -317t-377.5 -121h-246v-300h-243zM391 495h246q135 0 202.5 69.5t67.5 171.5q0 104 -67.5 174.5t-202.5 70.5h-246v-486z" />
<glyph unicode="&#xdf;" horiz-adv-x="1255" d="M136 0v1093q0 224 123 349t325 125q170 0 279.5 -91.5t109.5 -264.5q0 -113 -59 -216.5t-59 -165.5q0 -68 162 -210t162 -280q0 -180 -109 -270t-306 -90q-82 0 -166.5 17t-122.5 45l49 197q41 -25 102.5 -45t123.5 -20q93 0 140 41.5t47 112.5q0 76 -162.5 214.5 t-162.5 283.5q0 85 63 190t63 180q0 80 -47.5 128.5t-110.5 48.5q-91 0 -146.5 -74t-55.5 -207v-1091h-242z" />
<glyph unicode="&#xe0;" horiz-adv-x="1114" d="M82 305q0 157 124 244.5t349 87.5h189v95q0 85 -50 133t-143 48q-83 0 -132 -40t-49 -103h-234l-1 6q-7 128 114.5 227t316.5 99q189 0 305 -96t116 -276v-481q0 -67 9 -128.5t29 -120.5h-246q-13 41 -21.5 80t-11.5 78q-50 -76 -131.5 -127.5t-182.5 -51.5 q-169 0 -259.5 87t-90.5 239zM209 1498l2 6h268l185 -266h-196zM325 309q0 -62 40.5 -98.5t115.5 -36.5q92 0 165.5 46t97.5 105v160h-193q-106 0 -166 -52.5t-60 -123.5z" />
<glyph unicode="&#xe1;" horiz-adv-x="1114" d="M82 305q0 157 124 244.5t349 87.5h189v95q0 85 -50 133t-143 48q-83 0 -132 -40t-49 -103h-234l-1 6q-7 128 114.5 227t316.5 99q189 0 305 -96t116 -276v-481q0 -67 9 -128.5t29 -120.5h-246q-13 41 -21.5 80t-11.5 78q-50 -76 -131.5 -127.5t-182.5 -51.5 q-169 0 -259.5 87t-90.5 239zM325 309q0 -62 40.5 -98.5t115.5 -36.5q92 0 165.5 46t97.5 105v160h-193q-106 0 -166 -52.5t-60 -123.5zM432 1237l191 266h269l2 -6l-273 -260h-189z" />
<glyph unicode="&#xe2;" horiz-adv-x="1114" d="M82 305q0 157 124 244.5t349 87.5h189v95q0 85 -50 133t-143 48q-83 0 -132 -40t-49 -103h-234l-1 6q-7 128 114.5 227t316.5 99q189 0 305 -96t116 -276v-481q0 -67 9 -128.5t29 -120.5h-246q-13 41 -21.5 80t-11.5 78q-50 -76 -131.5 -127.5t-182.5 -51.5 q-169 0 -259.5 87t-90.5 239zM215 1275v26l264 240h143l266 -242v-24h-195l-143 139l-142 -139h-193zM325 309q0 -62 40.5 -98.5t115.5 -36.5q92 0 165.5 46t97.5 105v160h-193q-106 0 -166 -52.5t-60 -123.5z" />
<glyph unicode="&#xe3;" horiz-adv-x="1114" d="M82 305q0 157 124 244.5t349 87.5h189v95q0 85 -50 133t-143 48q-83 0 -132 -40t-49 -103h-234l-1 6q-7 128 114.5 227t316.5 99q189 0 305 -96t116 -276v-481q0 -67 9 -128.5t29 -120.5h-246q-13 41 -21.5 80t-11.5 78q-50 -76 -131.5 -127.5t-182.5 -51.5 q-169 0 -259.5 87t-90.5 239zM190 1315q0 94 59.5 163.5t149.5 69.5q56 0 145.5 -44.5t141.5 -44.5q38 0 66 32t28 78l131 -39q0 -95 -60 -162t-150 -67q-71 0 -153.5 44.5t-133.5 44.5q-39 0 -66 -32.5t-27 -77.5zM325 309q0 -62 40.5 -98.5t115.5 -36.5q92 0 165.5 46 t97.5 105v160h-193q-106 0 -166 -52.5t-60 -123.5z" />
<glyph unicode="&#xe4;" horiz-adv-x="1114" d="M82 305q0 157 124 244.5t349 87.5h189v95q0 85 -50 133t-143 48q-83 0 -132 -40t-49 -103h-234l-1 6q-7 128 114.5 227t316.5 99q189 0 305 -96t116 -276v-481q0 -67 9 -128.5t29 -120.5h-246q-13 41 -21.5 80t-11.5 78q-50 -76 -131.5 -127.5t-182.5 -51.5 q-169 0 -259.5 87t-90.5 239zM188 1279v204h241v-204h-241zM325 309q0 -62 40.5 -98.5t115.5 -36.5q92 0 165.5 46t97.5 105v160h-193q-106 0 -166 -52.5t-60 -123.5zM671 1279v204h242v-204h-242z" />
<glyph unicode="&#xe5;" horiz-adv-x="1114" d="M82 305q0 157 124 244.5t349 87.5h189v95q0 85 -50 133t-143 48q-83 0 -132 -40t-49 -103h-234l-1 6q-7 128 114.5 227t316.5 99q189 0 305 -96t116 -276v-481q0 -67 9 -128.5t29 -120.5h-246q-13 41 -21.5 80t-11.5 78q-50 -76 -131.5 -127.5t-182.5 -51.5 q-169 0 -259.5 87t-90.5 239zM325 309q0 -62 40.5 -98.5t115.5 -36.5q92 0 165.5 46t97.5 105v160h-193q-106 0 -166 -52.5t-60 -123.5zM339 1415q0 84 61.5 141t150.5 57q87 0 147.5 -57t60.5 -141q0 -85 -60.5 -139.5t-147.5 -54.5q-89 0 -150.5 54.5t-61.5 139.5z M449 1415q0 -43 29.5 -72t72.5 -29q42 0 70 28t28 73t-28 74.5t-70 30.5q-43 -1 -72.5 -30.5t-29.5 -74.5z" />
<glyph unicode="&#xe6;" horiz-adv-x="1729" d="M52 312q0 158 120.5 244t351.5 86h206v71q0 91 -46.5 142.5t-132.5 51.5q-93 0 -146.5 -45t-53.5 -110l-233 18l-2 6q-6 141 115 233.5t322 92.5q107 0 192.5 -33t141.5 -97q63 63 147 96.5t184 33.5q214 0 332 -131t118 -359v-141h-680l-3 -6q4 -131 74 -211.5 t209 -80.5q98 0 161 23t144 69l73 -165q-57 -45 -158 -83t-234 -38q-132 0 -234 44.5t-169 127.5q-59 -74 -166 -123t-256 -49q-180 0 -278.5 89.5t-98.5 243.5zM295 308q0 -65 45.5 -104.5t135.5 -39.5q67 0 140 36.5t114 85.5v189h-204q-109 0 -170 -49t-61 -118zM988 647 l2 -5h438v30q0 105 -51.5 170t-158.5 65q-104 0 -162 -71.5t-68 -188.5z" />
<glyph unicode="&#xe7;" horiz-adv-x="1075" d="M81 523v35q0 235 127.5 389.5t366.5 154.5q195 0 316.5 -113.5t117.5 -288.5l-2 -6h-221q0 89 -58.5 151t-152.5 62q-137 0 -194 -99.5t-57 -249.5v-35q0 -153 57 -251.5t194 -98.5q89 0 150 52.5t61 131.5h220l2 -6q5 -152 -123.5 -262t-309.5 -110q-239 0 -366.5 154 t-127.5 390zM427 -140l32 139h177l-11 -54q64 -11 107 -52t43 -121q0 -102 -85 -162.5t-242 -60.5l-7 137q62 0 99.5 22t37.5 67q0 44 -34.5 62t-116.5 23z" />
<glyph unicode="&#xe8;" horiz-adv-x="1084" d="M89 516v40q0 236 135.5 391.5t339.5 154.5q219 0 335.5 -132.5t116.5 -355.5v-143h-675l-2 -5q6 -129 75.5 -211t192.5 -82q98 0 168 24t135 69l78 -159q-61 -54 -162 -91t-234 -37q-230 0 -366.5 150.5t-136.5 386.5zM211 1499l2 6h268l185 -266h-196zM344 654l2 -5h429 v25q0 103 -52.5 168t-158.5 65q-90 0 -148 -71.5t-72 -181.5z" />
<glyph unicode="&#xe9;" horiz-adv-x="1084" d="M89 516v40q0 236 135.5 391.5t339.5 154.5q219 0 335.5 -132.5t116.5 -355.5v-143h-675l-2 -5q6 -129 75.5 -211t192.5 -82q98 0 168 24t135 69l78 -159q-61 -54 -162 -91t-234 -37q-230 0 -366.5 150.5t-136.5 386.5zM344 654l2 -5h429v25q0 103 -52.5 168t-158.5 65 q-90 0 -148 -71.5t-72 -181.5zM434 1238l191 266h269l2 -6l-273 -260h-189z" />
<glyph unicode="&#xea;" horiz-adv-x="1084" d="M89 516v40q0 236 135.5 391.5t339.5 154.5q219 0 335.5 -132.5t116.5 -355.5v-143h-675l-2 -5q6 -129 75.5 -211t192.5 -82q98 0 168 24t135 69l78 -159q-61 -54 -162 -91t-234 -37q-230 0 -366.5 150.5t-136.5 386.5zM217 1276v26l264 240h143l266 -242v-24h-195 l-143 139l-142 -139h-193zM344 654l2 -5h429v25q0 103 -52.5 168t-158.5 65q-90 0 -148 -71.5t-72 -181.5z" />
<glyph unicode="&#xeb;" horiz-adv-x="1084" d="M89 516v40q0 236 135.5 391.5t339.5 154.5q219 0 335.5 -132.5t116.5 -355.5v-143h-675l-2 -5q6 -129 75.5 -211t192.5 -82q98 0 168 24t135 69l78 -159q-61 -54 -162 -91t-234 -37q-230 0 -366.5 150.5t-136.5 386.5zM190 1280v204h241v-204h-241zM344 654l2 -5h429v25 q0 103 -52.5 168t-158.5 65q-90 0 -148 -71.5t-72 -181.5zM673 1280v204h242v-204h-242z" />
<glyph unicode="&#xec;" horiz-adv-x="538" d="M-74 1477l2 6h268l185 -266h-196zM143 0v1082h243v-1082h-243z" />
<glyph unicode="&#xed;" horiz-adv-x="538" d="M143 0v1082h243v-1082h-243zM147 1216l191 266h269l2 -6l-273 -260h-189z" />
<glyph unicode="&#xee;" horiz-adv-x="538" d="M-68 1254v26l264 240h143l266 -242v-24h-195l-143 139l-142 -139h-193zM143 0v1082h243v-1082h-243z" />
<glyph unicode="&#xef;" horiz-adv-x="538" d="M-95 1258v204h241v-204h-241zM143 0v1082h243v-1082h-243zM388 1258v204h242v-204h-242z" />
<glyph unicode="&#xf0;" horiz-adv-x="1210" d="M60 468q0 226 136.5 365.5t358.5 139.5q85 0 160.5 -31.5t127.5 -83.5l4 5q-12 94 -53 172.5t-105 138.5l-268 -150l-78 109l219 123v6q-33 17 -71.5 32t-77.5 27l75 196q84 -19 160 -52.5t142 -79.5l207 116l78 -109l-178 -100q98 -105 151.5 -243t53.5 -301v-207 q0 -248 -150 -405t-375 -157q-227 0 -372 140.5t-145 348.5zM303 468q0 -121 75.5 -208t202.5 -87q125 0 201.5 104t76.5 264v132q-35 48 -107.5 80t-175.5 32q-126 0 -199.5 -90t-73.5 -227z" />
<glyph unicode="&#xf1;" d="M126 0v1082h222l14 -156q53 83 133.5 129.5t181.5 46.5q169 0 263.5 -102.5t94.5 -319.5v-680h-243v678q0 122 -50.5 173.5t-153.5 51.5q-71 0 -127 -31.5t-92 -86.5v-785h-243zM217 1315q0 94 59.5 163.5t149.5 69.5q56 0 145.5 -44.5t141.5 -44.5q38 0 66 32t28 78 l131 -39q0 -95 -60 -162t-150 -67q-71 0 -153.5 44.5t-133.5 44.5q-39 0 -66 -32.5t-27 -77.5z" />
<glyph unicode="&#xf2;" d="M83 530v21q0 241 132 396q134 155 363 155q233 0 365 -155q133 -154 133 -396v-21q0 -244 -133 -398q-132 -153 -363 -153q-232 0 -365 154q-132 154 -132 397zM238 1498l2 6h268l185 -266h-196zM326 530q0 -158 62 -258q61 -99 192 -99q127 0 190 99q64 100 64 258v21 q0 155 -64 255q-63 101 -192 101q-127 0 -190 -101q-62 -101 -62 -255v-21z" />
<glyph unicode="&#xf3;" d="M83 530v21q0 241 132 396q134 155 363 155q233 0 365 -155q133 -154 133 -396v-21q0 -244 -133 -398q-132 -153 -363 -153q-232 0 -365 154q-132 154 -132 397zM326 530q0 -158 62 -258q61 -99 192 -99q127 0 190 99q64 100 64 258v21q0 155 -64 255q-63 101 -192 101 q-127 0 -190 -101q-62 -101 -62 -255v-21zM461 1237l191 266h269l2 -6l-273 -260h-189z" />
<glyph unicode="&#xf4;" d="M83 530v21q0 241 132 396q134 155 363 155q233 0 365 -155q133 -154 133 -396v-21q0 -244 -133 -398q-132 -153 -363 -153q-232 0 -365 154q-132 154 -132 397zM244 1275v26l264 240h143l266 -242v-24h-195l-143 139l-142 -139h-193zM326 530q0 -158 62 -258 q61 -99 192 -99q127 0 190 99q64 100 64 258v21q0 155 -64 255q-63 101 -192 101q-127 0 -190 -101q-62 -101 -62 -255v-21z" />
<glyph unicode="&#xf5;" d="M83 530v21q0 241 132 396q134 155 363 155q233 0 365 -155q133 -154 133 -396v-21q0 -244 -133 -398q-132 -153 -363 -153q-232 0 -365 154q-132 154 -132 397zM219 1315q0 94 59.5 163.5t149.5 69.5q56 0 145.5 -44.5t141.5 -44.5q38 0 66 32t28 78l131 -39 q0 -95 -60 -162t-150 -67q-71 0 -153.5 44.5t-133.5 44.5q-39 0 -66 -32.5t-27 -77.5zM326 530q0 -158 62 -258q61 -99 192 -99q127 0 190 99q64 100 64 258v21q0 155 -64 255q-63 101 -192 101q-127 0 -190 -101q-62 -101 -62 -255v-21z" />
<glyph unicode="&#xf6;" d="M83 530v21q0 241 132 396q134 155 363 155q233 0 365 -155q133 -154 133 -396v-21q0 -244 -133 -398q-132 -153 -363 -153q-232 0 -365 154q-132 154 -132 397zM217 1279v204h241v-204h-241zM326 530q0 -158 62 -258q61 -99 192 -99q127 0 190 99q64 100 64 258v21 q0 155 -64 255q-63 101 -192 101q-127 0 -190 -101q-62 -101 -62 -255v-21zM700 1279v204h242v-204h-242z" />
<glyph unicode="&#xf7;" horiz-adv-x="1169" d="M67 582v212h1012v-212h-1012zM453 170v221h243v-221h-243zM453 985v221h243v-221h-243z" />
<glyph unicode="&#xf8;" horiz-adv-x="1161" d="M83 530v21q0 242 132.5 396.5t362.5 154.5q53 0 102.5 -9.5t94.5 -26.5l72 146h144l-104 -211q91 -74 140 -190.5t49 -259.5v-21q0 -244 -132.5 -397.5t-363.5 -153.5q-48 0 -93 7.5t-87 21.5l-72 -146h-144l102 207q-99 71 -151 191t-52 270zM326 530q0 -78 14.5 -142 t44.5 -104l6 -1l294 600q-24 11 -50.5 17.5t-56.5 6.5q-127 0 -189.5 -100.5t-62.5 -255.5v-21zM489 189q20 -8 43 -12t48 -4q127 0 190.5 99.5t63.5 257.5v21q0 68 -13 127t-37 100l-6 1z" />
<glyph unicode="&#xf9;" d="M123 435v647h242v-649q0 -142 46 -199t139 -57q88 0 147.5 31.5t93.5 91.5v782h243v-1082h-212l-20 158q-51 -86 -129 -132.5t-180 -46.5q-174 0 -272 111t-98 345zM237 1477l2 6h268l185 -266h-196z" />
<glyph unicode="&#xfa;" d="M123 435v647h242v-649q0 -142 46 -199t139 -57q88 0 147.5 31.5t93.5 91.5v782h243v-1082h-212l-20 158q-51 -86 -129 -132.5t-180 -46.5q-174 0 -272 111t-98 345zM460 1216l191 266h269l2 -6l-273 -260h-189z" />
<glyph unicode="&#xfb;" d="M123 435v647h242v-649q0 -142 46 -199t139 -57q88 0 147.5 31.5t93.5 91.5v782h243v-1082h-212l-20 158q-51 -86 -129 -132.5t-180 -46.5q-174 0 -272 111t-98 345zM243 1254v26l264 240h143l266 -242v-24h-195l-143 139l-142 -139h-193z" />
<glyph unicode="&#xfc;" d="M123 435v647h242v-649q0 -142 46 -199t139 -57q88 0 147.5 31.5t93.5 91.5v782h243v-1082h-212l-20 158q-51 -86 -129 -132.5t-180 -46.5q-174 0 -272 111t-98 345zM216 1258v204h241v-204h-241zM699 1258v204h242v-204h-242z" />
<glyph unicode="&#xfd;" horiz-adv-x="1038" d="M16 1082h265l206 -648l24 -108h6l237 756h266l-448 -1246q-43 -113 -121 -193t-221 -80q-30 0 -64.5 6t-66.5 14l27 188q13 -1 37 -3t36 -2q66 0 105.5 45t64.5 104l40 98zM400 1216l191 266h269l2 -6l-273 -260h-189z" />
<glyph unicode="&#xfe;" horiz-adv-x="1175" d="M138 -416v1976h243v-595q50 66 120.5 101.5t161.5 35.5q200 0 311.5 -158.5t111.5 -417.5v-21q0 -236 -111 -381t-309 -145q-92 0 -163 33t-122 97v-525h-243zM381 291q32 -57 85 -87.5t131 -30.5q124 0 185.5 91.5t61.5 240.5v21q0 166 -62.5 271.5t-186.5 105.5 q-76 0 -129 -32.5t-85 -90.5v-489z" />
<glyph unicode="&#xff;" horiz-adv-x="1038" d="M16 1082h265l206 -648l24 -108h6l237 756h266l-448 -1246q-43 -113 -121 -193t-221 -80q-30 0 -64.5 6t-66.5 14l27 188q13 -1 37 -3t36 -2q66 0 105.5 45t64.5 104l40 98zM158 1258v204h241v-204h-241zM641 1258v204h242v-204h-242z" />
<glyph unicode="&#x152;" horiz-adv-x="1972" d="M101 576v304q0 265 160.5 431t419.5 166q69 0 140 -6t150 -15h888v-195h-732v-411h637v-195h-637v-461h739v-194h-895q-92 -10 -156.5 -15.5t-131.5 -5.5q-260 0 -421 165.5t-161 431.5zM343 576q0 -196 90 -299t250 -103q51 0 101.5 3.5t99.5 10.5v1080q-53 6 -103.5 10 t-99.5 4q-159 0 -248.5 -102.5t-89.5 -297.5v-306z" />
<glyph unicode="&#x153;" horiz-adv-x="1851" d="M83 530v21q0 242 132.5 396.5t362.5 154.5q129 0 229.5 -50.5t165.5 -141.5q64 91 160 141.5t209 50.5q219 0 335.5 -132.5t116.5 -355.5v-143h-675l-2 -5q6 -129 75.5 -211t192.5 -82q98 0 168 24t135 69l78 -159q-61 -54 -162 -91t-234 -37q-129 0 -231 49.5 t-167 139.5q-65 -91 -164.5 -140t-227.5 -49q-232 0 -364.5 154t-132.5 397zM326 530q0 -159 62 -258t192 -99q127 0 190.5 99.5t63.5 257.5v21q0 155 -63.5 255.5t-192.5 100.5q-127 0 -189.5 -100.5t-62.5 -255.5v-21zM1122 654l2 -5h429v25q0 103 -52.5 168t-158.5 65 q-90 0 -148 -71.5t-72 -181.5z" />
<glyph unicode="&#x178;" horiz-adv-x="1270" d="M13 1456h271l350 -708l352 708h271l-505 -945v-511h-242v524zM276 1601v204h241v-204h-241zM759 1601v204h242v-204h-242z" />
<glyph unicode="&#x2c6;" horiz-adv-x="998" d="M155 1252v26l264 240h143l266 -242v-24h-195l-143 139l-142 -139h-193z" />
<glyph unicode="&#x2dc;" horiz-adv-x="984" d="M128 1273q0 94 59.5 163.5t149.5 69.5q56 0 145.5 -44.5t141.5 -44.5q38 0 66 32t28 78l131 -39q0 -95 -60 -162t-150 -67q-71 0 -153.5 44.5t-133.5 44.5q-39 0 -66 -32.5t-27 -77.5z" />
<glyph unicode="&#x2000;" horiz-adv-x="967" />
<glyph unicode="&#x2001;" horiz-adv-x="1935" />
<glyph unicode="&#x2002;" horiz-adv-x="967" />
<glyph unicode="&#x2003;" horiz-adv-x="1935" />
<glyph unicode="&#x2004;" horiz-adv-x="645" />
<glyph unicode="&#x2005;" horiz-adv-x="483" />
<glyph unicode="&#x2006;" horiz-adv-x="322" />
<glyph unicode="&#x2007;" horiz-adv-x="322" />
<glyph unicode="&#x2008;" horiz-adv-x="241" />
<glyph unicode="&#x2009;" horiz-adv-x="387" />
<glyph unicode="&#x200a;" horiz-adv-x="107" />
<glyph unicode="&#x2010;" horiz-adv-x="672" d="M71 521v196h525v-196h-525z" />
<glyph unicode="&#x2011;" horiz-adv-x="672" d="M71 521v196h525v-196h-525z" />
<glyph unicode="&#x2012;" horiz-adv-x="672" d="M71 521v196h525v-196h-525z" />
<glyph unicode="&#x2013;" horiz-adv-x="1415" d="M156 621v196h1086v-196h-1086z" />
<glyph unicode="&#x2014;" horiz-adv-x="1665" d="M125 621v196h1336v-196h-1336z" />
<glyph unicode="&#x2018;" horiz-adv-x="413" d="M66 1015v188l162 357h119l-60 -358v-187h-221z" />
<glyph unicode="&#x2019;" horiz-adv-x="413" d="M69 1016l60 348v196h221v-194l-162 -350h-119z" />
<glyph unicode="&#x201a;" horiz-adv-x="413" d="M66 -262l60 265v266h221v-249l-155 -282h-126z" />
<glyph unicode="&#x201c;" horiz-adv-x="746" d="M66 1015v188l162 357h119l-60 -358v-187h-221zM395 1015v188l162 357h119l-60 -358v-187h-221z" />
<glyph unicode="&#x201d;" horiz-adv-x="754" d="M69 1016l60 348v196h221v-194l-162 -350h-119zM406 1016l60 348v196h221v-194l-162 -350h-119z" />
<glyph unicode="&#x201e;" horiz-adv-x="731" d="M66 -233l60 295v228h214v-217l-162 -306h-112zM391 -233l60 303v220h214v-217l-162 -306h-112z" />
<glyph unicode="&#x2022;" horiz-adv-x="715" d="M136 724v77q0 94 60 154.5t161 60.5q102 0 162.5 -60t60.5 -155v-77q0 -96 -60 -154.5t-162 -58.5q-101 0 -161.5 59t-60.5 154z" />
<glyph unicode="&#x2026;" horiz-adv-x="1446" d="M153 0v233h242v-233h-242zM596 0v233h242v-233h-242zM1016 0v233h242v-233h-242z" />
<glyph unicode="&#x202f;" horiz-adv-x="387" />
<glyph unicode="&#x2039;" horiz-adv-x="626" d="M108 541v19l288 390h167l-247 -400l247 -399h-167z" />
<glyph unicode="&#x203a;" horiz-adv-x="617" d="M84 151l247 399l-247 400h167l288 -390v-19l-288 -390h-167z" />
<glyph unicode="&#x205f;" horiz-adv-x="483" />
<glyph unicode="&#x20ac;" horiz-adv-x="1101" d="M75 457v195h146v128h-146v195h146v12q0 198 145.5 344t382.5 146q60 0 118 -8t125 -23l-20 -199q-54 16 -110.5 25.5t-112.5 9.5q-132 0 -208.5 -89.5t-76.5 -203.5v-14h460v-195h-460v-128h460v-195h-460v-2q0 -112 77 -197t210 -85q57 0 113 8.5t108 25.5l20 -197 q-56 -15 -117.5 -23t-123.5 -8q-237 0 -383.5 141.5t-146.5 334.5v2h-146z" />
<glyph unicode="&#x2122;" horiz-adv-x="1289" d="M100 1361v95h391v-95h-138v-443h-117v443h-136zM565 916v540h137l141 -373h6l142 373h131v-540h-110v317l-6 1l-129 -318h-61l-134 330l-6 -1v-329h-111z" />
<glyph unicode="&#xe000;" horiz-adv-x="1080" d="M0 0v1080h1080v-1080h-1080z" />
<glyph unicode="&#xfb02;" horiz-adv-x="1250" d="M42 902v180h165v126q0 179 97.5 276t273.5 97q35 0 71 -5.5t81 -15.5l-25 -188q-20 4 -44.5 7t-52.5 3q-79 0 -118.5 -45t-39.5 -129v-126h220v-180h-220v-902h-243v902h-165zM863 0v1560h243v-1560h-243z" />
<glyph unicode="&#xfb03;" horiz-adv-x="1911" d="M42 902v180h165v126q0 179 97.5 276t273.5 97q35 0 71 -5.5t81 -15.5l-25 -188q-20 4 -44.5 7t-52.5 3q-79 0 -118.5 -45t-39.5 -129v-126h220v-180h-220v-902h-243v902h-165zM743 902v180h165v92q0 195 115 301t322 106q72 0 143 -15.5t163 -44.5l-37 -201 q-62 21 -122 34.5t-130 13.5q-109 0 -160 -48.5t-51 -145.5v-92h213v-180h-213v-902h-243v902h-165zM1523 0v1082h243v-1082h-243z" />
<glyph unicode="&#xfb04;" horiz-adv-x="1969" d="M42 902v180h165v126q0 179 97.5 276t273.5 97q35 0 71 -5.5t81 -15.5l-25 -188q-20 4 -44.5 7t-52.5 3q-79 0 -118.5 -45t-39.5 -129v-126h220v-180h-220v-902h-243v902h-165zM761 902v180h165v126q0 179 97.5 276t273.5 97q35 0 71 -5.5t81 -15.5l-25 -188 q-20 4 -44.5 7t-52.5 3q-79 0 -118.5 -45t-39.5 -129v-126h220v-180h-220v-902h-243v902h-165zM1582 0v1560h243v-1560h-243z" />
<hkern u1="&#x22;" u2="w" k="-11" />
<hkern u1="&#x27;" u2="w" k="-11" />
<hkern u1="&#x28;" u2="&#x178;" k="-23" />
<hkern u1="&#x28;" u2="&#xdd;" k="-23" />
<hkern u1="&#x28;" u2="Y" k="-23" />
<hkern u1="&#x28;" u2="W" k="-32" />
<hkern u1="&#x28;" u2="V" k="-21" />
<hkern u1="A" u2="w" k="35" />
<hkern u1="A" u2="t" k="18" />
<hkern u1="A" u2="&#x3f;" k="79" />
<hkern u1="C" u2="&#x29;" k="28" />
<hkern u1="D" u2="&#xc6;" k="46" />
<hkern u1="E" u2="w" k="23" />
<hkern u1="F" u2="&#x2026;" k="297" />
<hkern u1="F" u2="&#x201e;" k="297" />
<hkern u1="F" u2="&#x201a;" k="297" />
<hkern u1="F" u2="&#x153;" k="35" />
<hkern u1="F" u2="&#xff;" k="26" />
<hkern u1="F" u2="&#xfd;" k="26" />
<hkern u1="F" u2="&#xfc;" k="23" />
<hkern u1="F" u2="&#xfb;" k="23" />
<hkern u1="F" u2="&#xfa;" k="23" />
<hkern u1="F" u2="&#xf9;" k="23" />
<hkern u1="F" u2="&#xf6;" k="36" />
<hkern u1="F" u2="&#xf5;" k="36" />
<hkern u1="F" u2="&#xf4;" k="36" />
<hkern u1="F" u2="&#xf3;" k="36" />
<hkern u1="F" u2="&#xf2;" k="36" />
<hkern u1="F" u2="&#xeb;" k="35" />
<hkern u1="F" u2="&#xea;" k="35" />
<hkern u1="F" u2="&#xe9;" k="35" />
<hkern u1="F" u2="&#xe8;" k="35" />
<hkern u1="F" u2="&#xe7;" k="35" />
<hkern u1="F" u2="&#xe5;" k="50" />
<hkern u1="F" u2="&#xe4;" k="50" />
<hkern u1="F" u2="&#xe3;" k="50" />
<hkern u1="F" u2="&#xe2;" k="50" />
<hkern u1="F" u2="&#xe1;" k="50" />
<hkern u1="F" u2="&#xe0;" k="50" />
<hkern u1="F" u2="&#xc5;" k="107" />
<hkern u1="F" u2="&#xc4;" k="107" />
<hkern u1="F" u2="&#xc3;" k="107" />
<hkern u1="F" u2="&#xc2;" k="107" />
<hkern u1="F" u2="&#xc1;" k="107" />
<hkern u1="F" u2="&#xc0;" k="107" />
<hkern u1="F" u2="y" k="26" />
<hkern u1="F" u2="v" k="26" />
<hkern u1="F" u2="u" k="23" />
<hkern u1="F" u2="r" k="28" />
<hkern u1="F" u2="q" k="35" />
<hkern u1="F" u2="o" k="36" />
<hkern u1="F" u2="g" k="35" />
<hkern u1="F" u2="e" k="35" />
<hkern u1="F" u2="d" k="35" />
<hkern u1="F" u2="c" k="35" />
<hkern u1="F" u2="a" k="50" />
<hkern u1="F" u2="T" k="-20" />
<hkern u1="F" u2="A" k="107" />
<hkern u1="F" u2="&#x3a;" k="297" />
<hkern u1="F" u2="&#x2e;" k="297" />
<hkern u1="F" u2="&#x2c;" k="297" />
<hkern u1="K" u2="w" k="68" />
<hkern u1="L" u2="w" k="76" />
<hkern u1="O" u2="&#xc6;" k="46" />
<hkern u1="P" u2="&#xc6;" k="235" />
<hkern u1="P" u2="t" k="-15" />
<hkern u1="Q" u2="&#x178;" k="51" />
<hkern u1="Q" u2="&#xdd;" k="51" />
<hkern u1="Q" u2="Y" k="51" />
<hkern u1="Q" u2="W" k="21" />
<hkern u1="Q" u2="V" k="30" />
<hkern u1="Q" u2="T" k="35" />
<hkern u1="R" u2="&#x178;" k="52" />
<hkern u1="R" u2="&#xdd;" k="52" />
<hkern u1="R" u2="Y" k="52" />
<hkern u1="R" u2="V" k="20" />
<hkern u1="R" u2="T" k="41" />
<hkern u1="T" u2="&#xf8;" k="103" />
<hkern u1="T" u2="&#xe6;" k="91" />
<hkern u1="T" u2="&#xc6;" k="192" />
<hkern u1="T" u2="&#xbb;" k="158" />
<hkern u1="T" u2="&#xab;" k="160" />
<hkern u1="T" u2="w" k="50" />
<hkern u1="T" u2="r" k="70" />
<hkern u1="V" u2="&#x7d;" k="-20" />
<hkern u1="V" u2="r" k="32" />
<hkern u1="V" u2="]" k="-18" />
<hkern u1="V" u2="&#x29;" k="-21" />
<hkern u1="W" u2="&#x7d;" k="-15" />
<hkern u1="W" u2="r" k="22" />
<hkern u1="W" u2="]" k="-13" />
<hkern u1="W" u2="&#x29;" k="-16" />
<hkern u1="Y" u2="&#x2022;" k="73" />
<hkern u1="Y" u2="&#xf8;" k="76" />
<hkern u1="Y" u2="&#xe6;" k="75" />
<hkern u1="Y" u2="&#xc6;" k="114" />
<hkern u1="Y" u2="&#xbb;" k="55" />
<hkern u1="Y" u2="&#xab;" k="99" />
<hkern u1="Y" u2="&#x7d;" k="-20" />
<hkern u1="Y" u2="t" k="27" />
<hkern u1="Y" u2="r" k="50" />
<hkern u1="Y" u2="f" k="30" />
<hkern u1="Y" u2="]" k="-19" />
<hkern u1="Y" u2="&#x2a;" k="67" />
<hkern u1="Y" u2="&#x29;" k="-21" />
<hkern u1="Y" u2="&#x26;" k="42" />
<hkern u1="Z" u2="w" k="29" />
<hkern u1="[" u2="&#xdc;" k="19" />
<hkern u1="[" u2="&#xdb;" k="19" />
<hkern u1="[" u2="&#xda;" k="19" />
<hkern u1="[" u2="&#xd9;" k="19" />
<hkern u1="[" u2="U" k="19" />
<hkern u1="[" u2="J" k="19" />
<hkern u1="f" u2="&#x201d;" k="-24" />
<hkern u1="f" u2="&#x201c;" k="-24" />
<hkern u1="f" u2="&#x2019;" k="-24" />
<hkern u1="f" u2="&#x2018;" k="-24" />
<hkern u1="f" u2="&#x7d;" k="-27" />
<hkern u1="f" u2="]" k="-40" />
<hkern u1="f" u2="&#x29;" k="-35" />
<hkern u1="f" u2="&#x27;" k="-24" />
<hkern u1="f" u2="&#x22;" k="-24" />
<hkern u1="k" u2="&#x153;" k="21" />
<hkern u1="k" u2="&#xeb;" k="21" />
<hkern u1="k" u2="&#xea;" k="21" />
<hkern u1="k" u2="&#xe9;" k="21" />
<hkern u1="k" u2="&#xe8;" k="21" />
<hkern u1="k" u2="&#xe7;" k="21" />
<hkern u1="k" u2="q" k="21" />
<hkern u1="k" u2="g" k="21" />
<hkern u1="k" u2="e" k="21" />
<hkern u1="k" u2="d" k="21" />
<hkern u1="k" u2="c" k="21" />
<hkern u1="r" u2="w" k="-21" />
<hkern u1="r" u2="t" k="-21" />
<hkern u1="r" u2="f" k="-19" />
<hkern u1="v" u2="f" k="-14" />
<hkern u1="w" u2="&#x2026;" k="99" />
<hkern u1="w" u2="&#x201e;" k="99" />
<hkern u1="w" u2="&#x201a;" k="99" />
<hkern u1="w" u2="&#x3a;" k="99" />
<hkern u1="w" u2="&#x2e;" k="99" />
<hkern u1="w" u2="&#x2c;" k="99" />
<hkern u1="y" u2="f" k="-14" />
<hkern u1="&#x7b;" u2="&#xdc;" k="21" />
<hkern u1="&#x7b;" u2="&#xdb;" k="21" />
<hkern u1="&#x7b;" u2="&#xda;" k="21" />
<hkern u1="&#x7b;" u2="&#xd9;" k="21" />
<hkern u1="&#x7b;" u2="U" k="21" />
<hkern u1="&#x7b;" u2="J" k="21" />
<hkern u1="&#xc0;" u2="w" k="35" />
<hkern u1="&#xc0;" u2="t" k="18" />
<hkern u1="&#xc0;" u2="&#x3f;" k="79" />
<hkern u1="&#xc1;" u2="w" k="35" />
<hkern u1="&#xc1;" u2="t" k="18" />
<hkern u1="&#xc1;" u2="&#x3f;" k="79" />
<hkern u1="&#xc2;" u2="w" k="35" />
<hkern u1="&#xc2;" u2="t" k="18" />
<hkern u1="&#xc2;" u2="&#x3f;" k="79" />
<hkern u1="&#xc3;" u2="w" k="35" />
<hkern u1="&#xc3;" u2="t" k="18" />
<hkern u1="&#xc3;" u2="&#x3f;" k="79" />
<hkern u1="&#xc4;" u2="w" k="35" />
<hkern u1="&#xc4;" u2="t" k="18" />
<hkern u1="&#xc4;" u2="&#x3f;" k="79" />
<hkern u1="&#xc5;" u2="w" k="35" />
<hkern u1="&#xc5;" u2="t" k="18" />
<hkern u1="&#xc5;" u2="&#x3f;" k="79" />
<hkern u1="&#xc7;" u2="&#x29;" k="28" />
<hkern u1="&#xc8;" u2="w" k="23" />
<hkern u1="&#xc9;" u2="w" k="23" />
<hkern u1="&#xca;" u2="w" k="23" />
<hkern u1="&#xcb;" u2="w" k="23" />
<hkern u1="&#xd0;" u2="&#xc6;" k="46" />
<hkern u1="&#xd2;" u2="&#xc6;" k="46" />
<hkern u1="&#xd3;" u2="&#xc6;" k="46" />
<hkern u1="&#xd4;" u2="&#xc6;" k="46" />
<hkern u1="&#xd5;" u2="&#xc6;" k="46" />
<hkern u1="&#xd6;" u2="&#xc6;" k="46" />
<hkern u1="&#xdd;" u2="&#x2022;" k="73" />
<hkern u1="&#xdd;" u2="&#xf8;" k="76" />
<hkern u1="&#xdd;" u2="&#xe6;" k="75" />
<hkern u1="&#xdd;" u2="&#xc6;" k="114" />
<hkern u1="&#xdd;" u2="&#xbb;" k="55" />
<hkern u1="&#xdd;" u2="&#xab;" k="99" />
<hkern u1="&#xdd;" u2="&#x7d;" k="-20" />
<hkern u1="&#xdd;" u2="t" k="27" />
<hkern u1="&#xdd;" u2="r" k="50" />
<hkern u1="&#xdd;" u2="f" k="30" />
<hkern u1="&#xdd;" u2="]" k="-19" />
<hkern u1="&#xdd;" u2="&#x2a;" k="67" />
<hkern u1="&#xdd;" u2="&#x29;" k="-21" />
<hkern u1="&#xdd;" u2="&#x26;" k="42" />
<hkern u1="&#xfd;" u2="f" k="-14" />
<hkern u1="&#xff;" u2="f" k="-14" />
<hkern u1="&#x178;" u2="&#x2022;" k="73" />
<hkern u1="&#x178;" u2="&#xf8;" k="76" />
<hkern u1="&#x178;" u2="&#xe6;" k="75" />
<hkern u1="&#x178;" u2="&#xc6;" k="114" />
<hkern u1="&#x178;" u2="&#xbb;" k="55" />
<hkern u1="&#x178;" u2="&#xab;" k="99" />
<hkern u1="&#x178;" u2="&#x7d;" k="-20" />
<hkern u1="&#x178;" u2="t" k="27" />
<hkern u1="&#x178;" u2="r" k="50" />
<hkern u1="&#x178;" u2="f" k="30" />
<hkern u1="&#x178;" u2="]" k="-19" />
<hkern u1="&#x178;" u2="&#x2a;" k="67" />
<hkern u1="&#x178;" u2="&#x29;" k="-21" />
<hkern u1="&#x178;" u2="&#x26;" k="42" />
<hkern u1="&#x2018;" u2="w" k="-11" />
<hkern u1="&#x2019;" u2="w" k="-11" />
<hkern u1="&#x201c;" u2="w" k="-11" />
<hkern u1="&#x201d;" u2="w" k="-11" />
<hkern g1="comma,period,colon,quotesinglbase,quotedblbase,ellipsis" 	g2="quotedbl,quotesingle,quoteleft,quoteright,quotedblleft,quotedblright" 	k="285" />
<hkern g1="B" 	g2="T" 	k="29" />
<hkern g1="B" 	g2="V" 	k="26" />
<hkern g1="B" 	g2="Y,Yacute,Ydieresis" 	k="90" />
<hkern g1="C,Ccedilla" 	g2="T" 	k="31" />
<hkern g1="D,O,Eth,Ograve,Oacute,Ocircumflex,Otilde,Odieresis" 	g2="A,Agrave,Aacute,Acircumflex,Atilde,Adieresis,Aring" 	k="22" />
<hkern g1="D,O,Eth,Ograve,Oacute,Ocircumflex,Otilde,Odieresis" 	g2="T" 	k="29" />
<hkern g1="D,O,Eth,Ograve,Oacute,Ocircumflex,Otilde,Odieresis" 	g2="V" 	k="23" />
<hkern g1="D,O,Eth,Ograve,Oacute,Ocircumflex,Otilde,Odieresis" 	g2="Y,Yacute,Ydieresis" 	k="46" />
<hkern g1="D,O,Eth,Ograve,Oacute,Ocircumflex,Otilde,Odieresis" 	g2="comma,period,colon,quotesinglbase,quotedblbase,ellipsis" 	k="106" />
<hkern g1="D,O,Eth,Ograve,Oacute,Ocircumflex,Otilde,Odieresis" 	g2="X" 	k="23" />
<hkern g1="D,O,Eth,Ograve,Oacute,Ocircumflex,Otilde,Odieresis" 	g2="Z" 	k="24" />
<hkern g1="E,Egrave,Eacute,Ecircumflex,Edieresis" 	g2="c,d,e,g,q,ccedilla,egrave,eacute,ecircumflex,edieresis,oe" 	k="16" />
<hkern g1="E,Egrave,Eacute,Ecircumflex,Edieresis" 	g2="o,ograve,oacute,ocircumflex,otilde,odieresis" 	k="20" />
<hkern g1="E,Egrave,Eacute,Ecircumflex,Edieresis" 	g2="T" 	k="-20" />
<hkern g1="E,Egrave,Eacute,Ecircumflex,Edieresis" 	g2="u,ugrave,uacute,ucircumflex,udieresis" 	k="18" />
<hkern g1="E,Egrave,Eacute,Ecircumflex,Edieresis" 	g2="v,y,yacute,ydieresis" 	k="28" />
<hkern g1="J,U,Ugrave,Uacute,Ucircumflex,Udieresis" 	g2="A,Agrave,Aacute,Acircumflex,Atilde,Adieresis,Aring" 	k="23" />
<hkern g1="K" 	g2="c,d,e,g,q,ccedilla,egrave,eacute,ecircumflex,edieresis,oe" 	k="28" />
<hkern g1="K" 	g2="o,ograve,oacute,ocircumflex,otilde,odieresis" 	k="29" />
<hkern g1="K" 	g2="u,ugrave,uacute,ucircumflex,udieresis" 	k="24" />
<hkern g1="K" 	g2="v,y,yacute,ydieresis" 	k="43" />
<hkern g1="K" 	g2="hyphen,uni00AD,endash,emdash" 	k="166" />
<hkern g1="K" 	g2="C,G,O,Q,Ccedilla,Ograve,Oacute,Ocircumflex,Otilde,Odieresis,Oslash,OE" 	k="43" />
<hkern g1="L" 	g2="quotedbl,quotesingle,quoteleft,quoteright,quotedblleft,quotedblright" 	k="276" />
<hkern g1="L" 	g2="A,Agrave,Aacute,Acircumflex,Atilde,Adieresis,Aring" 	k="-20" />
<hkern g1="L" 	g2="T" 	k="208" />
<hkern g1="L" 	g2="V" 	k="210" />
<hkern g1="L" 	g2="Y,Yacute,Ydieresis" 	k="273" />
<hkern g1="L" 	g2="u,ugrave,uacute,ucircumflex,udieresis" 	k="15" />
<hkern g1="L" 	g2="v,y,yacute,ydieresis" 	k="131" />
<hkern g1="L" 	g2="C,G,O,Q,Ccedilla,Ograve,Oacute,Ocircumflex,Otilde,Odieresis,Oslash,OE" 	k="41" />
<hkern g1="L" 	g2="U,Ugrave,Uacute,Ucircumflex,Udieresis" 	k="26" />
<hkern g1="L" 	g2="W" 	k="104" />
<hkern g1="P" 	g2="A,Agrave,Aacute,Acircumflex,Atilde,Adieresis,Aring" 	k="173" />
<hkern g1="P" 	g2="a,agrave,aacute,acircumflex,atilde,adieresis,aring" 	k="11" />
<hkern g1="P" 	g2="c,d,e,g,q,ccedilla,egrave,eacute,ecircumflex,edieresis,oe" 	k="14" />
<hkern g1="P" 	g2="o,ograve,oacute,ocircumflex,otilde,odieresis" 	k="14" />
<hkern g1="P" 	g2="comma,period,colon,quotesinglbase,quotedblbase,ellipsis" 	k="393" />
<hkern g1="P" 	g2="X" 	k="63" />
<hkern g1="P" 	g2="Z" 	k="37" />
<hkern g1="P" 	g2="v,y,yacute,ydieresis" 	k="-16" />
<hkern g1="T" 	g2="A,Agrave,Aacute,Acircumflex,Atilde,Adieresis,Aring" 	k="105" />
<hkern g1="T" 	g2="a,agrave,aacute,acircumflex,atilde,adieresis,aring" 	k="89" />
<hkern g1="T" 	g2="c,d,e,g,q,ccedilla,egrave,eacute,ecircumflex,edieresis,oe" 	k="96" />
<hkern g1="T" 	g2="m,n,p,ntilde" 	k="86" />
<hkern g1="T" 	g2="o,ograve,oacute,ocircumflex,otilde,odieresis" 	k="85" />
<hkern g1="T" 	g2="s" 	k="82" />
<hkern g1="T" 	g2="T" 	k="-17" />
<hkern g1="T" 	g2="V" 	k="-17" />
<hkern g1="T" 	g2="Y,Yacute,Ydieresis" 	k="-17" />
<hkern g1="T" 	g2="comma,period,colon,quotesinglbase,quotedblbase,ellipsis" 	k="232" />
<hkern g1="T" 	g2="u,ugrave,uacute,ucircumflex,udieresis" 	k="70" />
<hkern g1="T" 	g2="v,y,yacute,ydieresis" 	k="88" />
<hkern g1="T" 	g2="hyphen,uni00AD,endash,emdash" 	k="238" />
<hkern g1="T" 	g2="C,G,O,Q,Ccedilla,Ograve,Oacute,Ocircumflex,Otilde,Odieresis,Oslash,OE" 	k="30" />
<hkern g1="T" 	g2="W" 	k="-16" />
<hkern g1="T" 	g2="S" 	k="17" />
<hkern g1="T" 	g2="x" 	k="83" />
<hkern g1="T" 	g2="z" 	k="65" />
<hkern g1="V" 	g2="A,Agrave,Aacute,Acircumflex,Atilde,Adieresis,Aring" 	k="105" />
<hkern g1="V" 	g2="a,agrave,aacute,acircumflex,atilde,adieresis,aring" 	k="49" />
<hkern g1="V" 	g2="c,d,e,g,q,ccedilla,egrave,eacute,ecircumflex,edieresis,oe" 	k="47" />
<hkern g1="V" 	g2="o,ograve,oacute,ocircumflex,otilde,odieresis" 	k="49" />
<hkern g1="V" 	g2="comma,period,colon,quotesinglbase,quotedblbase,ellipsis" 	k="215" />
<hkern g1="V" 	g2="u,ugrave,uacute,ucircumflex,udieresis" 	k="30" />
<hkern g1="V" 	g2="v,y,yacute,ydieresis" 	k="11" />
<hkern g1="V" 	g2="hyphen,uni00AD,endash,emdash" 	k="118" />
<hkern g1="V" 	g2="C,G,O,Q,Ccedilla,Ograve,Oacute,Ocircumflex,Otilde,Odieresis,Oslash,OE" 	k="21" />
<hkern g1="W" 	g2="A,Agrave,Aacute,Acircumflex,Atilde,Adieresis,Aring" 	k="56" />
<hkern g1="W" 	g2="a,agrave,aacute,acircumflex,atilde,adieresis,aring" 	k="35" />
<hkern g1="W" 	g2="c,d,e,g,q,ccedilla,egrave,eacute,ecircumflex,edieresis,oe" 	k="33" />
<hkern g1="W" 	g2="o,ograve,oacute,ocircumflex,otilde,odieresis" 	k="33" />
<hkern g1="W" 	g2="T" 	k="-15" />
<hkern g1="W" 	g2="comma,period,colon,quotesinglbase,quotedblbase,ellipsis" 	k="155" />
<hkern g1="W" 	g2="u,ugrave,uacute,ucircumflex,udieresis" 	k="20" />
<hkern g1="W" 	g2="hyphen,uni00AD,endash,emdash" 	k="79" />
<hkern g1="X" 	g2="c,d,e,g,q,ccedilla,egrave,eacute,ecircumflex,edieresis,oe" 	k="28" />
<hkern g1="X" 	g2="o,ograve,oacute,ocircumflex,otilde,odieresis" 	k="26" />
<hkern g1="X" 	g2="V" 	k="-15" />
<hkern g1="X" 	g2="u,ugrave,uacute,ucircumflex,udieresis" 	k="22" />
<hkern g1="X" 	g2="v,y,yacute,ydieresis" 	k="40" />
<hkern g1="X" 	g2="hyphen,uni00AD,endash,emdash" 	k="170" />
<hkern g1="X" 	g2="C,G,O,Q,Ccedilla,Ograve,Oacute,Ocircumflex,Otilde,Odieresis,Oslash,OE" 	k="30" />
<hkern g1="Y,Yacute,Ydieresis" 	g2="A,Agrave,Aacute,Acircumflex,Atilde,Adieresis,Aring" 	k="154" />
<hkern g1="Y,Yacute,Ydieresis" 	g2="a,agrave,aacute,acircumflex,atilde,adieresis,aring" 	k="78" />
<hkern g1="Y,Yacute,Ydieresis" 	g2="c,d,e,g,q,ccedilla,egrave,eacute,ecircumflex,edieresis,oe" 	k="95" />
<hkern g1="Y,Yacute,Ydieresis" 	g2="m,n,p,ntilde" 	k="57" />
<hkern g1="Y,Yacute,Ydieresis" 	g2="o,ograve,oacute,ocircumflex,otilde,odieresis" 	k="102" />
<hkern g1="Y,Yacute,Ydieresis" 	g2="s" 	k="87" />
<hkern g1="Y,Yacute,Ydieresis" 	g2="T" 	k="-18" />
<hkern g1="Y,Yacute,Ydieresis" 	g2="V" 	k="-19" />
<hkern g1="Y,Yacute,Ydieresis" 	g2="Y,Yacute,Ydieresis" 	k="-19" />
<hkern g1="Y,Yacute,Ydieresis" 	g2="comma,period,colon,quotesinglbase,quotedblbase,ellipsis" 	k="238" />
<hkern g1="Y,Yacute,Ydieresis" 	g2="u,ugrave,uacute,ucircumflex,udieresis" 	k="56" />
<hkern g1="Y,Yacute,Ydieresis" 	g2="v,y,yacute,ydieresis" 	k="21" />
<hkern g1="Y,Yacute,Ydieresis" 	g2="hyphen,uni00AD,endash,emdash" 	k="142" />
<hkern g1="Y,Yacute,Ydieresis" 	g2="C,G,O,Q,Ccedilla,Ograve,Oacute,Ocircumflex,Otilde,Odieresis,Oslash,OE" 	k="31" />
<hkern g1="Y,Yacute,Ydieresis" 	g2="U,Ugrave,Uacute,Ucircumflex,Udieresis" 	k="79" />
<hkern g1="Y,Yacute,Ydieresis" 	g2="W" 	k="-18" />
<hkern g1="Y,Yacute,Ydieresis" 	g2="S" 	k="17" />
<hkern g1="Y,Yacute,Ydieresis" 	g2="x" 	k="28" />
<hkern g1="Y,Yacute,Ydieresis" 	g2="z" 	k="35" />
<hkern g1="Y,Yacute,Ydieresis" 	g2="J" 	k="125" />
<hkern g1="Z" 	g2="A,Agrave,Aacute,Acircumflex,Atilde,Adieresis,Aring" 	k="-14" />
<hkern g1="Z" 	g2="c,d,e,g,q,ccedilla,egrave,eacute,ecircumflex,edieresis,oe" 	k="22" />
<hkern g1="Z" 	g2="o,ograve,oacute,ocircumflex,otilde,odieresis" 	k="22" />
<hkern g1="Z" 	g2="u,ugrave,uacute,ucircumflex,udieresis" 	k="20" />
<hkern g1="Z" 	g2="v,y,yacute,ydieresis" 	k="29" />
<hkern g1="Z" 	g2="C,G,O,Q,Ccedilla,Ograve,Oacute,Ocircumflex,Otilde,Odieresis,Oslash,OE" 	k="28" />
<hkern g1="a,agrave,aacute,acircumflex,atilde,adieresis,aring" 	g2="quotedbl,quotesingle,quoteleft,quoteright,quotedblleft,quotedblright" 	k="32" />
<hkern g1="a,agrave,aacute,acircumflex,atilde,adieresis,aring" 	g2="v,y,yacute,ydieresis" 	k="16" />
<hkern g1="b,p,thorn" 	g2="quotedbl,quotesingle,quoteleft,quoteright,quotedblleft,quotedblright" 	k="38" />
<hkern g1="b,p,thorn" 	g2="v,y,yacute,ydieresis" 	k="11" />
<hkern g1="b,p,thorn" 	g2="x" 	k="16" />
<hkern g1="b,p,thorn" 	g2="z" 	k="16" />
<hkern g1="c,ccedilla" 	g2="quotedbl,quotesingle,quoteleft,quoteright,quotedblleft,quotedblright" 	k="25" />
<hkern g1="e,egrave,eacute,ecircumflex,edieresis" 	g2="quotedbl,quotesingle,quoteleft,quoteright,quotedblleft,quotedblright" 	k="25" />
<hkern g1="e,egrave,eacute,ecircumflex,edieresis" 	g2="v,y,yacute,ydieresis" 	k="14" />
<hkern g1="h,m,n,ntilde" 	g2="quotedbl,quotesingle,quoteleft,quoteright,quotedblleft,quotedblright" 	k="34" />
<hkern g1="o,ograve,oacute,ocircumflex,otilde,odieresis" 	g2="quotedbl,quotesingle,quoteleft,quoteright,quotedblleft,quotedblright" 	k="39" />
<hkern g1="o,ograve,oacute,ocircumflex,otilde,odieresis" 	g2="v,y,yacute,ydieresis" 	k="16" />
<hkern g1="o,ograve,oacute,ocircumflex,otilde,odieresis" 	g2="x" 	k="26" />
<hkern g1="o,ograve,oacute,ocircumflex,otilde,odieresis" 	g2="z" 	k="17" />
<hkern g1="r" 	g2="quotedbl,quotesingle,quoteleft,quoteright,quotedblleft,quotedblright" 	k="-17" />
<hkern g1="r" 	g2="comma,period,colon,quotesinglbase,quotedblbase,ellipsis" 	k="160" />
<hkern g1="r" 	g2="v,y,yacute,ydieresis" 	k="-22" />
<hkern g1="v,y,yacute,ydieresis" 	g2="a,agrave,aacute,acircumflex,atilde,adieresis,aring" 	k="16" />
<hkern g1="v,y,yacute,ydieresis" 	g2="c,d,e,g,q,ccedilla,egrave,eacute,ecircumflex,edieresis,oe" 	k="14" />
<hkern g1="v,y,yacute,ydieresis" 	g2="o,ograve,oacute,ocircumflex,otilde,odieresis" 	k="16" />
<hkern g1="v,y,yacute,ydieresis" 	g2="comma,period,colon,quotesinglbase,quotedblbase,ellipsis" 	k="154" />
<hkern g1="x" 	g2="c,d,e,g,q,ccedilla,egrave,eacute,ecircumflex,edieresis,oe" 	k="21" />
<hkern g1="x" 	g2="o,ograve,oacute,ocircumflex,otilde,odieresis" 	k="34" />
<hkern g1="z" 	g2="c,d,e,g,q,ccedilla,egrave,eacute,ecircumflex,edieresis,oe" 	k="17" />
<hkern g1="z" 	g2="o,ograve,oacute,ocircumflex,otilde,odieresis" 	k="17" />
</font>
</defs></svg> 