<?phpxml version="1.0" standalone="no"?>
<!DOCTYPE svg PUBLIC "-//W3C//DTD SVG 1.1//EN" "http://www.w3.org/Graphics/SVG/1.1/DTD/svg11.dtd" >
<svg xmlns="http://www.w3.org/2000/svg">
<metadata></metadata>
<defs>
<font id="robotolight" horiz-adv-x="1140" >
<font-face units-per-em="2048" ascent="1638" descent="-410" />
<missing-glyph horiz-adv-x="498" />
<glyph unicode="&#xfb01;" horiz-adv-x="1100" d="M48 984v98h180v138q0 172 95 266.5t264 94.5q67 0 136 -15t140 -44l-20 -103q-61 25 -118 39t-130 14q-122 0 -184.5 -65t-62.5 -187v-138h253v-98h-253v-984h-120v984h-180zM808 0v1082h120v-1082h-120z" />
<glyph horiz-adv-x="2048" />
<glyph horiz-adv-x="2048" />
<glyph unicode="&#xd;" horiz-adv-x="498" />
<glyph unicode=" "  horiz-adv-x="498" />
<glyph unicode="&#x09;" horiz-adv-x="498" />
<glyph unicode="&#xa0;" horiz-adv-x="498" />
<glyph unicode="!" horiz-adv-x="462" d="M158 0v167h142v-167h-142zM169 478v978h119v-978h-119z" />
<glyph unicode="&#x22;" horiz-adv-x="588" d="M127 1083l3 255v222h102v-216l-33 -261h-72zM366 1083l4 258v219h101v-216l-33 -261h-72z" />
<glyph unicode="#" horiz-adv-x="1270" d="M67 410v93h272l83 441h-279v96h297l79 416h100l-79 -416h314l79 416h100l-79 -416h229v-96h-247l-83 -441h255v-93h-273l-77 -410h-100l77 410h-313l-77 -410h-100l77 410h-255zM439 503h314l83 441h-314z" />
<glyph unicode="$" horiz-adv-x="1135" d="M120 412l3 6h112q0 -177 101 -255t244 -78q148 0 234.5 77.5t86.5 196.5q0 110 -72 180t-254 135q-208 66 -308 159t-100 262q0 162 100 264t272 116v202h102v-202q175 -16 271 -131t94 -311l-3 -5h-112q0 152 -80 247t-224 95q-148 0 -224.5 -77.5t-76.5 -195.5 q0 -114 68 -183.5t261 -133.5q207 -69 306.5 -160.5t99.5 -258.5q0 -166 -104 -265.5t-280 -113.5v-190h-101v189q-181 11 -300.5 115.5t-115.5 315.5z" />
<glyph unicode="%" horiz-adv-x="1514" d="M110 1099v77q0 127 78.5 214t206.5 87q127 0 205.5 -87t78.5 -214v-77q0 -126 -78 -212.5t-204 -86.5q-129 0 -208 86.5t-79 212.5zM206 1099q0 -88 49.5 -150t141.5 -62q89 0 137.5 62t48.5 150v77q0 88 -49 151t-139 63t-139.5 -63t-49.5 -151v-77zM386 169l711 1138 l74 -48l-711 -1138zM842 278v78q0 126 78.5 213t206.5 87q127 0 206 -87t79 -213v-78q0 -126 -78.5 -212.5t-204.5 -86.5q-129 0 -208 86.5t-79 212.5zM939 278q0 -88 49 -150t141 -62q89 0 137.5 62t48.5 150v78q0 91 -49 152t-139 61t-139 -61.5t-49 -151.5v-78z" />
<glyph unicode="&#x26;" horiz-adv-x="1260" d="M91 371q0 120 72.5 216.5t209.5 196.5l15 11q-81 100 -120 182.5t-39 169.5q0 158 89 244t244 86q144 0 228.5 -81t84.5 -204q0 -90 -45 -155t-130 -130l-159 -122l412 -481q49 71 76 159t27 188h110q0 -128 -36.5 -235.5t-105.5 -194.5l185 -216l-2 -5h-137l-122 141 q-85 -78 -186 -120t-218 -42q-209 0 -331 107t-122 285zM211 371q0 -124 85.5 -207.5t247.5 -83.5q92 0 179.5 36t157.5 103l-414 482l-8.5 8.5t-5.5 7.5l-47 -36q-116 -94 -155.5 -170t-39.5 -140zM349 1149q0 -66 31.5 -137t96.5 -151l177 132q58 45 82.5 94t24.5 105 q0 79 -52.5 131t-146.5 52q-102 0 -157.5 -65t-55.5 -161z" />
<glyph unicode="'" horiz-adv-x="348" d="M116 1090l8 266v204h102v-195l-38 -275h-72z" />
<glyph unicode="(" horiz-adv-x="640" d="M140 573v15q0 363 139 651t310 386l6 -1l26 -73q-145 -103 -253 -366t-108 -594v-20q0 -331 108 -594t253 -370l-26 -70h-6q-173 100 -311 382t-138 654z" />
<glyph unicode=")" horiz-adv-x="652" d="M18 -393q144 102 252.5 367t108.5 597v20q0 329 -110.5 595.5t-250.5 368.5l26 70h6q170 -98 309 -386t139 -651v-15q0 -372 -138 -654t-310 -382h-6z" />
<glyph unicode="*" horiz-adv-x="869" d="M29 1108l32 101l332 -123l-4 370h104l-8 -373l324 127l33 -101l-333 -115l223 -294l-85 -63l-214 305l-204 -303l-85 61l217 300z" />
<glyph unicode="+" horiz-adv-x="1156" d="M75 628v112h434v466h121v-466h443v-112h-443v-482h-121v482h-434z" />
<glyph unicode="," horiz-adv-x="392" d="M83 -258l69 279v167h119v-170l-106 -276h-82z" />
<glyph unicode="-" horiz-adv-x="586" d="M49 570v101h479v-101h-479z" />
<glyph unicode="." horiz-adv-x="489" d="M167 0v164h137v-164h-137z" />
<glyph unicode="/" horiz-adv-x="813" d="M30 -125l608 1581h108l-607 -1581h-109z" />
<glyph unicode="0" horiz-adv-x="1194" d="M135 565v325q0 281 122 434t339 153t340 -153t123 -434v-325q0 -282 -122 -434t-339 -152q-216 0 -339.5 152.5t-123.5 433.5zM255 547q0 -222 88.5 -344.5t254.5 -122.5t253.5 122t87.5 345v363q0 224 -88 344.5t-255 120.5t-254 -120.5t-87 -344.5v-363z" />
<glyph unicode="1" horiz-adv-x="1135" d="M188 1288v84l490 88v-1467h-120v1338z" />
<glyph unicode="2" horiz-adv-x="1135" d="M111 1043q-5 182 118 308t333 126q188 0 301 -108t113 -290q0 -120 -75.5 -243.5t-210.5 -275.5l-401 -454l2 -5h750v-101h-904v92l477 541q132 149 186.5 249.5t54.5 192.5q0 136 -76.5 218t-216.5 82q-166 0 -252 -92t-86 -246h-111z" />
<glyph unicode="3" horiz-adv-x="1135" d="M104 389l2 6h112q0 -139 96.5 -227t249.5 -88q155 0 242 80.5t87 230.5q0 153 -91 226.5t-260 73.5h-139v102h139q159 0 241 79.5t82 204.5q0 136 -77 217t-229 81q-140 0 -229.5 -82.5t-89.5 -217.5h-112l-2 6q-5 170 119 283t314 113q195 0 310.5 -107t115.5 -297 q0 -103 -64 -193.5t-180 -134.5q136 -39 203.5 -131.5t67.5 -218.5q0 -194 -125.5 -305t-322.5 -111q-191 0 -328 108.5t-132 301.5z" />
<glyph unicode="4" horiz-adv-x="1135" d="M69 368v68l671 1020h131v-987h228v-101h-228v-368h-119v368h-683zM211 469h541v830l-6 2l-51 -109z" />
<glyph unicode="5" horiz-adv-x="1135" d="M174 377l2 6h107q0 -147 83.5 -225t222.5 -78q162 0 242.5 98t80.5 284q0 163 -80.5 261.5t-225.5 98.5q-140 0 -213.5 -44.5t-106.5 -134.5l-97 16l81 797h707v-111h-605l-54 -519q55 50 121 77t179 30q186 3 300 -125t114 -344q0 -221 -110.5 -353t-332.5 -132 q-180 0 -300 100.5t-115 297.5z" />
<glyph unicode="6" horiz-adv-x="1135" d="M152 540v367q0 252 143 411t352 159q75 0 148 -17t130 -49l-31 -98q-57 32 -113 47t-134 15q-162 0 -268.5 -126t-106.5 -331v-129q60 78 153 125t206 47q196 0 310 -135t114 -352q0 -215 -122.5 -355t-318.5 -140q-201 0 -331.5 150t-130.5 411zM272 531q0 -209 96 -330 t246 -121q146 0 233.5 114.5t87.5 279.5q0 175 -85 282t-243 107q-121 0 -211.5 -63t-123.5 -162v-107z" />
<glyph unicode="7" horiz-adv-x="1135" d="M77 1354v102h955v-102q-236 -280 -361 -568.5t-167 -663.5l-11 -122h-120l11 122q42 370 174 669.5t350 562.5h-831z" />
<glyph unicode="8" horiz-adv-x="1135" d="M100 386q0 129 79 224.5t212 136.5q-115 40 -182.5 128t-67.5 206q0 188 118.5 292t307.5 104q188 0 308.5 -104.5t120.5 -291.5q0 -118 -69 -206.5t-184 -128.5q133 -41 213.5 -136.5t80.5 -223.5q0 -196 -131 -301.5t-337 -105.5q-210 0 -339.5 105t-129.5 302z M219 385q0 -143 97 -224t253 -81q152 0 250 81.5t98 223.5q0 138 -100 224.5t-250 86.5q-152 0 -250 -86.5t-98 -224.5zM260 1082q0 -129 86.5 -206.5t222.5 -77.5q133 0 220 77.5t87 206.5q0 126 -88.5 209.5t-220.5 83.5q-135 0 -221 -80t-86 -213z" />
<glyph unicode="9" horiz-adv-x="1135" d="M89 958q0 221 127.5 370t315.5 149q211 0 338 -137.5t127 -399.5v-429q0 -253 -134 -392.5t-352 -139.5q-78 0 -156.5 15t-149.5 46l22 100q68 -32 134.5 -46t149.5 -14q166 0 264 111t98 318v146q-53 -92 -142.5 -142t-199.5 -50q-199 0 -320.5 138t-121.5 357zM213 958 q0 -168 86 -281t232 -113q130 0 217.5 66.5t124.5 164.5v154q0 207 -90.5 316.5t-245.5 109.5q-141 0 -232.5 -122t-91.5 -295z" />
<glyph unicode=":" horiz-adv-x="434" d="M154 0v164h137v-164h-137zM154 916v164h137v-164h-137z" />
<glyph unicode=";" horiz-adv-x="438" d="M106 -258l69 279v167h119v-170l-106 -276h-82zM158 918v164h137v-164h-137z" />
<glyph unicode="&#x3c;" horiz-adv-x="1047" d="M77 501v97l827 378v-126l-614 -272l-108 -28v-6l108 -28l614 -268v-126z" />
<glyph unicode="=" horiz-adv-x="1147" d="M149 422v106h834v-106h-834zM149 833v106h834v-106h-834z" />
<glyph unicode="&#x3e;" horiz-adv-x="1061" d="M124 122v124l632 274l108 27v6l-108 29l-632 271v123l845 -378v-97z" />
<glyph unicode="?" horiz-adv-x="930" d="M81 1122q-3 165 104 260t273 95q179 0 280.5 -101t101.5 -273q0 -135 -66.5 -239.5t-188.5 -218.5q-62 -53 -75.5 -99t-13.5 -142h-119q1 131 22 182.5t114 136.5q108 112 157.5 187.5t49.5 191.5q0 128 -68 198t-194 70q-118 0 -190 -68.5t-73 -185.5h-112zM373 0v154 h139v-154h-139z" />
<glyph unicode="@" horiz-adv-x="1870" d="M122 478q18 424 252.5 683t609.5 259q391 0 587.5 -241.5t179.5 -665.5q-10 -216 -117 -375t-313 -159q-78 0 -130.5 51t-69.5 142q-53 -96 -131 -144.5t-180 -48.5q-131 0 -199 120t-49 317q23 254 141 407.5t286 153.5q94 0 151 -26.5t126 -81.5l-2 -2h3l-50 -574 q-10 -132 30 -180t95 -48q142 0 224.5 124.5t93.5 323.5q18 389 -150 604.5t-530 215.5q-323 0 -533 -235.5t-227 -619.5q-19 -379 163.5 -612.5t519.5 -233.5q88 0 178 22t152 57l31 -75q-64 -41 -167 -65t-198 -24q-380 0 -588 249.5t-189 681.5zM672 416 q-16 -155 26 -247t138 -92q86 0 156.5 43t122.5 157v8.5t1 7.5l47 544q-32 23 -71 36t-87 13q-134 0 -222 -119t-111 -351z" />
<glyph unicode="A" horiz-adv-x="1279" d="M32 0l553 1456h113l549 -1456h-124l-150 406h-667l-150 -406h-124zM346 513h588l-290 788h-6z" />
<glyph unicode="B" horiz-adv-x="1269" d="M191 0v1456h425q227 0 353.5 -95.5t126.5 -287.5q0 -112 -63.5 -195t-172.5 -115q133 -24 216 -125t83 -233q0 -195 -126.5 -300t-338.5 -105h-503zM310 101h384q161 0 253 79.5t92 222.5q0 131 -83.5 215t-242.5 84h-403v-601zM310 803h335q158 0 244.5 69.5t86.5 204.5 q0 138 -92 207.5t-268 69.5h-306v-551z" />
<glyph unicode="C" horiz-adv-x="1313" d="M132 609v237q0 278 149 454.5t392 176.5q232 0 368 -123t155 -346l-2 -6h-112q-24 181 -124.5 277t-284.5 96q-191 0 -306.5 -148t-115.5 -379v-239q0 -234 115.5 -381.5t306.5 -147.5q184 0 285 94t124 281h112l2 -6q-19 -219 -156 -344.5t-367 -125.5 q-243 0 -392 175.5t-149 454.5z" />
<glyph unicode="D" horiz-adv-x="1344" d="M191 0v1456h423q267 0 441 -178t174 -457v-187q0 -280 -174 -457t-441 -177h-423zM310 101h304q216 0 355.5 151t139.5 382v190q0 228 -140 379t-355 151h-304v-1253z" />
<glyph unicode="E" horiz-adv-x="1180" d="M191 0v1456h917v-102h-798v-547h701v-102h-701v-604h803v-101h-922z" />
<glyph unicode="F" horiz-adv-x="1181" d="M191 0v1456h929v-102h-810v-569h708v-103h-708v-682h-119z" />
<glyph unicode="G" horiz-adv-x="1401" d="M146 600v267q0 270 154.5 440t400.5 170q235 0 367.5 -117.5t153.5 -305.5l-2 -6h-111q-26 146 -123 236.5t-285 90.5q-196 0 -315.5 -142t-119.5 -364v-269q0 -228 127 -374t332 -146q145 0 246.5 40.5t138.5 88.5v380h-387v102h507v-518q-49 -71 -178.5 -132.5 t-326.5 -61.5q-254 0 -416.5 173t-162.5 448z" />
<glyph unicode="H" horiz-adv-x="1448" d="M191 0v1456h119v-684h828v684h119v-1456h-119v670h-828v-670h-119z" />
<glyph unicode="I" horiz-adv-x="554" d="M217 0v1456h120v-1456h-120z" />
<glyph unicode="J" horiz-adv-x="1127" d="M82 395l2 6h112q0 -158 84 -239.5t240 -81.5q133 0 219 90.5t86 242.5v1043h120v-1043q0 -199 -118.5 -316.5t-306.5 -117.5q-205 0 -324 106q-114 102 -114 294v16z" />
<glyph unicode="K" horiz-adv-x="1308" d="M191 0v1456h119v-670h199l573 670h135l2 -5l-602 -711l645 -735l-2 -5h-142l-608 685h-200v-685h-119z" />
<glyph unicode="L" horiz-adv-x="1079" d="M191 0v1456h120v-1355h720v-101h-840z" />
<glyph unicode="M" horiz-adv-x="1775" d="M191 0v1456h157l535 -1282h6l537 1282h158v-1456h-119v643l10 637l-6 2l-541 -1282h-83l-540 1276l-6 -1l11 -632v-643h-119z" />
<glyph unicode="N" horiz-adv-x="1454" d="M191 0v1456h120l827 -1250l6 1v1249h119v-1456h-119l-827 1252l-6 -1v-1251h-120z" />
<glyph unicode="O" horiz-adv-x="1378" d="M124 609v237q0 281 152 456t408 175q260 0 415 -175t155 -456v-237q0 -282 -154.5 -456t-414.5 -174q-256 0 -408.5 174t-152.5 456zM244 609q0 -238 116.5 -382t324.5 -144q213 0 331.5 143.5t118.5 382.5v239q0 236 -119.5 380t-331.5 144q-208 0 -324 -144t-116 -380 v-239z" />
<glyph unicode="P" horiz-adv-x="1267" d="M191 0v1456h501q229 0 354.5 -116.5t125.5 -308.5q0 -194 -125.5 -310t-354.5 -116h-382v-605h-119zM310 707h382q180 0 270.5 91.5t90.5 230.5q0 140 -90 232.5t-271 92.5h-382v-647z" />
<glyph unicode="Q" horiz-adv-x="1379" d="M124 609v237q0 281 152 456t408 175q260 0 415 -175t155 -456v-237q0 -164 -54.5 -295.5t-155.5 -214.5l250 -236l-83 -75l-264 249q-59 -29 -124.5 -43.5t-137.5 -14.5q-256 0 -408.5 174t-152.5 456zM244 609q0 -238 116.5 -382t324.5 -144q213 0 331.5 143.5 t118.5 382.5v239q0 236 -119.5 380t-331.5 144q-208 0 -324 -144t-116 -380v-239z" />
<glyph unicode="R" horiz-adv-x="1348" d="M188 0v1455h493q234 0 359 -102.5t125 -299.5q0 -116 -67 -207.5t-189 -133.5q135 -34 194.5 -121.5t59.5 -219.5v-137q0 -68 16 -122t53 -88v-24h-122q-37 36 -52 101t-15 135v133q0 134 -86.5 211.5t-241.5 77.5h-408v-658h-119zM307 760h359q197 0 288 79.5t91 214.5 q0 144 -90.5 221.5t-273.5 77.5h-374v-593z" />
<glyph unicode="S" horiz-adv-x="1231" d="M100 408l2 6h110q0 -170 127 -252t299 -82q173 0 279.5 76t106.5 201q0 119 -89 194.5t-310 133.5q-239 60 -362 156t-123 259q0 167 137.5 272t353.5 105q225 0 363 -125q134 -121 134 -295v-10l-3 -6h-110q0 146 -103.5 240t-280.5 94q-175 0 -273.5 -78t-98.5 -194 q0 -110 91 -183.5t314 -129.5q235 -60 357.5 -162t122.5 -269q0 -174 -142.5 -277t-363.5 -103q-218 -1 -380 109q-158 106 -158 308v12z" />
<glyph unicode="T" horiz-adv-x="1213" d="M45 1354v102h1122v-102h-501v-1354h-120v1354h-501z" />
<glyph unicode="U" horiz-adv-x="1374" d="M167 469v987h120v-987q0 -186 110 -287.5t287 -101.5q180 0 293 101t113 288v987h119v-987q0 -238 -145.5 -364t-379.5 -126q-231 0 -374 126.5t-143 363.5z" />
<glyph unicode="V" horiz-adv-x="1263" d="M32 1456h130l438 -1210l29 -97h6l29 97l437 1210h130l-543 -1456h-113z" />
<glyph unicode="W" horiz-adv-x="1834" d="M57 1456h123l265 -1044l44 -223l6 -1l55 224l308 1044h113l308 -1044l53 -225l6 1l47 224l263 1044h122l-374 -1456h-113l-327 1117l-38 153h-6l-37 -153l-330 -1117h-114z" />
<glyph unicode="X" horiz-adv-x="1256" d="M59 0l500 738l-485 718h145l409 -622l411 622h145l-484 -718l500 -738h-143l-427 642l-426 -642h-145z" />
<glyph unicode="Y" horiz-adv-x="1244" d="M33 1456h139l448 -809l451 809h139l-531 -924v-532h-119v539z" />
<glyph unicode="Z" horiz-adv-x="1224" d="M95 0v92l858 1262h-831v102h977v-87l-861 -1268h893v-101h-1036z" />
<glyph unicode="[" horiz-adv-x="491" d="M163 -312v1976h330v-102h-210v-1772h210v-102h-330z" />
<glyph unicode="\" horiz-adv-x="807" d="M48 1456h117l608 -1581h-117z" />
<glyph unicode="]" horiz-adv-x="491" d="M0 -210h211v1772h-211v102h331v-1976h-331v102z" />
<glyph unicode="^" horiz-adv-x="852" d="M77 729l299 727h90l298 -727h-116l-196 484l-30 106h-6l-30 -106l-193 -484h-116z" />
<glyph unicode="_" horiz-adv-x="884" d="M1 0h881v-101h-881v101z" />
<glyph unicode="`" horiz-adv-x="585" d="M93 1471l2 5h154l202 -266h-117z" />
<glyph unicode="a" horiz-adv-x="1101" d="M103 288q0 150 129.5 240t349.5 90h239v134q0 116 -74.5 182t-208.5 66q-125 0 -207.5 -63t-82.5 -154l-110 1l-2 6v12q0 114 110 204q116 96 297 96q179 0 288 -91t109 -261v-532q0 -57 6.5 -111t21.5 -107h-125q-12 55 -17 95t-5 81q-60 -85 -160 -141t-225 -56 q-158 0 -245.5 84t-87.5 225zM222 284q0 -88 60.5 -143.5t167.5 -55.5q129 0 228 60.5t143 154.5v226h-241q-163 0 -260.5 -69.5t-97.5 -172.5z" />
<glyph unicode="b" d="M157 0v1560h120v-648q54 91 138 140.5t200 49.5q195 0 305 -155.5t110 -414.5v-21q0 -243 -110 -387.5t-303 -144.5q-119 0 -205 47.5t-139 136.5l-13 -163h-103zM277 288q40 -94 119.5 -149.5t197.5 -55.5q157 0 236 116t79 312v21q0 207 -80 336.5t-237 129.5 q-125 0 -201.5 -62t-113.5 -159v-489z" />
<glyph unicode="c" horiz-adv-x="1061" d="M97 520v42q0 236 121 388t340 152q178 0 296 -105q115 -102 115 -265v-11l-2 -6h-107q0 130 -87.5 207.5t-214.5 77.5q-174 0 -257.5 -124.5t-83.5 -313.5v-42q0 -192 83 -316t259 -124q119 0 210 68t91 189h106l2 -6v-11q0 -142 -120 -240q-125 -101 -289 -101 q-221 0 -341.5 151.5t-120.5 389.5z" />
<glyph unicode="d" d="M111 511v21q0 259 109.5 414.5t305.5 155.5q113 0 196 -48t138 -136v642h119v-1560h-106l-10 157q-54 -86 -139 -132t-200 -46q-194 0 -303.5 144.5t-109.5 387.5zM231 511q0 -196 78.5 -312t236.5 -116q116 0 193.5 52t120.5 144v508q-41 94 -116 152.5t-196 58.5 q-158 0 -237.5 -129.5t-79.5 -336.5v-21z" />
<glyph unicode="e" horiz-adv-x="1055" d="M92 509v55q0 232 133.5 385t323.5 153q199 0 313 -126t114 -336v-102h-764v-29q0 -183 97 -306t255 -123q112 0 191 31t135 89l51 -82q-61 -64 -154.5 -101.5t-222.5 -37.5q-203 0 -337.5 150t-134.5 380zM221 644l2 -5h634v30q0 141 -83 236t-225 95q-133 0 -223 -101.5 t-105 -254.5z" />
<glyph unicode="f" horiz-adv-x="673" d="M66 984v98h179v158q0 163 81.5 252t228.5 89q33 0 67 -5t69 -14l-15 -99q-24 6 -49.5 9.5t-59.5 3.5q-98 0 -150 -62t-52 -174v-158h258v-98h-258v-984h-120v984h-179z" />
<glyph unicode="g" horiz-adv-x="1141" d="M111 511v21q0 259 110.5 414.5t307.5 155.5q115 0 199 -50.5t139 -142.5l14 173h101v-1068q0 -209 -115.5 -330t-321.5 -121q-78 0 -166 19t-154 52l31 101q64 -32 135 -48.5t152 -16.5q158 0 238.5 91t80.5 253v136q-55 -82 -139 -126.5t-196 -44.5q-195 0 -305.5 145 t-110.5 387zM231 511q0 -195 80 -311.5t238 -116.5q116 0 193.5 53t119.5 146v502q-39 94 -114.5 154t-196.5 60q-158 0 -239 -130t-81 -336v-21z" />
<glyph unicode="h" d="M158 0v1560h120v-663q54 97 144 151t210 54q171 0 262.5 -106t91.5 -329v-667h-120v669q0 176 -69.5 252.5t-191.5 76.5q-123 0 -205.5 -64.5t-121.5 -171.5v-762h-120z" />
<glyph unicode="i" horiz-adv-x="465" d="M173 0v1082h119v-1082h-119zM173 1392v168h119v-168h-119z" />
<glyph unicode="j" horiz-adv-x="484" d="M-115 -418l13 101q16 -5 44 -10t49 -5q89 0 139 61.5t50 181.5v1171h119v-1171q0 -167 -80 -257.5t-222 -90.5q-30 0 -56.5 5t-55.5 14zM174 1396v164h119v-164h-119z" />
<glyph unicode="k" horiz-adv-x="1006" d="M159 0v1560h120v-930h126l402 452h140l2 -5l-433 -488l478 -584l-3 -5h-137l-437 527h-138v-527h-120z" />
<glyph unicode="l" horiz-adv-x="465" d="M173 0v1560h119v-1560h-119z" />
<glyph unicode="m" horiz-adv-x="1815" d="M152 0v1082h107l11 -179q52 95 138.5 147t206.5 52q124 0 207.5 -60t119.5 -183q49 114 139.5 178.5t220.5 64.5q173 0 267 -115t94 -356v-631h-120v633q0 200 -70.5 282.5t-196.5 82.5q-139 0 -215 -87t-94 -223q0 -7 0.5 -20t0.5 -19v-649h-121v633q0 196 -71.5 280.5 t-196.5 84.5q-127 0 -201.5 -64.5t-104.5 -173.5v-760h-121z" />
<glyph unicode="n" d="M158 0v1082h106l11 -189q52 100 140.5 154.5t209.5 54.5q176 0 268 -107.5t92 -335.5v-659h-120v658q0 186 -69.5 263t-197.5 77q-126 0 -205.5 -66.5t-114.5 -176.5v-755h-120z" />
<glyph unicode="o" d="M91 524v33q0 239 131 392t347 153q217 0 348 -153t131 -392v-33q0 -240 -130.5 -392.5t-346.5 -152.5q-218 0 -349 152.5t-131 392.5zM211 524q0 -188 95 -316t265 -128q167 0 262.5 128t95.5 316v33q0 185 -96 314t-264 129t-263 -129t-95 -314v-33z" />
<glyph unicode="p" d="M157 -416v1498h101l15 -168q54 90 139.5 139t201.5 49q195 0 305 -155.5t110 -414.5v-21q0 -243 -110 -387.5t-303 -144.5q-114 0 -199.5 43t-139.5 123v-561h-120zM277 271q41 -89 118.5 -140t193.5 -51q157 0 238.5 118t81.5 313v21q0 206 -82 336t-240 130 q-121 0 -196.5 -57.5t-113.5 -149.5v-520z" />
<glyph unicode="q" d="M111 511v21q0 259 109.5 414.5t305.5 155.5q111 0 194.5 -46.5t137.5 -132.5l12 159h104v-1498h-119v558q-55 -79 -138 -121t-193 -42q-194 0 -303.5 144.5t-109.5 387.5zM231 511q0 -196 78.5 -313.5t236.5 -117.5q112 0 188.5 50.5t120.5 137.5v530 q-41 89 -116.5 145.5t-190.5 56.5q-158 0 -237.5 -130.5t-79.5 -337.5v-21z" />
<glyph unicode="r" horiz-adv-x="697" d="M158 0v1082h105l15 -180v-12q47 100 126 156t188 56q23 0 44.5 -3.5t35.5 -7.5l-16 -112l-89 6q-113 0 -185.5 -63.5t-103.5 -174.5v-747h-120z" />
<glyph unicode="s" horiz-adv-x="1043" d="M110 297l2 6h110q7 -117 95.5 -170t208.5 -53q130 0 205 57t75 138q0 76 -62.5 133t-225.5 93q-194 42 -286.5 111t-92.5 195q0 124 104.5 209.5t276.5 85.5q183 0 290 -90q102 -86 102 -215v-12l-2 -6h-111q0 89 -75.5 155t-203.5 66q-131 0 -196.5 -56.5t-65.5 -132.5 q0 -75 56.5 -124t225.5 -86q193 -43 289 -117.5t96 -202.5q0 -135 -109.5 -218.5t-289.5 -83.5q-198 0 -310 94q-107 89 -106 211v13z" />
<glyph unicode="t" horiz-adv-x="680" d="M38 984v98h187v277h121v-277h238v-98h-238v-705q0 -106 38.5 -150.5t102.5 -44.5q29 0 56.5 2.5t63.5 8.5l18 -89q-30 -13 -73 -20t-86 -7q-114 0 -177.5 72t-63.5 228v705h-187z" />
<glyph unicode="u" d="M154 455v627h120v-629q0 -198 67.5 -284t191.5 -86q136 0 217 61t113 168v770h120v-1082h-106l-10 177q-52 -95 -140 -146.5t-208 -51.5q-171 0 -268 116t-97 360z" />
<glyph unicode="v" horiz-adv-x="1002" d="M44 1082h124l298 -811l35 -127h6l38 127l294 811h124l-411 -1082h-96z" />
<glyph unicode="w" horiz-adv-x="1550" d="M65 1082h124l202 -731l41 -193h6l51 193l230 731h103l230 -731l52 -198h6l45 198l197 731h124l-315 -1082h-102l-240 740l-47 187h-6l-48 -187l-236 -740h-103z" />
<glyph unicode="x" horiz-adv-x="1002" d="M50 0l383 551l-367 531h141l291 -442l293 442h142l-367 -531l382 -551h-140l-308 461l-308 -461h-142z" />
<glyph unicode="y" horiz-adv-x="1002" d="M35 1082h133l297 -789l38 -129h6l327 918h134l-470 -1255q-42 -110 -109 -187t-196 -77q-21 0 -51 4.5t-44 9.5l14 100q12 -2 38.5 -4.5t38.5 -2.5q78 0 125 55.5t80 142.5l57 146z" />
<glyph unicode="z" horiz-adv-x="1002" d="M90 0v88l652 891h-632v103h783v-89l-655 -892h703v-101h-851z" />
<glyph unicode="{" horiz-adv-x="676" d="M68 543v104q118 0 174.5 67t56.5 190v228q0 171 77.5 290.5t260.5 174.5l26 -79q-127 -41 -185.5 -142t-58.5 -244v-228q0 -110 -45.5 -191t-138.5 -118q93 -39 138.5 -120.5t45.5 -190.5v-226q0 -143 59.5 -241.5t187.5 -140.5l-29 -80q-183 55 -260.5 173.5 t-77.5 288.5v226q0 122 -56.5 190.5t-174.5 68.5z" />
<glyph unicode="|" horiz-adv-x="452" d="M178 -270v1726h101v-1726h-101z" />
<glyph unicode="}" horiz-adv-x="676" d="M9 -324q127 42 187 140.5t60 241.5v226q0 112 47 193t146 117q-99 35 -146 116t-47 194v228q0 144 -58.5 244.5t-185.5 141.5l26 79q182 -55 260 -174.5t78 -290.5v-228q0 -122 56 -189.5t175 -67.5v-104q-119 0 -175 -68.5t-56 -190.5v-226q0 -170 -77.5 -288.5 t-260.5 -173.5z" />
<glyph unicode="~" horiz-adv-x="1402" d="M143 474q0 131 79 222t202 91q87 0 160.5 -37t162.5 -113q63 -57 116.5 -82.5t110.5 -25.5q77 0 131 64t54 162l98 -15q0 -129 -81 -223t-202 -94q-88 0 -160.5 35.5t-160.5 114.5q-64 54 -118.5 80.5t-110.5 26.5q-79 0 -131.5 -60.5t-52.5 -160.5z" />
<glyph unicode="&#xa1;" horiz-adv-x="452" d="M145 898v184h142v-184h-142zM156 -374v978h120v-978h-120z" />
<glyph unicode="&#xa2;" horiz-adv-x="1115" d="M122 520v42q0 217 103 364.5t292 171.5v220h120v-219q158 -17 259.5 -119t98.5 -259l-3 -6h-107q0 130 -87.5 207.5t-214.5 77.5q-174 0 -257.5 -124.5t-83.5 -313.5v-42q0 -192 83 -316t259 -124q119 0 210 68t91 189h107l2 -6q4 -137 -102 -234t-255 -115v-227h-120 v228q-190 23 -292.5 170.5t-102.5 366.5z" />
<glyph unicode="&#xa3;" horiz-adv-x="1170" d="M67 642v102h203l-11 296q0 204 106 320.5t284 116.5q187 0 281 -103.5t91 -277.5l-3 -6h-112q0 148 -68.5 216.5t-188.5 68.5q-125 0 -197.5 -88t-72.5 -247l11 -296h450v-102h-447l7 -176q0 -107 -25.5 -204t-71.5 -161h769v-101h-941v101h10q70 15 105 130t35 235 l-7 176h-207z" />
<glyph unicode="&#xa4;" horiz-adv-x="1481" d="M109 60l159 161q-60 81 -92 179t-32 208q0 112 34.5 214t98.5 184l-168 171l85 87l167 -170q78 67 175 103.5t204 36.5q106 0 203 -37.5t176 -104.5l170 173l86 -88l-171 -175q62 -82 96 -182.5t34 -211.5q0 -108 -32 -206t-90 -178l163 -164l-86 -87l-158 160 q-80 -74 -180.5 -113.5t-210.5 -39.5q-111 0 -211.5 39.5t-179.5 112.5l-155 -158zM257 608q0 -215 141.5 -366t341.5 -151q198 0 339.5 151t141.5 366q0 213 -141.5 363.5t-339.5 150.5q-200 0 -341.5 -150.5t-141.5 -363.5z" />
<glyph unicode="&#xa5;" horiz-adv-x="1223" d="M45 1456h139l423 -723l424 723h139l-455 -751h371v-102h-421v-175h421v-102h-421v-326h-119v326h-416v102h416v175h-416v102h370z" />
<glyph unicode="&#xa6;" horiz-adv-x="444" d="M159 -270v771h120v-771h-120zM159 698v758h120v-758h-120z" />
<glyph unicode="&#xa7;" horiz-adv-x="1239" d="M108 -70l2 6l112 2q0 -173 113 -252t271 -79q163 0 255.5 70.5t92.5 181.5q0 106 -77 166t-292 121q-243 61 -360 149.5t-117 255.5q0 98 58.5 169t164.5 105q-90 49 -134 119.5t-44 175.5q0 161 128 259t343 98q222 0 346.5 -111.5t120.5 -313.5l-2 -6h-112 q0 141 -94 235t-259 94q-173 0 -262 -71t-89 -181q0 -114 74 -173t299 -122q247 -65 360 -148.5t113 -248.5q0 -98 -61 -168.5t-171 -103.5q94 -50 141 -120.5t47 -177.5q0 -166 -127.5 -261t-341.5 -95q-213 0 -358 102.5t-140 322.5zM228 553q0 -116 79 -175t323 -127 q34 -10 65 -19t60 -18q115 13 179.5 71.5t64.5 142.5q0 108 -85 170.5t-318 130.5q-40 9 -75.5 19.5t-66.5 22.5q-112 -14 -169 -73t-57 -145z" />
<glyph unicode="&#xa8;" horiz-adv-x="959" d="M162 1299v157h174v-157h-174zM632 1299v157h173v-157h-173z" />
<glyph unicode="&#xa9;" horiz-adv-x="1637" d="M107 729q0 315 207 531t503 216q295 0 502 -216t207 -531q0 -316 -207.5 -533t-501.5 -217q-296 0 -503 217t-207 533zM192 729q0 -279 182.5 -471.5t442.5 -192.5q257 0 440.5 192.5t183.5 471.5q0 277 -183 468.5t-441 191.5q-260 0 -442.5 -191.5t-182.5 -468.5z M474 669v119q0 172 91 279.5t242 107.5q147 0 230 -79t79 -228l-2 -6h-91q0 113 -55 168t-161 55q-110 0 -172 -83.5t-62 -212.5v-120q0 -132 61.5 -214.5t172.5 -82.5q107 0 161 54t54 170h91l2 -6q4 -150 -78.5 -229t-229.5 -79q-151 0 -242 106.5t-91 280.5z" />
<glyph unicode="&#xaa;" horiz-adv-x="906" d="M135 920q0 105 79 163t229 58h182v61q0 85 -41 131.5t-120 46.5q-92 0 -142.5 -37.5t-50.5 -108.5l-99 9l-2 6q-5 98 77 163t217 65q123 0 196.5 -71.5t73.5 -204.5v-314q0 -48 6 -92.5t20 -88.5h-111q-9 25 -14.5 52.5t-7.5 55.5q-37 -53 -98.5 -87.5t-144.5 -34.5 q-119 0 -184 61t-65 167zM243 924q0 -66 39.5 -101.5t121.5 -35.5q70 0 135.5 38t85.5 85v147h-181q-96 0 -148.5 -38.5t-52.5 -94.5z" />
<glyph unicode="&#xab;" horiz-adv-x="933" d="M123 541v19l295 379h105l-276 -389l276 -388h-105zM432 541v19l295 379h105l-276 -389l276 -388h-105z" />
<glyph unicode="&#xac;" horiz-adv-x="1117" d="M124 670v106h812v-390h-120v284h-692z" />
<glyph unicode="&#xad;" horiz-adv-x="586" d="M49 570v101h479v-101h-479z" />
<glyph unicode="&#xae;" horiz-adv-x="1642" d="M102 729q0 315 207 531t503 216q295 0 502.5 -216t207.5 -531q0 -316 -207.5 -533t-502.5 -217q-296 0 -503 217t-207 533zM187 729q0 -279 183 -471.5t442 -192.5q258 0 441 192.5t183 471.5q0 277 -183 468.5t-441 191.5q-259 0 -442 -191.5t-183 -468.5zM552 316v850 h258q147 0 226 -63t79 -185q0 -68 -36.5 -117.5t-104.5 -79.5q68 -25 98 -78t30 -128v-56q0 -40 4 -73t13 -54v-16h-102q-10 21 -12 61.5t-2 82.5v54q0 84 -38 121t-127 37h-188v-356h-98zM650 763h181q79 0 132.5 40.5t53.5 112.5q0 85 -46 122t-161 37h-160v-312z" />
<glyph unicode="&#xaf;" horiz-adv-x="874" d="M106 1359v97h670v-97h-670z" />
<glyph unicode="&#xb0;" horiz-adv-x="774" d="M143 1227q0 102 72 176t173 74q99 0 170.5 -74t71.5 -176q0 -104 -71 -175.5t-171 -71.5q-101 0 -173 72t-72 175zM233 1227q0 -68 44.5 -112t110.5 -44q65 0 108.5 44t43.5 112t-43.5 113.5t-108.5 45.5q-66 0 -110.5 -46t-44.5 -113z" />
<glyph unicode="&#xb1;" horiz-adv-x="1086" d="M85 728v101h414v438h110v-438h392v-101h-392v-439h-110v439h-414zM193 48v102h835v-102h-835z" />
<glyph unicode="&#xb2;" horiz-adv-x="835" d="M118 667v90l315 282q77 71 104 115.5t27 91.5q0 64 -39 103t-118 39q-87 0 -134 -42t-47 -108h-100l-2 6q-6 97 72.5 166t210.5 69q124 0 195 -60.5t71 -173.5q0 -75 -47 -136t-150 -158l-214 -188l2 -6h423v-90h-569z" />
<glyph unicode="&#xb3;" horiz-adv-x="852" d="M120 882l2 6h101q0 -63 51 -103t135 -40q90 0 140.5 38t50.5 103q0 75 -46.5 109.5t-139.5 34.5h-122v89h122q88 0 130.5 35t42.5 99q0 59 -45 96.5t-133 37.5q-75 0 -124.5 -35.5t-49.5 -93.5h-99l-2 6q-6 94 74.5 154t200.5 60q132 0 209 -58.5t77 -166.5 q0 -58 -35.5 -105t-98.5 -72q72 -22 110 -70.5t38 -119.5q0 -109 -83.5 -170t-216.5 -61q-121 0 -207.5 58.5t-81.5 168.5z" />
<glyph unicode="&#xb4;" horiz-adv-x="576" d="M116 1212l207 266h147l3 -6l-249 -260h-108z" />
<glyph unicode="&#xb5;" d="M162 -416v1498h119v-633q0 -207 71 -288t192 -81q137 0 212 59.5t103 170.5v772h120v-1082h-103l-11 155q-48 -85 -126 -130.5t-187 -45.5q-88 0 -157 30t-114 96v-521h-119z" />
<glyph unicode="&#xb6;" horiz-adv-x="973" d="M82 988q0 207 129.5 337.5t362.5 130.5h226v-1456h-120v520h-106q-233 0 -362.5 129.5t-129.5 338.5z" />
<glyph unicode="&#xb7;" horiz-adv-x="503" d="M166 624v180h155v-180h-155z" />
<glyph unicode="&#xb8;" horiz-adv-x="498" d="M98 -357q90 0 151.5 30.5t61.5 89.5q0 57 -41.5 79.5t-145.5 30.5l29 127h93l-12 -64q79 -9 127.5 -48.5t48.5 -122.5q0 -91 -79 -145.5t-226 -54.5z" />
<glyph unicode="&#xb9;" horiz-adv-x="511" d="M87 1361v93l257 23v-812h-109v703z" />
<glyph unicode="&#xba;" horiz-adv-x="922" d="M135 1026v116q0 148 87.5 241.5t235.5 93.5t236 -93.5t88 -241.5v-116q0 -149 -87.5 -241.5t-234.5 -92.5q-149 0 -237 92.5t-88 241.5zM243 1026q0 -107 54.5 -173t162.5 -66q103 0 158.5 66.5t55.5 172.5v116q0 104 -56 171t-160 67t-159.5 -67t-55.5 -171v-116z" />
<glyph unicode="&#xbb;" horiz-adv-x="928" d="M130 162l276 388l-276 389h105l295 -379v-19l-295 -379h-105zM445 162l276 388l-276 389h105l295 -379v-19l-295 -379h-105z" />
<glyph unicode="&#xbc;" horiz-adv-x="1561" d="M160 1360v93l257 23v-812h-109v703zM326 177l711 1138l74 -48l-711 -1138zM771 237l429 564h113v-541h153v-90h-153v-170h-108v170h-430zM900 260h305v402l-6 1l-25 -43z" />
<glyph unicode="&#xbd;" horiz-adv-x="1567" d="M160 1360v93l257 23v-812h-109v703zM338 177l711 1138l74 -48l-711 -1138zM912 0v90l315 282q77 71 104 115.5t27 91.5q0 64 -39 103t-118 39q-87 0 -134 -42t-47 -108h-100l-2 6q-6 97 72.5 166t210.5 69q124 0 195 -60.5t71 -173.5q0 -75 -47 -136t-150 -158l-214 -188 l2 -6h423v-90h-569z" />
<glyph unicode="&#xbe;" horiz-adv-x="1712" d="M145 883l2 6h101q0 -63 51 -103t135 -40q90 0 140.5 38t50.5 103q0 75 -46.5 109.5t-139.5 34.5h-122v89h122q88 0 130.5 35t42.5 99q0 59 -45 96.5t-133 37.5q-75 0 -124.5 -35.5t-49.5 -93.5h-99l-2 6q-6 94 74.5 154t200.5 60q132 0 209 -58.5t77 -166.5 q0 -58 -35.5 -105t-98.5 -72q72 -22 110 -70.5t38 -119.5q0 -109 -83.5 -170t-216.5 -61q-121 0 -207.5 58.5t-81.5 168.5zM533 177l711 1138l74 -48l-711 -1138zM980 237l429 564h113v-541h153v-90h-153v-170h-108v170h-430zM1109 260h305v402l-6 1l-25 -43z" />
<glyph unicode="&#xbf;" horiz-adv-x="958" d="M108 -20q0 133 66 237.5t189 219.5q61 52 75 98.5t14 142.5h120q-2 -131 -23.5 -183t-113.5 -136q-109 -113 -158 -188.5t-49 -189.5q0 -128 67.5 -198t194.5 -70q117 0 189 68.5t74 185.5h112l2 -6q2 -165 -105 -260t-272 -95q-180 0 -281 101t-101 273zM436 928v155 h139v-155h-139z" />
<glyph unicode="&#xc0;" horiz-adv-x="1279" d="M32 0l553 1456h113l549 -1456h-124l-150 406h-667l-150 -406h-124zM346 513h588l-290 788h-6zM370 1822l2 5h154l202 -266h-117z" />
<glyph unicode="&#xc1;" horiz-adv-x="1279" d="M32 0l553 1456h113l549 -1456h-124l-150 406h-667l-150 -406h-124zM346 513h588l-290 788h-6zM583 1557l207 266h147l3 -6l-249 -260h-108z" />
<glyph unicode="&#xc2;" horiz-adv-x="1279" d="M32 0l553 1456h113l549 -1456h-124l-150 406h-667l-150 -406h-124zM346 513h588l-290 788h-6zM382 1601v21l227 221h98l230 -224v-18h-112l-167 168l-166 -168h-110z" />
<glyph unicode="&#xc3;" horiz-adv-x="1279" d="M32 0l553 1456h113l549 -1456h-124l-150 406h-667l-150 -406h-124zM313 1622q0 86 54 144.5t137 58.5q65 0 147 -55t135 -55q46 0 79 36t33 91l80 -20q0 -88 -55 -146t-137 -58q-74 0 -151 55t-131 55q-47 0 -79 -35t-32 -89zM346 513h588l-290 788h-6z" />
<glyph unicode="&#xc4;" horiz-adv-x="1279" d="M32 0l553 1456h113l549 -1456h-124l-150 406h-667l-150 -406h-124zM341 1641v157h174v-157h-174zM346 513h588l-290 788h-6zM811 1641v157h173v-157h-173z" />
<glyph unicode="&#xc5;" horiz-adv-x="1279" d="M32 0l553 1456h113l549 -1456h-124l-150 406h-667l-150 -406h-124zM346 513h588l-290 788h-6zM487 1730q0 69 49.5 117.5t119.5 48.5q68 0 117 -48.5t49 -117.5q0 -71 -48.5 -117t-117.5 -46q-71 0 -120 46t-49 117zM565 1730q0 -39 26.5 -65t64.5 -26q37 0 62.5 25.5 t25.5 65.5t-25.5 66.5t-62.5 26.5q-38 0 -64.5 -27t-26.5 -66z" />
<glyph unicode="&#xc6;" horiz-adv-x="1865" d="M17 0l881 1456h864v-102h-694l23 -545h589v-102h-585l26 -606h702v-101h-817l-17 389h-597l-229 -389h-146zM459 502h526l-35 839l-6 1l-15 -44z" />
<glyph unicode="&#xc7;" horiz-adv-x="1313" d="M132 609v237q0 278 149 454.5t392 176.5q232 0 368 -123t155 -346l-2 -6h-112q-24 181 -124.5 277t-284.5 96q-191 0 -306.5 -148t-115.5 -379v-239q0 -234 115.5 -381.5t306.5 -147.5q184 0 285 94t124 281h112l2 -6q-19 -219 -156 -344.5t-367 -125.5 q-243 0 -392 175.5t-149 454.5zM580 -365q90 0 151.5 30.5t61.5 89.5q0 57 -41.5 79.5t-145.5 30.5l29 127h93l-12 -64q79 -9 127.5 -48.5t48.5 -122.5q0 -91 -79 -145.5t-226 -54.5z" />
<glyph unicode="&#xc8;" horiz-adv-x="1180" d="M191 0v1456h917v-102h-798v-547h701v-102h-701v-604h803v-101h-922zM335 1822l2 5h154l202 -266h-117z" />
<glyph unicode="&#xc9;" horiz-adv-x="1180" d="M191 0v1456h917v-102h-798v-547h701v-102h-701v-604h803v-101h-922zM548 1557l207 266h147l3 -6l-249 -260h-108z" />
<glyph unicode="&#xca;" horiz-adv-x="1180" d="M191 0v1456h917v-102h-798v-547h701v-102h-701v-604h803v-101h-922zM347 1601v21l227 221h98l230 -224v-18h-112l-167 168l-166 -168h-110z" />
<glyph unicode="&#xcb;" horiz-adv-x="1180" d="M191 0v1456h917v-102h-798v-547h701v-102h-701v-604h803v-101h-922zM306 1641v157h174v-157h-174zM776 1641v157h173v-157h-173z" />
<glyph unicode="&#xcc;" horiz-adv-x="554" d="M-9 1822l2 5h154l202 -266h-117zM217 0v1456h120v-1456h-120z" />
<glyph unicode="&#xcd;" horiz-adv-x="554" d="M202 1557l207 266h147l3 -6l-249 -260h-108zM217 0v1456h120v-1456h-120z" />
<glyph unicode="&#xce;" horiz-adv-x="554" d="M3 1601v21l227 221h98l230 -224v-18h-112l-167 168l-166 -168h-110zM217 0v1456h120v-1456h-120z" />
<glyph unicode="&#xcf;" horiz-adv-x="554" d="M-38 1641v157h174v-157h-174zM217 0v1456h120v-1456h-120zM432 1641v157h173v-157h-173z" />
<glyph unicode="&#xd0;" horiz-adv-x="1374" d="M68 689v102h153v665h423q267 0 441 -178t174 -457v-187q0 -280 -174 -457t-441 -177h-423v689h-153zM340 101h304q216 0 355.5 151t139.5 382v190q0 228 -140 379t-355 151h-304v-563h340v-102h-340v-588z" />
<glyph unicode="&#xd1;" horiz-adv-x="1454" d="M191 0v1456h120l827 -1250l6 1v1249h119v-1456h-119l-827 1252l-6 -1v-1251h-120zM382 1622q0 86 54 144.5t137 58.5q65 0 147 -55t135 -55q46 0 79 36t33 91l80 -20q0 -88 -55 -146t-137 -58q-74 0 -151 55t-131 55q-47 0 -79 -35t-32 -89z" />
<glyph unicode="&#xd2;" horiz-adv-x="1378" d="M124 609v237q0 281 152 456t408 175q260 0 415 -175t155 -456v-237q0 -282 -154.5 -456t-414.5 -174q-256 0 -408.5 174t-152.5 456zM244 609q0 -238 116.5 -382t324.5 -144q213 0 331.5 143.5t118.5 382.5v239q0 236 -119.5 380t-331.5 144q-208 0 -324 -144t-116 -380 v-239zM398 1843l2 5h154l202 -266h-117z" />
<glyph unicode="&#xd3;" horiz-adv-x="1378" d="M124 609v237q0 281 152 456t408 175q260 0 415 -175t155 -456v-237q0 -282 -154.5 -456t-414.5 -174q-256 0 -408.5 174t-152.5 456zM244 609q0 -238 116.5 -382t324.5 -144q213 0 331.5 143.5t118.5 382.5v239q0 236 -119.5 380t-331.5 144q-208 0 -324 -144t-116 -380 v-239zM611 1578l207 266h147l3 -6l-249 -260h-108z" />
<glyph unicode="&#xd4;" horiz-adv-x="1378" d="M124 609v237q0 281 152 456t408 175q260 0 415 -175t155 -456v-237q0 -282 -154.5 -456t-414.5 -174q-256 0 -408.5 174t-152.5 456zM244 609q0 -238 116.5 -382t324.5 -144q213 0 331.5 143.5t118.5 382.5v239q0 236 -119.5 380t-331.5 144q-208 0 -324 -144t-116 -380 v-239zM410 1622v21l227 221h98l230 -224v-18h-112l-167 168l-166 -168h-110z" />
<glyph unicode="&#xd5;" horiz-adv-x="1378" d="M124 609v237q0 281 152 456t408 175q260 0 415 -175t155 -456v-237q0 -282 -154.5 -456t-414.5 -174q-256 0 -408.5 174t-152.5 456zM244 609q0 -238 116.5 -382t324.5 -144q213 0 331.5 143.5t118.5 382.5v239q0 236 -119.5 380t-331.5 144q-208 0 -324 -144t-116 -380 v-239zM341 1643q0 86 54 144.5t137 58.5q65 0 147 -55t135 -55q46 0 79 36t33 91l80 -20q0 -88 -55 -146t-137 -58q-74 0 -151 55t-131 55q-47 0 -79 -35t-32 -89z" />
<glyph unicode="&#xd6;" horiz-adv-x="1378" d="M124 609v237q0 281 152 456t408 175q260 0 415 -175t155 -456v-237q0 -282 -154.5 -456t-414.5 -174q-256 0 -408.5 174t-152.5 456zM244 609q0 -238 116.5 -382t324.5 -144q213 0 331.5 143.5t118.5 382.5v239q0 236 -119.5 380t-331.5 144q-208 0 -324 -144t-116 -380 v-239zM369 1662v157h174v-157h-174zM839 1662v157h173v-157h-173z" />
<glyph unicode="&#xd7;" horiz-adv-x="1072" d="M93 318l358 365l-343 350l79 80l342 -350l343 350l79 -80l-343 -350l358 -365l-79 -79l-358 364l-357 -364z" />
<glyph unicode="&#xd8;" horiz-adv-x="1379" d="M124 609v237q0 281 152 456t408 175q109 0 201.5 -33t165.5 -95l96 156h104l-136 -222q67 -84 103 -195.5t36 -241.5v-237q0 -282 -154.5 -456t-414.5 -174q-92 0 -171.5 23.5t-144.5 68.5l-96 -155h-104l131 212q-86 84 -131 207.5t-45 273.5zM244 609 q0 -118 29.5 -214.5t85.5 -160.5l6 -1l627 1021q-58 57 -135.5 87.5t-172.5 30.5q-208 0 -324 -144t-116 -380v-239zM426 164q51 -40 116.5 -60.5t142.5 -20.5q213 0 331.5 143.5t118.5 382.5v239q0 97 -21.5 180.5t-60.5 144.5h-6z" />
<glyph unicode="&#xd9;" horiz-adv-x="1374" d="M167 469v987h120v-987q0 -186 110 -287.5t287 -101.5q180 0 293 101t113 288v987h119v-987q0 -238 -145.5 -364t-379.5 -126q-231 0 -374 126.5t-143 363.5zM409 1822l2 5h154l202 -266h-117z" />
<glyph unicode="&#xda;" horiz-adv-x="1374" d="M167 469v987h120v-987q0 -186 110 -287.5t287 -101.5q180 0 293 101t113 288v987h119v-987q0 -238 -145.5 -364t-379.5 -126q-231 0 -374 126.5t-143 363.5zM622 1557l207 266h147l3 -6l-249 -260h-108z" />
<glyph unicode="&#xdb;" horiz-adv-x="1374" d="M167 469v987h120v-987q0 -186 110 -287.5t287 -101.5q180 0 293 101t113 288v987h119v-987q0 -238 -145.5 -364t-379.5 -126q-231 0 -374 126.5t-143 363.5zM421 1601v21l227 221h98l230 -224v-18h-112l-167 168l-166 -168h-110z" />
<glyph unicode="&#xdc;" horiz-adv-x="1374" d="M167 469v987h120v-987q0 -186 110 -287.5t287 -101.5q180 0 293 101t113 288v987h119v-987q0 -238 -145.5 -364t-379.5 -126q-231 0 -374 126.5t-143 363.5zM380 1641v157h174v-157h-174zM850 1641v157h173v-157h-173z" />
<glyph unicode="&#xdd;" horiz-adv-x="1244" d="M33 1456h139l448 -809l451 809h139l-531 -924v-532h-119v539zM545 1550l207 266h147l3 -6l-249 -260h-108z" />
<glyph unicode="&#xde;" horiz-adv-x="1214" d="M183 0v1456h120v-304h324q221 0 345 -115.5t124 -298.5q0 -185 -124 -299.5t-345 -114.5h-324v-324h-120zM303 425h324q173 0 261 92t88 219q0 130 -88 222.5t-261 92.5h-324v-626z" />
<glyph unicode="&#xdf;" horiz-adv-x="1200" d="M151 0v1082q0 204 102.5 317t273.5 113q140 0 232 -79.5t92 -222.5q0 -109 -61.5 -215.5t-61.5 -184.5q0 -86 184 -228t184 -287q0 -153 -110 -234.5t-266 -81.5q-86 0 -176.5 23.5t-129.5 56.5l34 101q41 -31 114.5 -55.5t143.5 -24.5q125 0 197.5 60t72.5 155 q0 99 -184 240.5t-184 276.5q0 93 63 201.5t63 190.5q0 92 -60 149.5t-137 57.5q-121 0 -193.5 -85.5t-72.5 -243.5v-1082h-120z" />
<glyph unicode="&#xe0;" horiz-adv-x="1101" d="M103 288q0 150 129.5 240t349.5 90h239v134q0 116 -74.5 182t-208.5 66q-125 0 -207.5 -63t-82.5 -154l-110 1l-2 6q-6 121 110.5 216.5t296.5 95.5q179 0 288 -91t109 -261v-532q0 -57 6.5 -111t21.5 -107h-125q-12 55 -17 95t-5 81q-60 -85 -160 -141t-225 -56 q-158 0 -245.5 84t-87.5 225zM222 284q0 -88 60.5 -143.5t167.5 -55.5q129 0 228 60.5t143 154.5v226h-241q-163 0 -260.5 -69.5t-97.5 -172.5zM255 1501l2 5h154l202 -266h-117z" />
<glyph unicode="&#xe1;" horiz-adv-x="1101" d="M103 288q0 150 129.5 240t349.5 90h239v134q0 116 -74.5 182t-208.5 66q-125 0 -207.5 -63t-82.5 -154l-110 1l-2 6q-6 121 110.5 216.5t296.5 95.5q179 0 288 -91t109 -261v-532q0 -57 6.5 -111t21.5 -107h-125q-12 55 -17 95t-5 81q-60 -85 -160 -141t-225 -56 q-158 0 -245.5 84t-87.5 225zM222 284q0 -88 60.5 -143.5t167.5 -55.5q129 0 228 60.5t143 154.5v226h-241q-163 0 -260.5 -69.5t-97.5 -172.5zM468 1236l207 266h147l3 -6l-249 -260h-108z" />
<glyph unicode="&#xe2;" horiz-adv-x="1101" d="M103 288q0 150 129.5 240t349.5 90h239v134q0 116 -74.5 182t-208.5 66q-125 0 -207.5 -63t-82.5 -154l-110 1l-2 6q-6 121 110.5 216.5t296.5 95.5q179 0 288 -91t109 -261v-532q0 -57 6.5 -111t21.5 -107h-125q-12 55 -17 95t-5 81q-60 -85 -160 -141t-225 -56 q-158 0 -245.5 84t-87.5 225zM222 284q0 -88 60.5 -143.5t167.5 -55.5q129 0 228 60.5t143 154.5v226h-241q-163 0 -260.5 -69.5t-97.5 -172.5zM267 1280v21l227 221h98l230 -224v-18h-112l-167 168l-166 -168h-110z" />
<glyph unicode="&#xe3;" horiz-adv-x="1101" d="M103 288q0 150 129.5 240t349.5 90h239v134q0 116 -74.5 182t-208.5 66q-125 0 -207.5 -63t-82.5 -154l-110 1l-2 6q-6 121 110.5 216.5t296.5 95.5q179 0 288 -91t109 -261v-532q0 -57 6.5 -111t21.5 -107h-125q-12 55 -17 95t-5 81q-60 -85 -160 -141t-225 -56 q-158 0 -245.5 84t-87.5 225zM198 1301q0 86 54 144.5t137 58.5q65 0 147 -55t135 -55q46 0 79 36t33 91l80 -20q0 -88 -55 -146t-137 -58q-74 0 -151 55t-131 55q-47 0 -79 -35t-32 -89zM222 284q0 -88 60.5 -143.5t167.5 -55.5q129 0 228 60.5t143 154.5v226h-241 q-163 0 -260.5 -69.5t-97.5 -172.5z" />
<glyph unicode="&#xe4;" horiz-adv-x="1101" d="M103 288q0 150 129.5 240t349.5 90h239v134q0 116 -74.5 182t-208.5 66q-125 0 -207.5 -63t-82.5 -154l-110 1l-2 6q-6 121 110.5 216.5t296.5 95.5q179 0 288 -91t109 -261v-532q0 -57 6.5 -111t21.5 -107h-125q-12 55 -17 95t-5 81q-60 -85 -160 -141t-225 -56 q-158 0 -245.5 84t-87.5 225zM222 284q0 -88 60.5 -143.5t167.5 -55.5q129 0 228 60.5t143 154.5v226h-241q-163 0 -260.5 -69.5t-97.5 -172.5zM226 1320v157h174v-157h-174zM696 1320v157h173v-157h-173z" />
<glyph unicode="&#xe5;" horiz-adv-x="1101" d="M103 288q0 150 129.5 240t349.5 90h239v134q0 116 -74.5 182t-208.5 66q-125 0 -207.5 -63t-82.5 -154l-110 1l-2 6q-6 121 110.5 216.5t296.5 95.5q179 0 288 -91t109 -261v-532q0 -57 6.5 -111t21.5 -107h-125q-12 55 -17 95t-5 81q-60 -85 -160 -141t-225 -56 q-158 0 -245.5 84t-87.5 225zM222 284q0 -88 60.5 -143.5t167.5 -55.5q129 0 228 60.5t143 154.5v226h-241q-163 0 -260.5 -69.5t-97.5 -172.5zM372 1409q0 69 49.5 117.5t119.5 48.5q68 0 117 -48.5t49 -117.5q0 -71 -48.5 -117t-117.5 -46q-71 0 -120 46t-49 117z M450 1409q0 -39 26.5 -65t64.5 -26q37 0 62.5 25.5t25.5 65.5t-25.5 66.5t-62.5 26.5q-38 0 -64.5 -27t-26.5 -66z" />
<glyph unicode="&#xe6;" horiz-adv-x="1732" d="M77 293q0 158 113 248.5t326 90.5h262v88q0 134 -63 207t-187 73q-135 0 -213.5 -67t-78.5 -168l-110 12l-2 6q-5 138 106.5 228.5t297.5 90.5q124 0 212.5 -54t128.5 -157q61 99 156.5 155t209.5 56q200 0 311.5 -124t111.5 -340v-100h-754v-29q0 -191 89.5 -310 t271.5 -119q103 0 181.5 32.5t142.5 86.5l47 -87q-60 -55 -148.5 -94t-222.5 -39q-138 0 -241 55.5t-163 157.5q-49 -87 -159.5 -150t-269.5 -63q-170 0 -262.5 84.5t-92.5 229.5zM197 289q0 -97 65 -153.5t187 -56.5q102 0 197.5 53.5t131.5 115.5v288h-260 q-155 0 -238 -71t-83 -176zM912 641l2 -5h625v31q0 146 -77.5 239.5t-226.5 93.5q-138 0 -224 -101.5t-99 -257.5z" />
<glyph unicode="&#xe7;" horiz-adv-x="1061" d="M97 520v42q0 236 121 388t340 152q178 0 296.5 -105t114.5 -276l-2 -6h-107q0 130 -87.5 207.5t-214.5 77.5q-174 0 -257.5 -124.5t-83.5 -313.5v-42q0 -192 83 -316t259 -124q119 0 210 68t91 189h106l2 -6q5 -150 -120 -251t-289 -101q-221 0 -341.5 151.5 t-120.5 389.5zM444 -365q90 0 151.5 30.5t61.5 89.5q0 57 -41.5 79.5t-145.5 30.5l29 127h93l-12 -64q79 -9 127.5 -48.5t48.5 -122.5q0 -91 -79 -145.5t-226 -54.5z" />
<glyph unicode="&#xe8;" horiz-adv-x="1055" d="M92 509v55q0 232 133.5 385t323.5 153q199 0 313 -126t114 -336v-102h-764v-29q0 -183 97 -306t255 -123q112 0 191 31t135 89l51 -82q-61 -64 -154.5 -101.5t-222.5 -37.5q-203 0 -337.5 150t-134.5 380zM221 644l2 -5h634v30q0 141 -83 236t-225 95q-133 0 -223 -101.5 t-105 -254.5zM274 1501l2 5h154l202 -266h-117z" />
<glyph unicode="&#xe9;" horiz-adv-x="1055" d="M92 509v55q0 232 133.5 385t323.5 153q199 0 313 -126t114 -336v-102h-764v-29q0 -183 97 -306t255 -123q112 0 191 31t135 89l51 -82q-61 -64 -154.5 -101.5t-222.5 -37.5q-203 0 -337.5 150t-134.5 380zM221 644l2 -5h634v30q0 141 -83 236t-225 95q-133 0 -223 -101.5 t-105 -254.5zM487 1236l207 266h147l3 -6l-249 -260h-108z" />
<glyph unicode="&#xea;" horiz-adv-x="1055" d="M92 509v55q0 232 133.5 385t323.5 153q199 0 313 -126t114 -336v-102h-764v-29q0 -183 97 -306t255 -123q112 0 191 31t135 89l51 -82q-61 -64 -154.5 -101.5t-222.5 -37.5q-203 0 -337.5 150t-134.5 380zM221 644l2 -5h634v30q0 141 -83 236t-225 95q-133 0 -223 -101.5 t-105 -254.5zM286 1280v21l227 221h98l230 -224v-18h-112l-167 168l-166 -168h-110z" />
<glyph unicode="&#xeb;" horiz-adv-x="1055" d="M92 509v55q0 232 133.5 385t323.5 153q199 0 313 -126t114 -336v-102h-764v-29q0 -183 97 -306t255 -123q112 0 191 31t135 89l51 -82q-61 -64 -154.5 -101.5t-222.5 -37.5q-203 0 -337.5 150t-134.5 380zM221 644l2 -5h634v30q0 141 -83 236t-225 95q-133 0 -223 -101.5 t-105 -254.5zM245 1320v157h174v-157h-174zM715 1320v157h173v-157h-173z" />
<glyph unicode="&#xec;" horiz-adv-x="456" d="M-58 1479l2 5h154l202 -266h-117zM168 0v1082h120v-1082h-120z" />
<glyph unicode="&#xed;" horiz-adv-x="456" d="M153 1214l207 266h147l3 -6l-249 -260h-108zM168 0v1082h120v-1082h-120z" />
<glyph unicode="&#xee;" horiz-adv-x="456" d="M-46 1258v21l227 221h98l230 -224v-18h-112l-167 168l-166 -168h-110zM168 0v1082h120v-1082h-120z" />
<glyph unicode="&#xef;" horiz-adv-x="456" d="M-87 1299v157h174v-157h-174zM168 0v1082h120v-1082h-120zM383 1299v157h173v-157h-173z" />
<glyph unicode="&#xf0;" horiz-adv-x="1191" d="M99 455q0 235 130 372.5t348 137.5q104 0 193 -40t143 -107l4 5q-18 131 -68 234t-126 182l-308 -176l-50 74l287 164q-45 33 -94.5 61t-103.5 51l39 104q77 -30 144 -68t124 -85l257 147l51 -74l-241 -138q111 -120 169 -288.5t58 -387.5v-88q0 -245 -137 -400.5 t-344 -155.5q-208 0 -341.5 137t-133.5 339zM219 455q0 -149 97 -261t262 -112q158 0 257.5 127.5t99.5 325.5v90q0 9 -0.5 27.5t-0.5 28.5q-38 76 -128 128t-229 52q-173 0 -265.5 -115t-92.5 -291z" />
<glyph unicode="&#xf1;" d="M158 0v1082h106l11 -189q52 100 140.5 154.5t209.5 54.5q176 0 268 -107.5t92 -335.5v-659h-120v658q0 186 -69.5 263t-197.5 77q-126 0 -205.5 -66.5t-114.5 -176.5v-755h-120zM233 1300q0 86 54 144.5t137 58.5q65 0 147 -55t135 -55q46 0 79 36t33 91l80 -20 q0 -88 -55 -146t-137 -58q-74 0 -151 55t-131 55q-47 0 -79 -35t-32 -89z" />
<glyph unicode="&#xf2;" d="M91 524v33q0 239 131 392t347 153q217 0 348 -153t131 -392v-33q0 -240 -130.5 -392.5t-346.5 -152.5q-218 0 -349 152.5t-131 392.5zM211 524q0 -188 95 -316t265 -128q167 0 262.5 128t95.5 316v33q0 185 -96 314t-264 129t-263 -129t-95 -314v-33zM294 1500l2 5h154 l202 -266h-117z" />
<glyph unicode="&#xf3;" d="M91 524v33q0 239 131 392t347 153q217 0 348 -153t131 -392v-33q0 -240 -130.5 -392.5t-346.5 -152.5q-218 0 -349 152.5t-131 392.5zM211 524q0 -188 95 -316t265 -128q167 0 262.5 128t95.5 316v33q0 185 -96 314t-264 129t-263 -129t-95 -314v-33zM507 1235l207 266 h147l3 -6l-249 -260h-108z" />
<glyph unicode="&#xf4;" d="M91 524v33q0 239 131 392t347 153q217 0 348 -153t131 -392v-33q0 -240 -130.5 -392.5t-346.5 -152.5q-218 0 -349 152.5t-131 392.5zM211 524q0 -188 95 -316t265 -128q167 0 262.5 128t95.5 316v33q0 185 -96 314t-264 129t-263 -129t-95 -314v-33zM306 1279v21 l227 221h98l230 -224v-18h-112l-167 168l-166 -168h-110z" />
<glyph unicode="&#xf5;" d="M91 524v33q0 239 131 392t347 153q217 0 348 -153t131 -392v-33q0 -240 -130.5 -392.5t-346.5 -152.5q-218 0 -349 152.5t-131 392.5zM211 524q0 -188 95 -316t265 -128q167 0 262.5 128t95.5 316v33q0 185 -96 314t-264 129t-263 -129t-95 -314v-33zM237 1300 q0 86 54 144.5t137 58.5q65 0 147 -55t135 -55q46 0 79 36t33 91l80 -20q0 -88 -55 -146t-137 -58q-74 0 -151 55t-131 55q-47 0 -79 -35t-32 -89z" />
<glyph unicode="&#xf6;" d="M91 524v33q0 239 131 392t347 153q217 0 348 -153t131 -392v-33q0 -240 -130.5 -392.5t-346.5 -152.5q-218 0 -349 152.5t-131 392.5zM211 524q0 -188 95 -316t265 -128q167 0 262.5 128t95.5 316v33q0 185 -96 314t-264 129t-263 -129t-95 -314v-33zM265 1319v157h174 v-157h-174zM735 1319v157h173v-157h-173z" />
<glyph unicode="&#xf7;" horiz-adv-x="1164" d="M72 644v116h998v-116h-998zM506 212v160h142v-160h-142zM506 1010v160h142v-160h-142z" />
<glyph unicode="&#xf8;" horiz-adv-x="1141" d="M91 524v33q0 239 131 392t347 153q60 0 114 -12.5t102 -36.5l79 161h93l-101 -207q91 -72 141.5 -189t50.5 -261v-33q0 -240 -130.5 -392.5t-346.5 -152.5q-55 0 -104.5 10.5t-94.5 30.5l-78 -160h-93l99 202q-100 70 -154.5 190.5t-54.5 271.5zM211 524q0 -112 35 -206 t100 -149h6l385 787q-36 21 -78.5 32.5t-89.5 11.5q-168 0 -263 -129t-95 -314v-33zM418 114q33 -17 71.5 -25.5t81.5 -8.5q167 0 262.5 128t95.5 316v33q0 102 -32 192t-89 147h-6z" />
<glyph unicode="&#xf9;" d="M154 455v627h120v-629q0 -198 67.5 -284t191.5 -86q136 0 217 61t113 168v770h120v-1082h-106l-10 177q-52 -95 -140 -146.5t-208 -51.5q-171 0 -268 116t-97 360zM292 1479l2 5h154l202 -266h-117z" />
<glyph unicode="&#xfa;" d="M154 455v627h120v-629q0 -198 67.5 -284t191.5 -86q136 0 217 61t113 168v770h120v-1082h-106l-10 177q-52 -95 -140 -146.5t-208 -51.5q-171 0 -268 116t-97 360zM505 1214l207 266h147l3 -6l-249 -260h-108z" />
<glyph unicode="&#xfb;" d="M154 455v627h120v-629q0 -198 67.5 -284t191.5 -86q136 0 217 61t113 168v770h120v-1082h-106l-10 177q-52 -95 -140 -146.5t-208 -51.5q-171 0 -268 116t-97 360zM304 1258v21l227 221h98l230 -224v-18h-112l-167 168l-166 -168h-110z" />
<glyph unicode="&#xfc;" d="M154 455v627h120v-629q0 -198 67.5 -284t191.5 -86q136 0 217 61t113 168v770h120v-1082h-106l-10 177q-52 -95 -140 -146.5t-208 -51.5q-171 0 -268 116t-97 360zM263 1299v157h174v-157h-174zM733 1299v157h173v-157h-173z" />
<glyph unicode="&#xfd;" horiz-adv-x="1002" d="M35 1082h133l297 -789l38 -129h6l327 918h134l-470 -1255q-42 -110 -109 -187t-196 -77q-21 0 -51 4.5t-44 9.5l14 100q12 -2 38.5 -4.5t38.5 -2.5q78 0 125 55.5t80 142.5l57 146zM439 1214l207 266h147l3 -6l-249 -260h-108z" />
<glyph unicode="&#xfe;" horiz-adv-x="1151" d="M161 -416v1976h120v-640q54 87 138.5 134.5t198.5 47.5q195 0 305 -155.5t110 -414.5v-21q0 -243 -110 -387.5t-303 -144.5q-114 0 -199.5 43t-139.5 123v-561h-120zM281 271q41 -89 118.5 -140t193.5 -51q157 0 238.5 118t81.5 313v21q0 206 -82 336t-240 130 q-121 0 -196.5 -57.5t-113.5 -149.5v-520z" />
<glyph unicode="&#xff;" horiz-adv-x="1002" d="M35 1082h133l297 -789l38 -129h6l327 918h134l-470 -1255q-42 -110 -109 -187t-196 -77q-21 0 -51 4.5t-44 9.5l14 100q12 -2 38.5 -4.5t38.5 -2.5q78 0 125 55.5t80 142.5l57 146zM197 1299v157h174v-157h-174zM667 1299v157h173v-157h-173z" />
<glyph unicode="&#x152;" horiz-adv-x="1913" d="M108 576v304q0 264 148.5 430.5t387.5 166.5q75 0 152 -6t161 -15h862v-102h-798v-547h701v-102h-701v-604h803v-101h-867q-97 -10 -167.5 -15.5t-143.5 -5.5q-239 0 -388.5 166t-149.5 431zM228 576q0 -228 113.5 -361.5t304.5 -133.5q66 0 131.5 3.5t124.5 11.5v1264 q-60 7 -125 11t-133 4q-192 0 -304 -132t-112 -361v-306z" />
<glyph unicode="&#x153;" horiz-adv-x="1892" d="M94 524v33q0 239 131 392t347 153q146 0 255.5 -72.5t168.5 -199.5q59 125 166 198.5t234 73.5q199 0 313 -126t114 -336v-102h-764v-29q0 -183 97 -306t255 -123q112 0 190.5 31t134.5 89l52 -82q-61 -64 -154.5 -101.5t-222.5 -37.5q-139 0 -248.5 71.5t-168.5 197.5 q-58 -126 -167 -197.5t-253 -71.5q-218 0 -349 152.5t-131 392.5zM214 524q0 -188 95 -316t265 -128q167 0 262 128t95 316v33q0 185 -95.5 314t-263.5 129t-263 -129t-95 -314v-33zM1068 644l2 -5h633v30q0 141 -82.5 236t-224.5 95q-133 0 -223 -101.5t-105 -254.5z" />
<glyph unicode="&#x178;" horiz-adv-x="1244" d="M33 1456h139l448 -809l451 809h139l-531 -924v-532h-119v539zM303 1634v157h174v-157h-174zM773 1634v157h173v-157h-173z" />
<glyph unicode="&#x2c6;" horiz-adv-x="880" d="M160 1252v21l227 221h98l230 -224v-18h-112l-167 168l-166 -168h-110z" />
<glyph unicode="&#x2dc;" horiz-adv-x="892" d="M102 1281q0 86 54 144.5t137 58.5q65 0 147 -55t135 -55q46 0 79 36t33 91l80 -20q0 -88 -55 -146t-137 -58q-74 0 -151 55t-131 55q-47 0 -79 -35t-32 -89z" />
<glyph unicode="&#x2000;" horiz-adv-x="948" />
<glyph unicode="&#x2001;" horiz-adv-x="1896" />
<glyph unicode="&#x2002;" horiz-adv-x="948" />
<glyph unicode="&#x2003;" horiz-adv-x="1896" />
<glyph unicode="&#x2004;" horiz-adv-x="632" />
<glyph unicode="&#x2005;" horiz-adv-x="474" />
<glyph unicode="&#x2006;" horiz-adv-x="316" />
<glyph unicode="&#x2007;" horiz-adv-x="316" />
<glyph unicode="&#x2008;" horiz-adv-x="237" />
<glyph unicode="&#x2009;" horiz-adv-x="379" />
<glyph unicode="&#x200a;" horiz-adv-x="105" />
<glyph unicode="&#x2010;" horiz-adv-x="586" d="M49 570v101h479v-101h-479z" />
<glyph unicode="&#x2011;" horiz-adv-x="586" d="M49 570v101h479v-101h-479z" />
<glyph unicode="&#x2012;" horiz-adv-x="586" d="M49 570v101h479v-101h-479z" />
<glyph unicode="&#x2013;" horiz-adv-x="1414" d="M165 686v102h1086v-102h-1086z" />
<glyph unicode="&#x2014;" horiz-adv-x="1667" d="M136 686v102h1336v-102h-1336z" />
<glyph unicode="&#x2018;" horiz-adv-x="364" d="M91 1074v174l111 312h71l-63 -312v-174h-119z" />
<glyph unicode="&#x2019;" horiz-adv-x="364" d="M91 1074l63 304v182h119v-179l-111 -307h-71z" />
<glyph unicode="&#x201a;" horiz-adv-x="353" d="M91 -211l52 266v204h119v-194l-100 -276h-71z" />
<glyph unicode="&#x201c;" horiz-adv-x="612" d="M91 1074v174l111 312h71l-63 -312v-174h-119zM338 1074v174l111 312h71l-63 -312v-174h-119z" />
<glyph unicode="&#x201d;" horiz-adv-x="617" d="M91 1074l63 304v182h119v-179l-111 -307h-71zM343 1074l63 304v182h119v-179l-111 -307h-71z" />
<glyph unicode="&#x201e;" horiz-adv-x="593" d="M91 -202l51 295v181h120v-175l-100 -301h-71zM330 -202l52 299v177h120v-175l-100 -301h-72z" />
<glyph unicode="&#x2022;" horiz-adv-x="662" d="M146 717v65q0 78 50.5 128.5t134.5 50.5q85 0 135.5 -50.5t50.5 -128.5v-65q0 -79 -50.5 -128t-134.5 -49q-85 0 -135.5 49t-50.5 128z" />
<glyph unicode="&#x2026;" horiz-adv-x="1313" d="M188 0v164h137v-164h-137zM598 0v164h137v-164h-137zM990 0v164h137v-164h-137z" />
<glyph unicode="&#x202f;" horiz-adv-x="379" />
<glyph unicode="&#x2039;" horiz-adv-x="609" d="M108 541v19l295 379h105l-276 -389l276 -388h-105z" />
<glyph unicode="&#x203a;" horiz-adv-x="609" d="M101 162l276 388l-276 389h105l295 -379v-19l-295 -379h-105z" />
<glyph unicode="&#x205f;" horiz-adv-x="474" />
<glyph unicode="&#x20ac;" horiz-adv-x="1073" d="M80 533v102h169v168h-169v102h169v37q0 244 135.5 389.5t355.5 145.5q57 0 112.5 -8t119.5 -23l-9 -106q-54 16 -110.5 25.5t-112.5 9.5q-172 0 -272 -116t-100 -315v-39h547v-102h-547v-168h547v-102h-547v-19q0 -198 101.5 -316t272.5 -118q57 0 113 8.5t108 25.5 l9 -104q-54 -15 -112.5 -23t-117.5 -8q-220 0 -356.5 145t-136.5 390v19h-169z" />
<glyph unicode="&#x2122;" horiz-adv-x="1264" d="M96 1387v69h384v-69h-152v-468h-74v468h-158zM558 919v537h94l171 -423h6l174 423h88v-537h-73v383l-6 1l-160 -384h-51l-165 399l-6 -1v-398h-72z" />
<glyph unicode="&#xe000;" horiz-adv-x="1080" d="M0 0v1080h1080v-1080h-1080z" />
<glyph unicode="&#xfb02;" horiz-adv-x="1138" d="M66 984v98h179v158q0 163 81.5 252t228.5 89q33 0 67 -5t69 -14l-15 -99q-24 6 -49.5 9.5t-59.5 3.5q-98 0 -150 -62t-52 -174v-158h258v-98h-258v-984h-120v984h-179zM846 0v1560h119v-1560h-119z" />
<glyph unicode="&#xfb03;" horiz-adv-x="1773" d="M66 984v98h179v158q0 163 81.5 252t228.5 89q33 0 67 -5t69 -14l-15 -99q-24 6 -49.5 9.5t-59.5 3.5q-98 0 -150 -62t-52 -174v-158h258v-98h-258v-984h-120v984h-179zM721 984v98h180v138q0 172 95 266.5t264 94.5q67 0 136 -15t140 -44l-20 -103q-61 25 -118 39 t-130 14q-122 0 -184.5 -65t-62.5 -187v-138h253v-98h-253v-984h-120v984h-180zM1481 0v1082h120v-1082h-120z" />
<glyph unicode="&#xfb04;" horiz-adv-x="1811" d="M66 984v98h179v158q0 163 81.5 252t228.5 89q33 0 67 -5t69 -14l-15 -99q-24 6 -49.5 9.5t-59.5 3.5q-98 0 -150 -62t-52 -174v-158h258v-98h-258v-984h-120v984h-179zM739 984v98h179v158q0 163 81.5 252t228.5 89q33 0 67 -5t69 -14l-15 -99q-24 6 -49.5 9.5t-59.5 3.5 q-98 0 -150 -62t-52 -174v-158h258v-98h-258v-984h-120v984h-179zM1519 0v1560h119v-1560h-119z" />
<hkern u1="&#x22;" u2="w" k="-11" />
<hkern u1="&#x27;" u2="w" k="-11" />
<hkern u1="&#x28;" u2="&#x178;" k="-22" />
<hkern u1="&#x28;" u2="&#xdd;" k="-22" />
<hkern u1="&#x28;" u2="Y" k="-22" />
<hkern u1="&#x28;" u2="W" k="-18" />
<hkern u1="&#x28;" u2="V" k="-20" />
<hkern u1="&#x2f;" u2="&#x2f;" k="224" />
<hkern u1="A" u2="w" k="33" />
<hkern u1="A" u2="t" k="17" />
<hkern u1="A" u2="&#x3f;" k="61" />
<hkern u1="C" u2="&#x7d;" k="17" />
<hkern u1="C" u2="]" k="12" />
<hkern u1="C" u2="&#x29;" k="26" />
<hkern u1="D" u2="&#xc6;" k="33" />
<hkern u1="E" u2="w" k="22" />
<hkern u1="E" u2="f" k="18" />
<hkern u1="F" u2="&#x2026;" k="234" />
<hkern u1="F" u2="&#x201e;" k="234" />
<hkern u1="F" u2="&#x201a;" k="234" />
<hkern u1="F" u2="&#x153;" k="21" />
<hkern u1="F" u2="&#xff;" k="24" />
<hkern u1="F" u2="&#xfd;" k="24" />
<hkern u1="F" u2="&#xfc;" k="22" />
<hkern u1="F" u2="&#xfb;" k="22" />
<hkern u1="F" u2="&#xfa;" k="22" />
<hkern u1="F" u2="&#xf9;" k="22" />
<hkern u1="F" u2="&#xf6;" k="21" />
<hkern u1="F" u2="&#xf5;" k="21" />
<hkern u1="F" u2="&#xf4;" k="21" />
<hkern u1="F" u2="&#xf3;" k="21" />
<hkern u1="F" u2="&#xf2;" k="21" />
<hkern u1="F" u2="&#xeb;" k="21" />
<hkern u1="F" u2="&#xea;" k="21" />
<hkern u1="F" u2="&#xe9;" k="21" />
<hkern u1="F" u2="&#xe8;" k="21" />
<hkern u1="F" u2="&#xe7;" k="21" />
<hkern u1="F" u2="&#xe5;" k="34" />
<hkern u1="F" u2="&#xe4;" k="34" />
<hkern u1="F" u2="&#xe3;" k="34" />
<hkern u1="F" u2="&#xe2;" k="34" />
<hkern u1="F" u2="&#xe1;" k="34" />
<hkern u1="F" u2="&#xe0;" k="34" />
<hkern u1="F" u2="&#xc5;" k="59" />
<hkern u1="F" u2="&#xc4;" k="59" />
<hkern u1="F" u2="&#xc3;" k="59" />
<hkern u1="F" u2="&#xc2;" k="59" />
<hkern u1="F" u2="&#xc1;" k="59" />
<hkern u1="F" u2="&#xc0;" k="59" />
<hkern u1="F" u2="y" k="24" />
<hkern u1="F" u2="v" k="24" />
<hkern u1="F" u2="u" k="22" />
<hkern u1="F" u2="r" k="26" />
<hkern u1="F" u2="q" k="21" />
<hkern u1="F" u2="o" k="21" />
<hkern u1="F" u2="g" k="21" />
<hkern u1="F" u2="e" k="21" />
<hkern u1="F" u2="d" k="21" />
<hkern u1="F" u2="c" k="21" />
<hkern u1="F" u2="a" k="34" />
<hkern u1="F" u2="T" k="-20" />
<hkern u1="F" u2="J" k="264" />
<hkern u1="F" u2="A" k="59" />
<hkern u1="F" u2="&#x2e;" k="234" />
<hkern u1="F" u2="&#x2c;" k="234" />
<hkern u1="K" u2="w" k="63" />
<hkern u1="L" u2="w" k="92" />
<hkern u1="O" u2="&#xc6;" k="33" />
<hkern u1="P" u2="&#xc6;" k="97" />
<hkern u1="P" u2="t" k="-14" />
<hkern u1="Q" u2="&#x178;" k="35" />
<hkern u1="Q" u2="&#xdd;" k="35" />
<hkern u1="Q" u2="Y" k="35" />
<hkern u1="Q" u2="W" k="20" />
<hkern u1="Q" u2="V" k="28" />
<hkern u1="Q" u2="T" k="43" />
<hkern u1="R" u2="&#x178;" k="48" />
<hkern u1="R" u2="&#xdd;" k="48" />
<hkern u1="R" u2="Y" k="48" />
<hkern u1="R" u2="V" k="19" />
<hkern u1="R" u2="T" k="80" />
<hkern u1="T" u2="&#xf8;" k="95" />
<hkern u1="T" u2="&#xe6;" k="114" />
<hkern u1="T" u2="&#xc6;" k="179" />
<hkern u1="T" u2="&#xbb;" k="216" />
<hkern u1="T" u2="&#xab;" k="328" />
<hkern u1="T" u2="w" k="57" />
<hkern u1="T" u2="r" k="75" />
<hkern u1="V" u2="&#x7d;" k="-19" />
<hkern u1="V" u2="r" k="30" />
<hkern u1="V" u2="]" k="-17" />
<hkern u1="V" u2="&#x29;" k="-20" />
<hkern u1="W" u2="&#x7d;" k="-14" />
<hkern u1="W" u2="r" k="21" />
<hkern u1="W" u2="]" k="-12" />
<hkern u1="W" u2="&#x29;" k="-15" />
<hkern u1="Y" u2="&#x2022;" k="45" />
<hkern u1="Y" u2="&#xf8;" k="64" />
<hkern u1="Y" u2="&#xe6;" k="63" />
<hkern u1="Y" u2="&#xc6;" k="96" />
<hkern u1="Y" u2="&#xbb;" k="51" />
<hkern u1="Y" u2="&#xab;" k="82" />
<hkern u1="Y" u2="&#x7d;" k="-19" />
<hkern u1="Y" u2="t" k="22" />
<hkern u1="Y" u2="r" k="40" />
<hkern u1="Y" u2="f" k="22" />
<hkern u1="Y" u2="]" k="-18" />
<hkern u1="Y" u2="&#x2a;" k="49" />
<hkern u1="Y" u2="&#x29;" k="-20" />
<hkern u1="Y" u2="&#x26;" k="30" />
<hkern u1="Z" u2="w" k="27" />
<hkern u1="[" u2="&#xdc;" k="18" />
<hkern u1="[" u2="&#xdb;" k="18" />
<hkern u1="[" u2="&#xda;" k="18" />
<hkern u1="[" u2="&#xd9;" k="18" />
<hkern u1="[" u2="U" k="18" />
<hkern u1="[" u2="J" k="18" />
<hkern u1="f" u2="&#x201d;" k="-16" />
<hkern u1="f" u2="&#x201c;" k="-16" />
<hkern u1="f" u2="&#x2019;" k="-16" />
<hkern u1="f" u2="&#x2018;" k="-16" />
<hkern u1="f" u2="&#x153;" k="24" />
<hkern u1="f" u2="&#xeb;" k="24" />
<hkern u1="f" u2="&#xea;" k="24" />
<hkern u1="f" u2="&#xe9;" k="24" />
<hkern u1="f" u2="&#xe8;" k="24" />
<hkern u1="f" u2="&#xe7;" k="24" />
<hkern u1="f" u2="&#x7d;" k="-19" />
<hkern u1="f" u2="q" k="24" />
<hkern u1="f" u2="g" k="24" />
<hkern u1="f" u2="e" k="24" />
<hkern u1="f" u2="d" k="24" />
<hkern u1="f" u2="c" k="24" />
<hkern u1="f" u2="]" k="-18" />
<hkern u1="f" u2="&#x29;" k="-20" />
<hkern u1="f" u2="&#x27;" k="-16" />
<hkern u1="f" u2="&#x22;" k="-16" />
<hkern u1="k" u2="&#x153;" k="20" />
<hkern u1="k" u2="&#xeb;" k="20" />
<hkern u1="k" u2="&#xea;" k="20" />
<hkern u1="k" u2="&#xe9;" k="20" />
<hkern u1="k" u2="&#xe8;" k="20" />
<hkern u1="k" u2="&#xe7;" k="20" />
<hkern u1="k" u2="q" k="20" />
<hkern u1="k" u2="g" k="20" />
<hkern u1="k" u2="e" k="20" />
<hkern u1="k" u2="d" k="20" />
<hkern u1="k" u2="c" k="20" />
<hkern u1="r" u2="w" k="-17" />
<hkern u1="r" u2="t" k="-32" />
<hkern u1="r" u2="f" k="-15" />
<hkern u1="t" u2="&#xf6;" k="20" />
<hkern u1="t" u2="&#xf5;" k="20" />
<hkern u1="t" u2="&#xf4;" k="20" />
<hkern u1="t" u2="&#xf3;" k="20" />
<hkern u1="t" u2="&#xf2;" k="20" />
<hkern u1="t" u2="o" k="20" />
<hkern u1="v" u2="f" k="-13" />
<hkern u1="w" u2="&#x2026;" k="124" />
<hkern u1="w" u2="&#x201e;" k="124" />
<hkern u1="w" u2="&#x201a;" k="124" />
<hkern u1="w" u2="&#x2e;" k="124" />
<hkern u1="w" u2="&#x2c;" k="124" />
<hkern u1="y" u2="f" k="-13" />
<hkern u1="&#x7b;" u2="&#xdc;" k="20" />
<hkern u1="&#x7b;" u2="&#xdb;" k="20" />
<hkern u1="&#x7b;" u2="&#xda;" k="20" />
<hkern u1="&#x7b;" u2="&#xd9;" k="20" />
<hkern u1="&#x7b;" u2="U" k="20" />
<hkern u1="&#x7b;" u2="J" k="20" />
<hkern u1="&#xc0;" u2="w" k="33" />
<hkern u1="&#xc0;" u2="t" k="17" />
<hkern u1="&#xc0;" u2="&#x3f;" k="61" />
<hkern u1="&#xc1;" u2="w" k="33" />
<hkern u1="&#xc1;" u2="t" k="17" />
<hkern u1="&#xc1;" u2="&#x3f;" k="61" />
<hkern u1="&#xc2;" u2="w" k="33" />
<hkern u1="&#xc2;" u2="t" k="17" />
<hkern u1="&#xc2;" u2="&#x3f;" k="61" />
<hkern u1="&#xc3;" u2="w" k="33" />
<hkern u1="&#xc3;" u2="t" k="17" />
<hkern u1="&#xc3;" u2="&#x3f;" k="61" />
<hkern u1="&#xc4;" u2="w" k="33" />
<hkern u1="&#xc4;" u2="t" k="17" />
<hkern u1="&#xc4;" u2="&#x3f;" k="61" />
<hkern u1="&#xc5;" u2="w" k="33" />
<hkern u1="&#xc5;" u2="t" k="17" />
<hkern u1="&#xc5;" u2="&#x3f;" k="61" />
<hkern u1="&#xc7;" u2="&#x7d;" k="17" />
<hkern u1="&#xc7;" u2="]" k="12" />
<hkern u1="&#xc7;" u2="&#x29;" k="26" />
<hkern u1="&#xc8;" u2="w" k="22" />
<hkern u1="&#xc8;" u2="f" k="18" />
<hkern u1="&#xc9;" u2="w" k="22" />
<hkern u1="&#xc9;" u2="f" k="18" />
<hkern u1="&#xca;" u2="w" k="22" />
<hkern u1="&#xca;" u2="f" k="18" />
<hkern u1="&#xcb;" u2="w" k="22" />
<hkern u1="&#xcb;" u2="f" k="18" />
<hkern u1="&#xd0;" u2="&#xc6;" k="33" />
<hkern u1="&#xd2;" u2="&#xc6;" k="33" />
<hkern u1="&#xd3;" u2="&#xc6;" k="33" />
<hkern u1="&#xd4;" u2="&#xc6;" k="33" />
<hkern u1="&#xd5;" u2="&#xc6;" k="33" />
<hkern u1="&#xd6;" u2="&#xc6;" k="33" />
<hkern u1="&#xdd;" u2="&#x2022;" k="45" />
<hkern u1="&#xdd;" u2="&#xf8;" k="64" />
<hkern u1="&#xdd;" u2="&#xe6;" k="63" />
<hkern u1="&#xdd;" u2="&#xc6;" k="96" />
<hkern u1="&#xdd;" u2="&#xbb;" k="51" />
<hkern u1="&#xdd;" u2="&#xab;" k="82" />
<hkern u1="&#xdd;" u2="&#x7d;" k="-19" />
<hkern u1="&#xdd;" u2="t" k="22" />
<hkern u1="&#xdd;" u2="r" k="40" />
<hkern u1="&#xdd;" u2="f" k="22" />
<hkern u1="&#xdd;" u2="]" k="-18" />
<hkern u1="&#xdd;" u2="&#x2a;" k="49" />
<hkern u1="&#xdd;" u2="&#x29;" k="-20" />
<hkern u1="&#xdd;" u2="&#x26;" k="30" />
<hkern u1="&#xfd;" u2="f" k="-13" />
<hkern u1="&#xff;" u2="f" k="-13" />
<hkern u1="&#x178;" u2="&#x2022;" k="45" />
<hkern u1="&#x178;" u2="&#xf8;" k="64" />
<hkern u1="&#x178;" u2="&#xe6;" k="63" />
<hkern u1="&#x178;" u2="&#xc6;" k="96" />
<hkern u1="&#x178;" u2="&#xbb;" k="51" />
<hkern u1="&#x178;" u2="&#xab;" k="82" />
<hkern u1="&#x178;" u2="&#x7d;" k="-19" />
<hkern u1="&#x178;" u2="t" k="22" />
<hkern u1="&#x178;" u2="r" k="40" />
<hkern u1="&#x178;" u2="f" k="22" />
<hkern u1="&#x178;" u2="]" k="-18" />
<hkern u1="&#x178;" u2="&#x2a;" k="49" />
<hkern u1="&#x178;" u2="&#x29;" k="-20" />
<hkern u1="&#x178;" u2="&#x26;" k="30" />
<hkern u1="&#x2018;" u2="w" k="-11" />
<hkern u1="&#x2019;" u2="w" k="-11" />
<hkern u1="&#x201c;" u2="w" k="-11" />
<hkern u1="&#x201d;" u2="w" k="-11" />
<hkern g1="comma,period,quotesinglbase,quotedblbase,ellipsis" 	g2="quotedbl,quotesingle,quoteleft,quoteright,quotedblleft,quotedblright" 	k="170" />
<hkern g1="A,Agrave,Aacute,Acircumflex,Atilde,Adieresis,Aring" 	g2="quotedbl,quotesingle,quoteleft,quoteright,quotedblleft,quotedblright" 	k="120" />
<hkern g1="A,Agrave,Aacute,Acircumflex,Atilde,Adieresis,Aring" 	g2="o,ograve,oacute,ocircumflex,otilde,odieresis" 	k="12" />
<hkern g1="A,Agrave,Aacute,Acircumflex,Atilde,Adieresis,Aring" 	g2="C,G,O,Q,Ccedilla,Ograve,Oacute,Ocircumflex,Otilde,Odieresis,Oslash,OE" 	k="11" />
<hkern g1="A,Agrave,Aacute,Acircumflex,Atilde,Adieresis,Aring" 	g2="T" 	k="129" />
<hkern g1="A,Agrave,Aacute,Acircumflex,Atilde,Adieresis,Aring" 	g2="U,Ugrave,Uacute,Ucircumflex,Udieresis" 	k="17" />
<hkern g1="A,Agrave,Aacute,Acircumflex,Atilde,Adieresis,Aring" 	g2="V" 	k="87" />
<hkern g1="A,Agrave,Aacute,Acircumflex,Atilde,Adieresis,Aring" 	g2="W" 	k="69" />
<hkern g1="A,Agrave,Aacute,Acircumflex,Atilde,Adieresis,Aring" 	g2="Y,Yacute,Ydieresis" 	k="94" />
<hkern g1="A,Agrave,Aacute,Acircumflex,Atilde,Adieresis,Aring" 	g2="u,ugrave,uacute,ucircumflex,udieresis" 	k="11" />
<hkern g1="A,Agrave,Aacute,Acircumflex,Atilde,Adieresis,Aring" 	g2="v,y,yacute,ydieresis" 	k="50" />
<hkern g1="A,Agrave,Aacute,Acircumflex,Atilde,Adieresis,Aring" 	g2="z" 	k="-12" />
<hkern g1="B" 	g2="T" 	k="27" />
<hkern g1="B" 	g2="V" 	k="24" />
<hkern g1="B" 	g2="Y,Yacute,Ydieresis" 	k="55" />
<hkern g1="C,Ccedilla" 	g2="T" 	k="29" />
<hkern g1="D,O,Eth,Ograve,Oacute,Ocircumflex,Otilde,Odieresis" 	g2="A,Agrave,Aacute,Acircumflex,Atilde,Adieresis,Aring" 	k="21" />
<hkern g1="D,O,Eth,Ograve,Oacute,Ocircumflex,Otilde,Odieresis" 	g2="T" 	k="27" />
<hkern g1="D,O,Eth,Ograve,Oacute,Ocircumflex,Otilde,Odieresis" 	g2="V" 	k="22" />
<hkern g1="D,O,Eth,Ograve,Oacute,Ocircumflex,Otilde,Odieresis" 	g2="Y,Yacute,Ydieresis" 	k="43" />
<hkern g1="D,O,Eth,Ograve,Oacute,Ocircumflex,Otilde,Odieresis" 	g2="comma,period,quotesinglbase,quotedblbase,ellipsis" 	k="102" />
<hkern g1="D,O,Eth,Ograve,Oacute,Ocircumflex,Otilde,Odieresis" 	g2="X" 	k="22" />
<hkern g1="D,O,Eth,Ograve,Oacute,Ocircumflex,Otilde,Odieresis" 	g2="Z" 	k="23" />
<hkern g1="E,Egrave,Eacute,Ecircumflex,Edieresis" 	g2="c,d,e,g,q,ccedilla,egrave,eacute,ecircumflex,edieresis,oe" 	k="19" />
<hkern g1="E,Egrave,Eacute,Ecircumflex,Edieresis" 	g2="o,ograve,oacute,ocircumflex,otilde,odieresis" 	k="19" />
<hkern g1="E,Egrave,Eacute,Ecircumflex,Edieresis" 	g2="T" 	k="-20" />
<hkern g1="E,Egrave,Eacute,Ecircumflex,Edieresis" 	g2="u,ugrave,uacute,ucircumflex,udieresis" 	k="17" />
<hkern g1="E,Egrave,Eacute,Ecircumflex,Edieresis" 	g2="v,y,yacute,ydieresis" 	k="26" />
<hkern g1="H,I,M,N,Igrave,Iacute,Icircumflex,Idieresis,Ntilde" 	g2="A,Agrave,Aacute,Acircumflex,Atilde,Adieresis,Aring" 	k="-18" />
<hkern g1="H,I,M,N,Igrave,Iacute,Icircumflex,Idieresis,Ntilde" 	g2="T" 	k="29" />
<hkern g1="H,I,M,N,Igrave,Iacute,Icircumflex,Idieresis,Ntilde" 	g2="Y,Yacute,Ydieresis" 	k="28" />
<hkern g1="H,I,M,N,Igrave,Iacute,Icircumflex,Idieresis,Ntilde" 	g2="X" 	k="-17" />
<hkern g1="J,U,Ugrave,Uacute,Ucircumflex,Udieresis" 	g2="A,Agrave,Aacute,Acircumflex,Atilde,Adieresis,Aring" 	k="22" />
<hkern g1="K" 	g2="c,d,e,g,q,ccedilla,egrave,eacute,ecircumflex,edieresis,oe" 	k="26" />
<hkern g1="K" 	g2="m,n,p,ntilde" 	k="23" />
<hkern g1="K" 	g2="o,ograve,oacute,ocircumflex,otilde,odieresis" 	k="27" />
<hkern g1="K" 	g2="C,G,O,Q,Ccedilla,Ograve,Oacute,Ocircumflex,Otilde,Odieresis,Oslash,OE" 	k="31" />
<hkern g1="K" 	g2="u,ugrave,uacute,ucircumflex,udieresis" 	k="23" />
<hkern g1="K" 	g2="v,y,yacute,ydieresis" 	k="40" />
<hkern g1="K" 	g2="hyphen,uni00AD,endash,emdash" 	k="64" />
<hkern g1="L" 	g2="quotedbl,quotesingle,quoteleft,quoteright,quotedblleft,quotedblright" 	k="138" />
<hkern g1="L" 	g2="A,Agrave,Aacute,Acircumflex,Atilde,Adieresis,Aring" 	k="-19" />
<hkern g1="L" 	g2="C,G,O,Q,Ccedilla,Ograve,Oacute,Ocircumflex,Otilde,Odieresis,Oslash,OE" 	k="65" />
<hkern g1="L" 	g2="T" 	k="275" />
<hkern g1="L" 	g2="U,Ugrave,Uacute,Ucircumflex,Udieresis" 	k="54" />
<hkern g1="L" 	g2="V" 	k="175" />
<hkern g1="L" 	g2="W" 	k="143" />
<hkern g1="L" 	g2="Y,Yacute,Ydieresis" 	k="239" />
<hkern g1="L" 	g2="u,ugrave,uacute,ucircumflex,udieresis" 	k="44" />
<hkern g1="L" 	g2="v,y,yacute,ydieresis" 	k="133" />
<hkern g1="P" 	g2="A,Agrave,Aacute,Acircumflex,Atilde,Adieresis,Aring" 	k="138" />
<hkern g1="P" 	g2="a,agrave,aacute,acircumflex,atilde,adieresis,aring" 	k="11" />
<hkern g1="P" 	g2="c,d,e,g,q,ccedilla,egrave,eacute,ecircumflex,edieresis,oe" 	k="13" />
<hkern g1="P" 	g2="o,ograve,oacute,ocircumflex,otilde,odieresis" 	k="13" />
<hkern g1="P" 	g2="v,y,yacute,ydieresis" 	k="-15" />
<hkern g1="P" 	g2="comma,period,quotesinglbase,quotedblbase,ellipsis" 	k="324" />
<hkern g1="P" 	g2="X" 	k="31" />
<hkern g1="P" 	g2="Z" 	k="26" />
<hkern g1="P" 	g2="J" 	k="200" />
<hkern g1="T" 	g2="A,Agrave,Aacute,Acircumflex,Atilde,Adieresis,Aring" 	k="79" />
<hkern g1="T" 	g2="a,agrave,aacute,acircumflex,atilde,adieresis,aring" 	k="113" />
<hkern g1="T" 	g2="c,d,e,g,q,ccedilla,egrave,eacute,ecircumflex,edieresis,oe" 	k="99" />
<hkern g1="T" 	g2="m,n,p,ntilde" 	k="109" />
<hkern g1="T" 	g2="o,ograve,oacute,ocircumflex,otilde,odieresis" 	k="99" />
<hkern g1="T" 	g2="s" 	k="116" />
<hkern g1="T" 	g2="C,G,O,Q,Ccedilla,Ograve,Oacute,Ocircumflex,Otilde,Odieresis,Oslash,OE" 	k="28" />
<hkern g1="T" 	g2="T" 	k="-16" />
<hkern g1="T" 	g2="V" 	k="-16" />
<hkern g1="T" 	g2="W" 	k="-15" />
<hkern g1="T" 	g2="Y,Yacute,Ydieresis" 	k="-16" />
<hkern g1="T" 	g2="u,ugrave,uacute,ucircumflex,udieresis" 	k="95" />
<hkern g1="T" 	g2="v,y,yacute,ydieresis" 	k="72" />
<hkern g1="T" 	g2="z" 	k="60" />
<hkern g1="T" 	g2="comma,period,quotesinglbase,quotedblbase,ellipsis" 	k="218" />
<hkern g1="T" 	g2="hyphen,uni00AD,endash,emdash" 	k="232" />
<hkern g1="T" 	g2="J" 	k="240" />
<hkern g1="T" 	g2="S" 	k="16" />
<hkern g1="T" 	g2="x" 	k="77" />
<hkern g1="V" 	g2="A,Agrave,Aacute,Acircumflex,Atilde,Adieresis,Aring" 	k="75" />
<hkern g1="V" 	g2="a,agrave,aacute,acircumflex,atilde,adieresis,aring" 	k="46" />
<hkern g1="V" 	g2="c,d,e,g,q,ccedilla,egrave,eacute,ecircumflex,edieresis,oe" 	k="44" />
<hkern g1="V" 	g2="o,ograve,oacute,ocircumflex,otilde,odieresis" 	k="46" />
<hkern g1="V" 	g2="C,G,O,Q,Ccedilla,Ograve,Oacute,Ocircumflex,Otilde,Odieresis,Oslash,OE" 	k="13" />
<hkern g1="V" 	g2="u,ugrave,uacute,ucircumflex,udieresis" 	k="28" />
<hkern g1="V" 	g2="v,y,yacute,ydieresis" 	k="11" />
<hkern g1="V" 	g2="comma,period,quotesinglbase,quotedblbase,ellipsis" 	k="225" />
<hkern g1="V" 	g2="hyphen,uni00AD,endash,emdash" 	k="37" />
<hkern g1="W" 	g2="A,Agrave,Aacute,Acircumflex,Atilde,Adieresis,Aring" 	k="43" />
<hkern g1="W" 	g2="a,agrave,aacute,acircumflex,atilde,adieresis,aring" 	k="33" />
<hkern g1="W" 	g2="c,d,e,g,q,ccedilla,egrave,eacute,ecircumflex,edieresis,oe" 	k="31" />
<hkern g1="W" 	g2="o,ograve,oacute,ocircumflex,otilde,odieresis" 	k="31" />
<hkern g1="W" 	g2="T" 	k="-14" />
<hkern g1="W" 	g2="u,ugrave,uacute,ucircumflex,udieresis" 	k="19" />
<hkern g1="W" 	g2="comma,period,quotesinglbase,quotedblbase,ellipsis" 	k="123" />
<hkern g1="W" 	g2="hyphen,uni00AD,endash,emdash" 	k="60" />
<hkern g1="X" 	g2="c,d,e,g,q,ccedilla,egrave,eacute,ecircumflex,edieresis,oe" 	k="26" />
<hkern g1="X" 	g2="o,ograve,oacute,ocircumflex,otilde,odieresis" 	k="21" />
<hkern g1="X" 	g2="C,G,O,Q,Ccedilla,Ograve,Oacute,Ocircumflex,Otilde,Odieresis,Oslash,OE" 	k="25" />
<hkern g1="X" 	g2="V" 	k="-14" />
<hkern g1="X" 	g2="u,ugrave,uacute,ucircumflex,udieresis" 	k="21" />
<hkern g1="X" 	g2="v,y,yacute,ydieresis" 	k="31" />
<hkern g1="X" 	g2="hyphen,uni00AD,endash,emdash" 	k="46" />
<hkern g1="Y,Yacute,Ydieresis" 	g2="A,Agrave,Aacute,Acircumflex,Atilde,Adieresis,Aring" 	k="94" />
<hkern g1="Y,Yacute,Ydieresis" 	g2="a,agrave,aacute,acircumflex,atilde,adieresis,aring" 	k="73" />
<hkern g1="Y,Yacute,Ydieresis" 	g2="c,d,e,g,q,ccedilla,egrave,eacute,ecircumflex,edieresis,oe" 	k="65" />
<hkern g1="Y,Yacute,Ydieresis" 	g2="m,n,p,ntilde" 	k="40" />
<hkern g1="Y,Yacute,Ydieresis" 	g2="o,ograve,oacute,ocircumflex,otilde,odieresis" 	k="65" />
<hkern g1="Y,Yacute,Ydieresis" 	g2="s" 	k="58" />
<hkern g1="Y,Yacute,Ydieresis" 	g2="C,G,O,Q,Ccedilla,Ograve,Oacute,Ocircumflex,Otilde,Odieresis,Oslash,OE" 	k="29" />
<hkern g1="Y,Yacute,Ydieresis" 	g2="T" 	k="-17" />
<hkern g1="Y,Yacute,Ydieresis" 	g2="U,Ugrave,Uacute,Ucircumflex,Udieresis" 	k="96" />
<hkern g1="Y,Yacute,Ydieresis" 	g2="V" 	k="-18" />
<hkern g1="Y,Yacute,Ydieresis" 	g2="W" 	k="-17" />
<hkern g1="Y,Yacute,Ydieresis" 	g2="Y,Yacute,Ydieresis" 	k="-18" />
<hkern g1="Y,Yacute,Ydieresis" 	g2="u,ugrave,uacute,ucircumflex,udieresis" 	k="39" />
<hkern g1="Y,Yacute,Ydieresis" 	g2="v,y,yacute,ydieresis" 	k="20" />
<hkern g1="Y,Yacute,Ydieresis" 	g2="z" 	k="30" />
<hkern g1="Y,Yacute,Ydieresis" 	g2="comma,period,quotesinglbase,quotedblbase,ellipsis" 	k="211" />
<hkern g1="Y,Yacute,Ydieresis" 	g2="X" 	k="-13" />
<hkern g1="Y,Yacute,Ydieresis" 	g2="hyphen,uni00AD,endash,emdash" 	k="52" />
<hkern g1="Y,Yacute,Ydieresis" 	g2="J" 	k="96" />
<hkern g1="Y,Yacute,Ydieresis" 	g2="S" 	k="16" />
<hkern g1="Y,Yacute,Ydieresis" 	g2="x" 	k="23" />
<hkern g1="Z" 	g2="A,Agrave,Aacute,Acircumflex,Atilde,Adieresis,Aring" 	k="-13" />
<hkern g1="Z" 	g2="c,d,e,g,q,ccedilla,egrave,eacute,ecircumflex,edieresis,oe" 	k="21" />
<hkern g1="Z" 	g2="o,ograve,oacute,ocircumflex,otilde,odieresis" 	k="21" />
<hkern g1="Z" 	g2="C,G,O,Q,Ccedilla,Ograve,Oacute,Ocircumflex,Otilde,Odieresis,Oslash,OE" 	k="26" />
<hkern g1="Z" 	g2="u,ugrave,uacute,ucircumflex,udieresis" 	k="19" />
<hkern g1="Z" 	g2="v,y,yacute,ydieresis" 	k="27" />
<hkern g1="a,agrave,aacute,acircumflex,atilde,adieresis,aring" 	g2="quotedbl,quotesingle,quoteleft,quoteright,quotedblleft,quotedblright" 	k="67" />
<hkern g1="a,agrave,aacute,acircumflex,atilde,adieresis,aring" 	g2="v,y,yacute,ydieresis" 	k="15" />
<hkern g1="b,p,thorn" 	g2="quotedbl,quotesingle,quoteleft,quoteright,quotedblleft,quotedblright" 	k="29" />
<hkern g1="b,p,thorn" 	g2="v,y,yacute,ydieresis" 	k="11" />
<hkern g1="b,p,thorn" 	g2="z" 	k="15" />
<hkern g1="b,p,thorn" 	g2="x" 	k="15" />
<hkern g1="c,ccedilla" 	g2="quotedbl,quotesingle,quoteleft,quoteright,quotedblleft,quotedblright" 	k="11" />
<hkern g1="e,egrave,eacute,ecircumflex,edieresis" 	g2="quotedbl,quotesingle,quoteleft,quoteright,quotedblleft,quotedblright" 	k="14" />
<hkern g1="e,egrave,eacute,ecircumflex,edieresis" 	g2="v,y,yacute,ydieresis" 	k="13" />
<hkern g1="h,m,n,ntilde" 	g2="quotedbl,quotesingle,quoteleft,quoteright,quotedblleft,quotedblright" 	k="16" />
<hkern g1="o,ograve,oacute,ocircumflex,otilde,odieresis" 	g2="quotedbl,quotesingle,quoteleft,quoteright,quotedblleft,quotedblright" 	k="20" />
<hkern g1="o,ograve,oacute,ocircumflex,otilde,odieresis" 	g2="v,y,yacute,ydieresis" 	k="15" />
<hkern g1="o,ograve,oacute,ocircumflex,otilde,odieresis" 	g2="z" 	k="16" />
<hkern g1="o,ograve,oacute,ocircumflex,otilde,odieresis" 	g2="x" 	k="21" />
<hkern g1="r" 	g2="quotedbl,quotesingle,quoteleft,quoteright,quotedblleft,quotedblright" 	k="-16" />
<hkern g1="r" 	g2="c,d,e,g,q,ccedilla,egrave,eacute,ecircumflex,edieresis,oe" 	k="19" />
<hkern g1="r" 	g2="o,ograve,oacute,ocircumflex,otilde,odieresis" 	k="20" />
<hkern g1="r" 	g2="v,y,yacute,ydieresis" 	k="-18" />
<hkern g1="r" 	g2="comma,period,quotesinglbase,quotedblbase,ellipsis" 	k="123" />
<hkern g1="v,y,yacute,ydieresis" 	g2="quotedbl,quotesingle,quoteleft,quoteright,quotedblleft,quotedblright" 	k="-15" />
<hkern g1="v,y,yacute,ydieresis" 	g2="a,agrave,aacute,acircumflex,atilde,adieresis,aring" 	k="15" />
<hkern g1="v,y,yacute,ydieresis" 	g2="c,d,e,g,q,ccedilla,egrave,eacute,ecircumflex,edieresis,oe" 	k="13" />
<hkern g1="v,y,yacute,ydieresis" 	g2="o,ograve,oacute,ocircumflex,otilde,odieresis" 	k="15" />
<hkern g1="v,y,yacute,ydieresis" 	g2="comma,period,quotesinglbase,quotedblbase,ellipsis" 	k="107" />
<hkern g1="x" 	g2="c,d,e,g,q,ccedilla,egrave,eacute,ecircumflex,edieresis,oe" 	k="20" />
<hkern g1="x" 	g2="o,ograve,oacute,ocircumflex,otilde,odieresis" 	k="20" />
<hkern g1="z" 	g2="c,d,e,g,q,ccedilla,egrave,eacute,ecircumflex,edieresis,oe" 	k="16" />
<hkern g1="z" 	g2="o,ograve,oacute,ocircumflex,otilde,odieresis" 	k="16" />
</font>
</defs></svg> 