<?xml version="1.0" encoding="utf-8"?>
<!-- Generator: Adobe Illustrator 13.0.0, SVG Export Plug-In . SVG Version: 6.00 Build 14948)  -->
<!DOCTYPE svg PUBLIC "-//W3C//DTD SVG 1.1//EN" "http://www.w3.org/Graphics/SVG/1.1/DTD/svg11.dtd">
<svg version="1.1" id="Layer_1" xmlns="http://www.w3.org/2000/svg" xmlns:xlink="http://www.w3.org/1999/xlink" x="0px" y="0px"
	 width="512px" height="512px" viewBox="0 0 512 512" enable-background="new 0 0 512 512" xml:space="preserve">
<circle fill="#5B5D6E" cx="102.079" cy="315.858" r="25.653"/>
<circle fill="#D5DCED" cx="409.921" cy="315.858" r="21.378"/>
<path stroke="#000000" stroke-width="10" d="M404.974,215.136c-9.653,0-18.987,1.399-27.814,3.992l-27.138-71.237h21.848
	c4.284,0,7.761-3.474,7.761-7.759v-8.276c0-17.969-14.621-32.588-32.588-32.588h-33.106c-4.286,0-7.76,3.474-7.76,7.76
	c0,4.284,3.473,7.759,7.76,7.759h33.106c9.411,0,17.069,7.657,17.069,17.07v0.517h-25.347c-2.552,0-4.94,1.255-6.389,3.355
	c-1.447,2.102-1.771,4.78-0.862,7.166l2.823,7.412l-114.631,73.691l-33.915-67.83h20.552c4.285,0,7.759-3.473,7.759-7.759
	c0-4.284-3.473-7.759-7.759-7.759h-33.566c-3.916,0-7.835-0.927-11.336-2.676l-9.563-4.781c-3.833-1.917-8.494-0.363-10.409,3.47
	c-1.917,3.833-0.363,8.494,3.47,10.409l9.563,4.781c4.312,2.156,9.02,3.529,13.814,4.06l23.125,46.25l-26.741,31.603
	c-16.239-11.715-36.162-18.629-57.671-18.629c-54.479,0.001-98.799,44.321-98.799,98.799s44.32,98.799,98.798,98.799
	c51.866,0,94.525-40.174,98.494-91.04h18.832c2.88,11.745,12.144,21.008,23.889,23.889v10.252h-0.516
	c-4.285,0-7.759,3.473-7.759,7.759c0,4.284,3.473,7.759,7.759,7.759h24.828c4.286,0,7.76-3.473,7.76-7.759
	c0-4.284-3.474-7.759-7.76-7.759h-8.794v-10.252c14.234-3.489,24.829-16.352,24.829-31.647c0-7.834-2.779-15.027-7.399-20.652
	l71.364-95.155l10.109,26.539c-33.367,15.879-56.488,49.923-56.488,89.269c0,54.478,44.32,98.797,98.798,98.797
	c54.479,0,98.802-44.319,98.802-98.797S459.452,215.136,404.974,215.136z M198.99,217.263l35.925,71.853
	c-5.139,4.372-8.906,10.305-10.563,17.06h-18.831c-1.898-24.308-12.632-46.172-28.984-62.378L198.99,217.263z M138.673,306.175
	c-1.02-4.162-2.841-8.01-5.291-11.376l33.093-39.109c13.027,13.293,21.64,30.915,23.459,50.485H138.673z M99.988,317.198
	c1.271,2.742,4.018,4.494,7.039,4.494h15.186c-2.832,5.519-8.569,9.312-15.186,9.312c-9.413,0-17.071-7.658-17.071-17.07
	c0-9.413,7.658-17.07,17.071-17.07c1.338,0,2.636,0.17,3.887,0.464l-9.811,11.594C99.151,311.229,98.716,314.457,99.988,317.198z
	 M107.026,397.215c-45.922,0-83.281-37.359-83.281-83.281c0-45.92,37.359-83.28,83.281-83.28c17.692,0,34.101,5.562,47.605,15.006
	l-33.091,39.106c-4.374-2.186-9.302-3.423-14.515-3.423c-17.969,0.001-32.588,14.621-32.588,32.59s14.62,32.589,32.588,32.589
	c15.295,0,28.155-10.597,31.647-24.83h51.26C186.006,363.988,150.33,397.215,107.026,397.215z M263.76,329.119v-15.186
	c0-4.284-3.475-7.759-7.76-7.759c-4.284,0-7.76,3.473-7.76,7.759v15.186c-5.517-2.832-9.311-8.568-9.311-15.186
	c0-9.412,7.658-17.07,17.071-17.07c9.412,0,17.069,7.658,17.069,17.07C273.069,320.553,269.277,326.289,263.76,329.119z
	 M268.781,283.96c-3.927-1.68-8.247-2.615-12.781-2.615c-2.479,0-4.891,0.289-7.213,0.815l-22.117-44.233
	c0.139-0.078,0.284-0.141,0.42-0.229l112.892-72.573l6.038,15.851L268.781,283.96z M404.974,397.215
	c-45.922,0-83.28-37.359-83.28-83.281c0-32.73,18.987-61.099,46.521-74.703l29.508,77.466c1.182,3.096,4.128,4.999,7.253,4.999
	c0.918,0,1.853-0.164,2.762-0.511c4.004-1.524,6.013-6.008,4.488-10.012L382.711,233.7c7.093-1.971,14.553-3.046,22.264-3.046
	c45.922,0,83.28,37.36,83.28,83.28C488.255,359.855,450.896,397.215,404.974,397.215z"/>
</svg>
